﻿  WinQ7.cpp
c:\projects\oxfordprojects\b16tutesheet\winq7\winq7\winq7.cpp(10): warning C4101: 'element': unreferenced local variable
  stdafx.cpp
  list.cpp
  Generating Code...
  WinQ7.vcxproj -> C:\Projects\OxfordProjects\B16TuteSheet\WinQ7\WinQ7\Debug\WinQ7.exe
