^C:\PROJECTS\OXFORDPROJECTS\B16LAB\BALL.CPP|C:\PROJECTS\OXFORDPROJECTS\B16LAB\GRAPHICS.CPP|C:\PROJECTS\OXFORDPROJECTS\B16LAB\TEST-BALL-GRAPHICS.CPP
C:\PROJECTS\OXFORDPROJECTS\B16LAB\SUPPORT\BALL-GRAPHICS\DEBUG\VC140.PDB
C:\PROJECTS\OXFORDPROJECTS\B16LAB\SUPPORT\BALL-GRAPHICS\DEBUG\VC140.IDB
C:\PROJECTS\OXFORDPROJECTS\B16LAB\SUPPORT\BALL-GRAPHICS\DEBUG\BALL.OBJ
C:\PROJECTS\OXFORDPROJECTS\B16LAB\SUPPORT\BALL-GRAPHICS\DEBUG\TEST-BALL-GRAPHICS.OBJ
^C:\PROJECTS\OXFORDPROJECTS\B16LAB\BALL.CPP
C:\PROJECTS\OXFORDPROJECTS\B16LAB\SUPPORT\BALL-GRAPHICS\DEBUG\VC140.PDB
^C:\PROJECTS\OXFORDPROJECTS\B16LAB\GRAPHICS.CPP
C:\PROJECTS\OXFORDPROJECTS\B16LAB\SUPPORT\BALL-GRAPHICS\DEBUG\VC140.PDB
C:\PROJECTS\OXFORDPROJECTS\B16LAB\SUPPORT\BALL-GRAPHICS\DEBUG\VC140.IDB
C:\PROJECTS\OXFORDPROJECTS\B16LAB\SUPPORT\BALL-GRAPHICS\DEBUG\GRAPHICS.OBJ
^C:\PROJECTS\OXFORDPROJECTS\B16LAB\TEST-BALL-GRAPHICS.CPP
C:\PROJECTS\OXFORDPROJECTS\B16LAB\SUPPORT\BALL-GRAPHICS\DEBUG\VC140.PDB
