%!PS-Adobe-3.0 EPSF-3.0
%%Creator: (MATLAB, The Mathworks, Inc. Version 8.6.0.267246 \(R2015b\). Operating System: Windows 8)
%%Title: ./exp_data_0.333333.eps
%%CreationDate: 2016-01-21T15:24:37
%%Pages: (atend)
%%BoundingBox:    34    14   527   406
%%LanguageLevel: 3
%%EndComments
%%BeginProlog
%%BeginResource: procset (Apache XML Graphics Std ProcSet) 1.2 0
%%Version: 1.2 0
%%Copyright: (Copyright 2001-2003,2010 The Apache Software Foundation. License terms: http://www.apache.org/licenses/LICENSE-2.0)
/bd{bind def}bind def
/ld{load def}bd
/GR/grestore ld
/M/moveto ld
/LJ/setlinejoin ld
/C/curveto ld
/f/fill ld
/LW/setlinewidth ld
/GC/setgray ld
/t/show ld
/N/newpath ld
/CT/concat ld
/cp/closepath ld
/S/stroke ld
/L/lineto ld
/CC/setcmykcolor ld
/A/ashow ld
/GS/gsave ld
/RC/setrgbcolor ld
/RM/rmoveto ld
/ML/setmiterlimit ld
/re {4 2 roll M
1 index 0 rlineto
0 exch rlineto
neg 0 rlineto
cp } bd
/_ctm matrix def
/_tm matrix def
/BT { _ctm currentmatrix pop matrix _tm copy pop 0 0 moveto } bd
/ET { _ctm setmatrix } bd
/iTm { _ctm setmatrix _tm concat } bd
/Tm { _tm astore pop iTm 0 0 moveto } bd
/ux 0.0 def
/uy 0.0 def
/F {
  /Tp exch def
  /Tf exch def
  Tf findfont Tp scalefont setfont
  /cf Tf def  /cs Tp def
} bd
/ULS {currentpoint /uy exch def /ux exch def} bd
/ULE {
  /Tcx currentpoint pop def
  gsave
  newpath
  cf findfont cs scalefont dup
  /FontMatrix get 0 get /Ts exch def /FontInfo get dup
  /UnderlinePosition get Ts mul /To exch def
  /UnderlineThickness get Ts mul /Tt exch def
  ux uy To add moveto  Tcx uy To add lineto
  Tt setlinewidth stroke
  grestore
} bd
/OLE {
  /Tcx currentpoint pop def
  gsave
  newpath
  cf findfont cs scalefont dup
  /FontMatrix get 0 get /Ts exch def /FontInfo get dup
  /UnderlinePosition get Ts mul /To exch def
  /UnderlineThickness get Ts mul /Tt exch def
  ux uy To add cs add moveto Tcx uy To add cs add lineto
  Tt setlinewidth stroke
  grestore
} bd
/SOE {
  /Tcx currentpoint pop def
  gsave
  newpath
  cf findfont cs scalefont dup
  /FontMatrix get 0 get /Ts exch def /FontInfo get dup
  /UnderlinePosition get Ts mul /To exch def
  /UnderlineThickness get Ts mul /Tt exch def
  ux uy To add cs 10 mul 26 idiv add moveto Tcx uy To add cs 10 mul 26 idiv add lineto
  Tt setlinewidth stroke
  grestore
} bd
/QT {
/Y22 exch store
/X22 exch store
/Y21 exch store
/X21 exch store
currentpoint
/Y21 load 2 mul add 3 div exch
/X21 load 2 mul add 3 div exch
/X21 load 2 mul /X22 load add 3 div
/Y21 load 2 mul /Y22 load add 3 div
/X22 load /Y22 load curveto
} bd
/SSPD {
dup length /d exch dict def
{
/v exch def
/k exch def
currentpagedevice k known {
/cpdv currentpagedevice k get def
v cpdv ne {
/upd false def
/nullv v type /nulltype eq def
/nullcpdv cpdv type /nulltype eq def
nullv nullcpdv or
{
/upd true def
} {
/sametype v type cpdv type eq def
sametype {
v type /arraytype eq {
/vlen v length def
/cpdvlen cpdv length def
vlen cpdvlen eq {
0 1 vlen 1 sub {
/i exch def
/obj v i get def
/cpdobj cpdv i get def
obj cpdobj ne {
/upd true def
exit
} if
} for
} {
/upd true def
} ifelse
} {
v type /dicttype eq {
v {
/dv exch def
/dk exch def
/cpddv cpdv dk get def
dv cpddv ne {
/upd true def
exit
} if
} forall
} {
/upd true def
} ifelse
} ifelse
} if
} ifelse
upd true eq {
d k v put
} if
} if
} if
} forall
d length 0 gt {
d setpagedevice
} if
} bd
%%EndResource
%%BeginResource: procset (Apache XML Graphics EPS ProcSet) 1.0 0
%%Version: 1.0 0
%%Copyright: (Copyright 2002-2003 The Apache Software Foundation. License terms: http://www.apache.org/licenses/LICENSE-2.0)
/BeginEPSF { %def
/b4_Inc_state save def         % Save state for cleanup
/dict_count countdictstack def % Count objects on dict stack
/op_count count 1 sub def      % Count objects on operand stack
userdict begin                 % Push userdict on dict stack
/showpage { } def              % Redefine showpage, { } = null proc
0 setgray 0 setlinecap         % Prepare graphics state
1 setlinewidth 0 setlinejoin
10 setmiterlimit [ ] 0 setdash newpath
/languagelevel where           % If level not equal to 1 then
{pop languagelevel             % set strokeadjust and
1 ne                           % overprint to their defaults.
{false setstrokeadjust false setoverprint
} if
} if
} bd
/EndEPSF { %def
count op_count sub {pop} repeat            % Clean up stacks
countdictstack dict_count sub {end} repeat
b4_Inc_state restore
} bd
%%EndResource
%FOPBeginFontDict
%%IncludeResource: font Courier-Bold
%%IncludeResource: font Helvetica
%%IncludeResource: font Courier-BoldOblique
%%IncludeResource: font Courier-Oblique
%%IncludeResource: font Times-Roman
%%IncludeResource: font Helvetica-BoldOblique
%%IncludeResource: font Helvetica-Bold
%%IncludeResource: font Helvetica-Oblique
%%IncludeResource: font Times-BoldItalic
%%IncludeResource: font Courier
%%IncludeResource: font Times-Italic
%%IncludeResource: font Times-Bold
%%IncludeResource: font Symbol
%%IncludeResource: font ZapfDingbats
%FOPEndFontDict
%%BeginResource: encoding WinAnsiEncoding
/WinAnsiEncoding [
/.notdef /.notdef /.notdef /.notdef /.notdef
/.notdef /.notdef /.notdef /.notdef /.notdef
/.notdef /.notdef /.notdef /.notdef /.notdef
/.notdef /.notdef /.notdef /.notdef /.notdef
/.notdef /.notdef /.notdef /.notdef /.notdef
/.notdef /.notdef /.notdef /.notdef /.notdef
/.notdef /.notdef /space /exclam /quotedbl
/numbersign /dollar /percent /ampersand /quotesingle
/parenleft /parenright /asterisk /plus /comma
/hyphen /period /slash /zero /one
/two /three /four /five /six
/seven /eight /nine /colon /semicolon
/less /equal /greater /question /at
/A /B /C /D /E
/F /G /H /I /J
/K /L /M /N /O
/P /Q /R /S /T
/U /V /W /X /Y
/Z /bracketleft /backslash /bracketright /asciicircum
/underscore /quoteleft /a /b /c
/d /e /f /g /h
/i /j /k /l /m
/n /o /p /q /r
/s /t /u /v /w
/x /y /z /braceleft /bar
/braceright /asciitilde /bullet /Euro /bullet
/quotesinglbase /florin /quotedblbase /ellipsis /dagger
/daggerdbl /circumflex /perthousand /Scaron /guilsinglleft
/OE /bullet /Zcaron /bullet /bullet
/quoteleft /quoteright /quotedblleft /quotedblright /bullet
/endash /emdash /asciitilde /trademark /scaron
/guilsinglright /oe /bullet /zcaron /Ydieresis
/space /exclamdown /cent /sterling /currency
/yen /brokenbar /section /dieresis /copyright
/ordfeminine /guillemotleft /logicalnot /sfthyphen /registered
/macron /degree /plusminus /twosuperior /threesuperior
/acute /mu /paragraph /middot /cedilla
/onesuperior /ordmasculine /guillemotright /onequarter /onehalf
/threequarters /questiondown /Agrave /Aacute /Acircumflex
/Atilde /Adieresis /Aring /AE /Ccedilla
/Egrave /Eacute /Ecircumflex /Edieresis /Igrave
/Iacute /Icircumflex /Idieresis /Eth /Ntilde
/Ograve /Oacute /Ocircumflex /Otilde /Odieresis
/multiply /Oslash /Ugrave /Uacute /Ucircumflex
/Udieresis /Yacute /Thorn /germandbls /agrave
/aacute /acircumflex /atilde /adieresis /aring
/ae /ccedilla /egrave /eacute /ecircumflex
/edieresis /igrave /iacute /icircumflex /idieresis
/eth /ntilde /ograve /oacute /ocircumflex
/otilde /odieresis /divide /oslash /ugrave
/uacute /ucircumflex /udieresis /yacute /thorn
/ydieresis
] def
%%EndResource
%FOPBeginFontReencode
/Courier-Bold findfont
dup length dict begin
  {1 index /FID ne {def} {pop pop} ifelse} forall
  /Encoding WinAnsiEncoding def
  currentdict
end
/Courier-Bold exch definefont pop
/Helvetica findfont
dup length dict begin
  {1 index /FID ne {def} {pop pop} ifelse} forall
  /Encoding WinAnsiEncoding def
  currentdict
end
/Helvetica exch definefont pop
/Courier-BoldOblique findfont
dup length dict begin
  {1 index /FID ne {def} {pop pop} ifelse} forall
  /Encoding WinAnsiEncoding def
  currentdict
end
/Courier-BoldOblique exch definefont pop
/Courier-Oblique findfont
dup length dict begin
  {1 index /FID ne {def} {pop pop} ifelse} forall
  /Encoding WinAnsiEncoding def
  currentdict
end
/Courier-Oblique exch definefont pop
/Times-Roman findfont
dup length dict begin
  {1 index /FID ne {def} {pop pop} ifelse} forall
  /Encoding WinAnsiEncoding def
  currentdict
end
/Times-Roman exch definefont pop
/Helvetica-BoldOblique findfont
dup length dict begin
  {1 index /FID ne {def} {pop pop} ifelse} forall
  /Encoding WinAnsiEncoding def
  currentdict
end
/Helvetica-BoldOblique exch definefont pop
/Helvetica-Bold findfont
dup length dict begin
  {1 index /FID ne {def} {pop pop} ifelse} forall
  /Encoding WinAnsiEncoding def
  currentdict
end
/Helvetica-Bold exch definefont pop
/Helvetica-Oblique findfont
dup length dict begin
  {1 index /FID ne {def} {pop pop} ifelse} forall
  /Encoding WinAnsiEncoding def
  currentdict
end
/Helvetica-Oblique exch definefont pop
/Times-BoldItalic findfont
dup length dict begin
  {1 index /FID ne {def} {pop pop} ifelse} forall
  /Encoding WinAnsiEncoding def
  currentdict
end
/Times-BoldItalic exch definefont pop
/Courier findfont
dup length dict begin
  {1 index /FID ne {def} {pop pop} ifelse} forall
  /Encoding WinAnsiEncoding def
  currentdict
end
/Courier exch definefont pop
/Times-Italic findfont
dup length dict begin
  {1 index /FID ne {def} {pop pop} ifelse} forall
  /Encoding WinAnsiEncoding def
  currentdict
end
/Times-Italic exch definefont pop
/Times-Bold findfont
dup length dict begin
  {1 index /FID ne {def} {pop pop} ifelse} forall
  /Encoding WinAnsiEncoding def
  currentdict
end
/Times-Bold exch definefont pop
%FOPEndFontReencode
%%EndProlog
%%Page: 1 1
%%PageBoundingBox: 0 0 576 432
%%BeginPageSetup
[1 0 0 -1 0 432] CT
%%EndPageSetup
GS
[0.75 0 0 0.75 0 0] CT
1 GC
N
0 0 768 576 re
f
GR
GS
[0.75 0 0 0.75 0 0] CT
1 GC
N
0 0 768 576 re
f
GR
GS
[0.75 0 0 0.75 0 0] CT
1 GC
N
100 513 M
695 513 L
695 43 L
100 43 L
cp
f
GR
GS
[0.75 0 0 0.75 0 0] CT
0.873 GC
1 LJ
0.667 LW
N
100 513 M
100 43 L
S
GR
GS
[0.75 0 0 0.75 0 0] CT
0.873 GC
1 LJ
0.667 LW
N
159.5 513 M
159.5 43 L
S
GR
GS
[0.75 0 0 0.75 0 0] CT
0.873 GC
1 LJ
0.667 LW
N
219 513 M
219 43 L
S
GR
GS
[0.75 0 0 0.75 0 0] CT
0.873 GC
1 LJ
0.667 LW
N
278.5 513 M
278.5 43 L
S
GR
GS
[0.75 0 0 0.75 0 0] CT
0.873 GC
1 LJ
0.667 LW
N
338 513 M
338 43 L
S
GR
GS
[0.75 0 0 0.75 0 0] CT
0.873 GC
1 LJ
0.667 LW
N
397.5 513 M
397.5 43 L
S
GR
GS
[0.75 0 0 0.75 0 0] CT
0.873 GC
1 LJ
0.667 LW
N
457 513 M
457 43 L
S
GR
GS
[0.75 0 0 0.75 0 0] CT
0.873 GC
1 LJ
0.667 LW
N
516.5 513 M
516.5 43 L
S
GR
GS
[0.75 0 0 0.75 0 0] CT
0.873 GC
1 LJ
0.667 LW
N
576 513 M
576 43 L
S
GR
GS
[0.75 0 0 0.75 0 0] CT
0.873 GC
1 LJ
0.667 LW
N
635.5 513 M
635.5 43 L
S
GR
GS
[0.75 0 0 0.75 0 0] CT
0.873 GC
1 LJ
0.667 LW
N
695 513 M
695 43 L
S
GR
GS
[0.75 0 0 0.75 0 0] CT
0.873 GC
1 LJ
0.667 LW
N
695 513 M
100 513 L
S
GR
GS
[0.75 0 0 0.75 0 0] CT
0.873 GC
1 LJ
0.667 LW
N
695 454.25 M
100 454.25 L
S
GR
GS
[0.75 0 0 0.75 0 0] CT
0.873 GC
1 LJ
0.667 LW
N
695 395.5 M
100 395.5 L
S
GR
GS
[0.75 0 0 0.75 0 0] CT
0.873 GC
1 LJ
0.667 LW
N
695 336.75 M
100 336.75 L
S
GR
GS
[0.75 0 0 0.75 0 0] CT
0.873 GC
1 LJ
0.667 LW
N
695 278 M
100 278 L
S
GR
GS
[0.75 0 0 0.75 0 0] CT
0.873 GC
1 LJ
0.667 LW
N
695 219.25 M
100 219.25 L
S
GR
GS
[0.75 0 0 0.75 0 0] CT
0.873 GC
1 LJ
0.667 LW
N
695 160.5 M
100 160.5 L
S
GR
GS
[0.75 0 0 0.75 0 0] CT
0.873 GC
1 LJ
0.667 LW
N
695 101.75 M
100 101.75 L
S
GR
GS
[0.75 0 0 0.75 0 0] CT
0.873 GC
1 LJ
0.667 LW
N
695 43 M
100 43 L
S
GR
GS
[0.75 0 0 0.75 0 0] CT
0.149 GC
2 setlinecap
1 LJ
0.667 LW
N
100 513 M
695 513 L
S
GR
GS
[0.75 0 0 0.75 0 0] CT
0.149 GC
2 setlinecap
1 LJ
0.667 LW
N
100 43 M
695 43 L
S
GR
GS
[0.75 0 0 0.75 0 0] CT
0.149 GC
2 setlinecap
1 LJ
0.667 LW
N
100 513 M
100 507.05 L
S
GR
GS
[0.75 0 0 0.75 0 0] CT
0.149 GC
2 setlinecap
1 LJ
0.667 LW
N
159.5 513 M
159.5 507.05 L
S
GR
GS
[0.75 0 0 0.75 0 0] CT
0.149 GC
2 setlinecap
1 LJ
0.667 LW
N
219 513 M
219 507.05 L
S
GR
GS
[0.75 0 0 0.75 0 0] CT
0.149 GC
2 setlinecap
1 LJ
0.667 LW
N
278.5 513 M
278.5 507.05 L
S
GR
GS
[0.75 0 0 0.75 0 0] CT
0.149 GC
2 setlinecap
1 LJ
0.667 LW
N
338 513 M
338 507.05 L
S
GR
GS
[0.75 0 0 0.75 0 0] CT
0.149 GC
2 setlinecap
1 LJ
0.667 LW
N
397.5 513 M
397.5 507.05 L
S
GR
GS
[0.75 0 0 0.75 0 0] CT
0.149 GC
2 setlinecap
1 LJ
0.667 LW
N
457 513 M
457 507.05 L
S
GR
GS
[0.75 0 0 0.75 0 0] CT
0.149 GC
2 setlinecap
1 LJ
0.667 LW
N
516.5 513 M
516.5 507.05 L
S
GR
GS
[0.75 0 0 0.75 0 0] CT
0.149 GC
2 setlinecap
1 LJ
0.667 LW
N
576 513 M
576 507.05 L
S
GR
GS
[0.75 0 0 0.75 0 0] CT
0.149 GC
2 setlinecap
1 LJ
0.667 LW
N
635.5 513 M
635.5 507.05 L
S
GR
GS
[0.75 0 0 0.75 0 0] CT
0.149 GC
2 setlinecap
1 LJ
0.667 LW
N
695 513 M
695 507.05 L
S
GR
GS
[0.75 0 0 0.75 0 0] CT
0.149 GC
2 setlinecap
1 LJ
0.667 LW
N
100 43 M
100 48.95 L
S
GR
GS
[0.75 0 0 0.75 0 0] CT
0.149 GC
2 setlinecap
1 LJ
0.667 LW
N
159.5 43 M
159.5 48.95 L
S
GR
GS
[0.75 0 0 0.75 0 0] CT
0.149 GC
2 setlinecap
1 LJ
0.667 LW
N
219 43 M
219 48.95 L
S
GR
GS
[0.75 0 0 0.75 0 0] CT
0.149 GC
2 setlinecap
1 LJ
0.667 LW
N
278.5 43 M
278.5 48.95 L
S
GR
GS
[0.75 0 0 0.75 0 0] CT
0.149 GC
2 setlinecap
1 LJ
0.667 LW
N
338 43 M
338 48.95 L
S
GR
GS
[0.75 0 0 0.75 0 0] CT
0.149 GC
2 setlinecap
1 LJ
0.667 LW
N
397.5 43 M
397.5 48.95 L
S
GR
GS
[0.75 0 0 0.75 0 0] CT
0.149 GC
2 setlinecap
1 LJ
0.667 LW
N
457 43 M
457 48.95 L
S
GR
GS
[0.75 0 0 0.75 0 0] CT
0.149 GC
2 setlinecap
1 LJ
0.667 LW
N
516.5 43 M
516.5 48.95 L
S
GR
GS
[0.75 0 0 0.75 0 0] CT
0.149 GC
2 setlinecap
1 LJ
0.667 LW
N
576 43 M
576 48.95 L
S
GR
GS
[0.75 0 0 0.75 0 0] CT
0.149 GC
2 setlinecap
1 LJ
0.667 LW
N
635.5 43 M
635.5 48.95 L
S
GR
GS
[0.75 0 0 0.75 0 0] CT
0.149 GC
2 setlinecap
1 LJ
0.667 LW
N
695 43 M
695 48.95 L
S
GR
GS
[0.75 0 0 0.75 75 388.74998] CT
0.149 GC
/Helvetica 13 F
GS
[1 0 0 1 0 0] CT
-4 14 moveto 
1 -1 scale
(0) t 
GR
GR
GS
[0.75 0 0 0.75 119.625 388.74998] CT
0.149 GC
/Helvetica 13 F
GS
[1 0 0 1 0 0] CT
-4 14 moveto 
1 -1 scale
(1) t 
GR
GR
GS
[0.75 0 0 0.75 164.25 388.74998] CT
0.149 GC
/Helvetica 13 F
GS
[1 0 0 1 0 0] CT
-4 14 moveto 
1 -1 scale
(2) t 
GR
GR
GS
[0.75 0 0 0.75 208.875 388.74998] CT
0.149 GC
/Helvetica 13 F
GS
[1 0 0 1 0 0] CT
-4 14 moveto 
1 -1 scale
(3) t 
GR
GR
GS
[0.75 0 0 0.75 253.5 388.74998] CT
0.149 GC
/Helvetica 13 F
GS
[1 0 0 1 0 0] CT
-4 14 moveto 
1 -1 scale
(4) t 
GR
GR
GS
[0.75 0 0 0.75 298.125 388.74998] CT
0.149 GC
/Helvetica 13 F
GS
[1 0 0 1 0 0] CT
-4 14 moveto 
1 -1 scale
(5) t 
GR
GR
GS
[0.75 0 0 0.75 342.75 388.74998] CT
0.149 GC
/Helvetica 13 F
GS
[1 0 0 1 0 0] CT
-4 14 moveto 
1 -1 scale
(6) t 
GR
GR
GS
[0.75 0 0 0.75 387.375 388.74998] CT
0.149 GC
/Helvetica 13 F
GS
[1 0 0 1 0 0] CT
-4 14 moveto 
1 -1 scale
(7) t 
GR
GR
GS
[0.75 0 0 0.75 432 388.74998] CT
0.149 GC
/Helvetica 13 F
GS
[1 0 0 1 0 0] CT
-4 14 moveto 
1 -1 scale
(8) t 
GR
GR
GS
[0.75 0 0 0.75 476.625 388.74998] CT
0.149 GC
/Helvetica 13 F
GS
[1 0 0 1 0 0] CT
-4 14 moveto 
1 -1 scale
(9) t 
GR
GR
GS
[0.75 0 0 0.75 521.25 388.74998] CT
0.149 GC
/Helvetica 13 F
GS
[1 0 0 1 0 0] CT
-7.5 14 moveto 
1 -1 scale
(10) t 
GR
GR
GS
[0.75 0 0 0.75 298.12521 402.50002] CT
0.149 GC
/Helvetica 15 F
GS
[1 0 0 1 0 0] CT
-4 16 moveto 
1 -1 scale
(x) t 
GR
GR
GS
[0.75 0 0 0.75 0 0] CT
0.149 GC
2 setlinecap
1 LJ
0.667 LW
N
100 513 M
100 43 L
S
GR
GS
[0.75 0 0 0.75 0 0] CT
0.149 GC
2 setlinecap
1 LJ
0.667 LW
N
695 513 M
695 43 L
S
GR
GS
[0.75 0 0 0.75 0 0] CT
0.149 GC
2 setlinecap
1 LJ
0.667 LW
N
100 513 M
105.95 513 L
S
GR
GS
[0.75 0 0 0.75 0 0] CT
0.149 GC
2 setlinecap
1 LJ
0.667 LW
N
100 454.25 M
105.95 454.25 L
S
GR
GS
[0.75 0 0 0.75 0 0] CT
0.149 GC
2 setlinecap
1 LJ
0.667 LW
N
100 395.5 M
105.95 395.5 L
S
GR
GS
[0.75 0 0 0.75 0 0] CT
0.149 GC
2 setlinecap
1 LJ
0.667 LW
N
100 336.75 M
105.95 336.75 L
S
GR
GS
[0.75 0 0 0.75 0 0] CT
0.149 GC
2 setlinecap
1 LJ
0.667 LW
N
100 278 M
105.95 278 L
S
GR
GS
[0.75 0 0 0.75 0 0] CT
0.149 GC
2 setlinecap
1 LJ
0.667 LW
N
100 219.25 M
105.95 219.25 L
S
GR
GS
[0.75 0 0 0.75 0 0] CT
0.149 GC
2 setlinecap
1 LJ
0.667 LW
N
100 160.5 M
105.95 160.5 L
S
GR
GS
[0.75 0 0 0.75 0 0] CT
0.149 GC
2 setlinecap
1 LJ
0.667 LW
N
100 101.75 M
105.95 101.75 L
S
GR
GS
[0.75 0 0 0.75 0 0] CT
0.149 GC
2 setlinecap
1 LJ
0.667 LW
N
100 43 M
105.95 43 L
S
GR
GS
[0.75 0 0 0.75 0 0] CT
0.149 GC
2 setlinecap
1 LJ
0.667 LW
N
695 513 M
689.05 513 L
S
GR
GS
[0.75 0 0 0.75 0 0] CT
0.149 GC
2 setlinecap
1 LJ
0.667 LW
N
695 454.25 M
689.05 454.25 L
S
GR
GS
[0.75 0 0 0.75 0 0] CT
0.149 GC
2 setlinecap
1 LJ
0.667 LW
N
695 395.5 M
689.05 395.5 L
S
GR
GS
[0.75 0 0 0.75 0 0] CT
0.149 GC
2 setlinecap
1 LJ
0.667 LW
N
695 336.75 M
689.05 336.75 L
S
GR
GS
[0.75 0 0 0.75 0 0] CT
0.149 GC
2 setlinecap
1 LJ
0.667 LW
N
695 278 M
689.05 278 L
S
GR
GS
[0.75 0 0 0.75 0 0] CT
0.149 GC
2 setlinecap
1 LJ
0.667 LW
N
695 219.25 M
689.05 219.25 L
S
GR
GS
[0.75 0 0 0.75 0 0] CT
0.149 GC
2 setlinecap
1 LJ
0.667 LW
N
695 160.5 M
689.05 160.5 L
S
GR
GS
[0.75 0 0 0.75 0 0] CT
0.149 GC
2 setlinecap
1 LJ
0.667 LW
N
695 101.75 M
689.05 101.75 L
S
GR
GS
[0.75 0 0 0.75 0 0] CT
0.149 GC
2 setlinecap
1 LJ
0.667 LW
N
695 43 M
689.05 43 L
S
GR
GS
[0.75 0 0 0.75 71 384.75] CT
0.149 GC
/Helvetica 13 F
GS
[1 0 0 1 0 0] CT
-8 5.5 moveto 
1 -1 scale
(0) t 
GR
GR
GS
[0.75 0 0 0.75 71 340.6875] CT
0.149 GC
/Helvetica 13 F
GS
[1 0 0 1 0 0] CT
-26 5.5 moveto 
1 -1 scale
(0.05) t 
GR
GR
GS
[0.75 0 0 0.75 71 296.625] CT
0.149 GC
/Helvetica 13 F
GS
[1 0 0 1 0 0] CT
-19 5.5 moveto 
1 -1 scale
(0.1) t 
GR
GR
GS
[0.75 0 0 0.75 71 252.5625] CT
0.149 GC
/Helvetica 13 F
GS
[1 0 0 1 0 0] CT
-26 5.5 moveto 
1 -1 scale
(0.15) t 
GR
GR
GS
[0.75 0 0 0.75 71 208.5] CT
0.149 GC
/Helvetica 13 F
GS
[1 0 0 1 0 0] CT
-19 5.5 moveto 
1 -1 scale
(0.2) t 
GR
GR
GS
[0.75 0 0 0.75 71 164.4375] CT
0.149 GC
/Helvetica 13 F
GS
[1 0 0 1 0 0] CT
-26 5.5 moveto 
1 -1 scale
(0.25) t 
GR
GR
GS
[0.75 0 0 0.75 71 120.37499] CT
0.149 GC
/Helvetica 13 F
GS
[1 0 0 1 0 0] CT
-19 5.5 moveto 
1 -1 scale
(0.3) t 
GR
GR
GS
[0.75 0 0 0.75 71 76.31251] CT
0.149 GC
/Helvetica 13 F
GS
[1 0 0 1 0 0] CT
-26 5.5 moveto 
1 -1 scale
(0.35) t 
GR
GR
GS
[0.75 0 0 0.75 71 32.24999] CT
0.149 GC
/Helvetica 13 F
GS
[1 0 0 1 0 0] CT
-19 5.5 moveto 
1 -1 scale
(0.4) t 
GR
GR
GS
[0 -0.75 0.75 0 48.5 208.49982] CT
0.149 GC
/Helvetica 15 F
GS
[1 0 0 1 0 0] CT
-164 -4 moveto 
1 -1 scale
(Exponentially distributed data \(mean = 0.333333\)) t 
GR
GR
GS
[0.75 0 0 0.75 0 0] CT
1 LJ
1.6 LW
N
100 498 M
107 491 L
S
GR
GS
[0.75 0 0 0.75 0 0] CT
1 LJ
1.6 LW
N
100 491 M
107 498 L
S
GR
GS
[0.75 0 0 0.75 0 0] CT
1 LJ
1.6 LW
N
105 476 M
112 469 L
S
GR
GS
[0.75 0 0 0.75 0 0] CT
1 LJ
1.6 LW
N
105 469 M
112 476 L
S
GR
GS
[0.75 0 0 0.75 0 0] CT
1 LJ
1.6 LW
N
111 452 M
118 445 L
S
GR
GS
[0.75 0 0 0.75 0 0] CT
1 LJ
1.6 LW
N
111 445 M
118 452 L
S
GR
GS
[0.75 0 0 0.75 0 0] CT
1 LJ
1.6 LW
N
116 463 M
123 456 L
S
GR
GS
[0.75 0 0 0.75 0 0] CT
1 LJ
1.6 LW
N
116 456 M
123 463 L
S
GR
GS
[0.75 0 0 0.75 0 0] CT
1 LJ
1.6 LW
N
122 434 M
129 427 L
S
GR
GS
[0.75 0 0 0.75 0 0] CT
1 LJ
1.6 LW
N
122 427 M
129 434 L
S
GR
GS
[0.75 0 0 0.75 0 0] CT
1 LJ
1.6 LW
N
127 410 M
134 403 L
S
GR
GS
[0.75 0 0 0.75 0 0] CT
1 LJ
1.6 LW
N
127 403 M
134 410 L
S
GR
GS
[0.75 0 0 0.75 0 0] CT
1 LJ
1.6 LW
N
132 338 M
139 331 L
S
GR
GS
[0.75 0 0 0.75 0 0] CT
1 LJ
1.6 LW
N
132 331 M
139 338 L
S
GR
GS
[0.75 0 0 0.75 0 0] CT
1 LJ
1.6 LW
N
138 311 M
145 304 L
S
GR
GS
[0.75 0 0 0.75 0 0] CT
1 LJ
1.6 LW
N
138 304 M
145 311 L
S
GR
GS
[0.75 0 0 0.75 0 0] CT
1 LJ
1.6 LW
N
143 269 M
150 262 L
S
GR
GS
[0.75 0 0 0.75 0 0] CT
1 LJ
1.6 LW
N
143 262 M
150 269 L
S
GR
GS
[0.75 0 0 0.75 0 0] CT
1 LJ
1.6 LW
N
149 277 M
156 270 L
S
GR
GS
[0.75 0 0 0.75 0 0] CT
1 LJ
1.6 LW
N
149 270 M
156 277 L
S
GR
GS
[0.75 0 0 0.75 0 0] CT
1 LJ
1.6 LW
N
154 248 M
161 241 L
S
GR
GS
[0.75 0 0 0.75 0 0] CT
1 LJ
1.6 LW
N
154 241 M
161 248 L
S
GR
GS
[0.75 0 0 0.75 0 0] CT
1 LJ
1.6 LW
N
159 221 M
166 214 L
S
GR
GS
[0.75 0 0 0.75 0 0] CT
1 LJ
1.6 LW
N
159 214 M
166 221 L
S
GR
GS
[0.75 0 0 0.75 0 0] CT
1 LJ
1.6 LW
N
165 178 M
172 171 L
S
GR
GS
[0.75 0 0 0.75 0 0] CT
1 LJ
1.6 LW
N
165 171 M
172 178 L
S
GR
GS
[0.75 0 0 0.75 0 0] CT
1 LJ
1.6 LW
N
170 163 M
177 156 L
S
GR
GS
[0.75 0 0 0.75 0 0] CT
1 LJ
1.6 LW
N
170 156 M
177 163 L
S
GR
GS
[0.75 0 0 0.75 0 0] CT
1 LJ
1.6 LW
N
176 106 M
183 99 L
S
GR
GS
[0.75 0 0 0.75 0 0] CT
1 LJ
1.6 LW
N
176 99 M
183 106 L
S
GR
GS
[0.75 0 0 0.75 0 0] CT
1 LJ
1.6 LW
N
181 129 M
188 122 L
S
GR
GS
[0.75 0 0 0.75 0 0] CT
1 LJ
1.6 LW
N
181 122 M
188 129 L
S
GR
GS
[0.75 0 0 0.75 0 0] CT
1 LJ
1.6 LW
N
186 96 M
193 89 L
S
GR
GS
[0.75 0 0 0.75 0 0] CT
1 LJ
1.6 LW
N
186 89 M
193 96 L
S
GR
GS
[0.75 0 0 0.75 0 0] CT
1 LJ
1.6 LW
N
192 147 M
199 140 L
S
GR
GS
[0.75 0 0 0.75 0 0] CT
1 LJ
1.6 LW
N
192 140 M
199 147 L
S
GR
GS
[0.75 0 0 0.75 0 0] CT
1 LJ
1.6 LW
N
197 66 M
204 59 L
S
GR
GS
[0.75 0 0 0.75 0 0] CT
1 LJ
1.6 LW
N
197 59 M
204 66 L
S
GR
GS
[0.75 0 0 0.75 0 0] CT
1 LJ
1.6 LW
N
203 62 M
210 55 L
S
GR
GS
[0.75 0 0 0.75 0 0] CT
1 LJ
1.6 LW
N
203 55 M
210 62 L
S
GR
GS
[0.75 0 0 0.75 0 0] CT
1 LJ
1.6 LW
N
208 128 M
215 121 L
S
GR
GS
[0.75 0 0 0.75 0 0] CT
1 LJ
1.6 LW
N
208 121 M
215 128 L
S
GR
GS
[0.75 0 0 0.75 0 0] CT
1 LJ
1.6 LW
N
213 116 M
220 109 L
S
GR
GS
[0.75 0 0 0.75 0 0] CT
1 LJ
1.6 LW
N
213 109 M
220 116 L
S
GR
GS
[0.75 0 0 0.75 0 0] CT
1 LJ
1.6 LW
N
219 103 M
226 96 L
S
GR
GS
[0.75 0 0 0.75 0 0] CT
1 LJ
1.6 LW
N
219 96 M
226 103 L
S
GR
GS
[0.75 0 0 0.75 0 0] CT
1 LJ
1.6 LW
N
224 142 M
231 135 L
S
GR
GS
[0.75 0 0 0.75 0 0] CT
1 LJ
1.6 LW
N
224 135 M
231 142 L
S
GR
GS
[0.75 0 0 0.75 0 0] CT
1 LJ
1.6 LW
N
230 131 M
237 124 L
S
GR
GS
[0.75 0 0 0.75 0 0] CT
1 LJ
1.6 LW
N
230 124 M
237 131 L
S
GR
GS
[0.75 0 0 0.75 0 0] CT
1 LJ
1.6 LW
N
235 118 M
242 111 L
S
GR
GS
[0.75 0 0 0.75 0 0] CT
1 LJ
1.6 LW
N
235 111 M
242 118 L
S
GR
GS
[0.75 0 0 0.75 0 0] CT
1 LJ
1.6 LW
N
240 163 M
247 156 L
S
GR
GS
[0.75 0 0 0.75 0 0] CT
1 LJ
1.6 LW
N
240 156 M
247 163 L
S
GR
GS
[0.75 0 0 0.75 0 0] CT
1 LJ
1.6 LW
N
246 137 M
253 130 L
S
GR
GS
[0.75 0 0 0.75 0 0] CT
1 LJ
1.6 LW
N
246 130 M
253 137 L
S
GR
GS
[0.75 0 0 0.75 0 0] CT
1 LJ
1.6 LW
N
251 156 M
258 149 L
S
GR
GS
[0.75 0 0 0.75 0 0] CT
1 LJ
1.6 LW
N
251 149 M
258 156 L
S
GR
GS
[0.75 0 0 0.75 0 0] CT
1 LJ
1.6 LW
N
257 199 M
264 192 L
S
GR
GS
[0.75 0 0 0.75 0 0] CT
1 LJ
1.6 LW
N
257 192 M
264 199 L
S
GR
GS
[0.75 0 0 0.75 0 0] CT
1 LJ
1.6 LW
N
262 167 M
269 160 L
S
GR
GS
[0.75 0 0 0.75 0 0] CT
1 LJ
1.6 LW
N
262 160 M
269 167 L
S
GR
GS
[0.75 0 0 0.75 0 0] CT
1 LJ
1.6 LW
N
267 233 M
274 226 L
S
GR
GS
[0.75 0 0 0.75 0 0] CT
1 LJ
1.6 LW
N
267 226 M
274 233 L
S
GR
GS
[0.75 0 0 0.75 0 0] CT
1 LJ
1.6 LW
N
273 199 M
280 192 L
S
GR
GS
[0.75 0 0 0.75 0 0] CT
1 LJ
1.6 LW
N
273 192 M
280 199 L
S
GR
GS
[0.75 0 0 0.75 0 0] CT
1 LJ
1.6 LW
N
278 263 M
285 256 L
S
GR
GS
[0.75 0 0 0.75 0 0] CT
1 LJ
1.6 LW
N
278 256 M
285 263 L
S
GR
GS
[0.75 0 0 0.75 0 0] CT
1 LJ
1.6 LW
N
284 267 M
291 260 L
S
GR
GS
[0.75 0 0 0.75 0 0] CT
1 LJ
1.6 LW
N
284 260 M
291 267 L
S
GR
GS
[0.75 0 0 0.75 0 0] CT
1 LJ
1.6 LW
N
289 300 M
296 293 L
S
GR
GS
[0.75 0 0 0.75 0 0] CT
1 LJ
1.6 LW
N
289 293 M
296 300 L
S
GR
GS
[0.75 0 0 0.75 0 0] CT
1 LJ
1.6 LW
N
294 318 M
301 311 L
S
GR
GS
[0.75 0 0 0.75 0 0] CT
1 LJ
1.6 LW
N
294 311 M
301 318 L
S
GR
GS
[0.75 0 0 0.75 0 0] CT
1 LJ
1.6 LW
N
300 312 M
307 305 L
S
GR
GS
[0.75 0 0 0.75 0 0] CT
1 LJ
1.6 LW
N
300 305 M
307 312 L
S
GR
GS
[0.75 0 0 0.75 0 0] CT
1 LJ
1.6 LW
N
305 324 M
312 317 L
S
GR
GS
[0.75 0 0 0.75 0 0] CT
1 LJ
1.6 LW
N
305 317 M
312 324 L
S
GR
GS
[0.75 0 0 0.75 0 0] CT
1 LJ
1.6 LW
N
311 334 M
318 327 L
S
GR
GS
[0.75 0 0 0.75 0 0] CT
1 LJ
1.6 LW
N
311 327 M
318 334 L
S
GR
GS
[0.75 0 0 0.75 0 0] CT
1 LJ
1.6 LW
N
316 368 M
323 361 L
S
GR
GS
[0.75 0 0 0.75 0 0] CT
1 LJ
1.6 LW
N
316 361 M
323 368 L
S
GR
GS
[0.75 0 0 0.75 0 0] CT
1 LJ
1.6 LW
N
321 368 M
328 361 L
S
GR
GS
[0.75 0 0 0.75 0 0] CT
1 LJ
1.6 LW
N
321 361 M
328 368 L
S
GR
GS
[0.75 0 0 0.75 0 0] CT
1 LJ
1.6 LW
N
327 371 M
334 364 L
S
GR
GS
[0.75 0 0 0.75 0 0] CT
1 LJ
1.6 LW
N
327 364 M
334 371 L
S
GR
GS
[0.75 0 0 0.75 0 0] CT
1 LJ
1.6 LW
N
332 388 M
339 381 L
S
GR
GS
[0.75 0 0 0.75 0 0] CT
1 LJ
1.6 LW
N
332 381 M
339 388 L
S
GR
GS
[0.75 0 0 0.75 0 0] CT
1 LJ
1.6 LW
N
338 393 M
345 386 L
S
GR
GS
[0.75 0 0 0.75 0 0] CT
1 LJ
1.6 LW
N
338 386 M
345 393 L
S
GR
GS
[0.75 0 0 0.75 0 0] CT
1 LJ
1.6 LW
N
343 413 M
350 406 L
S
GR
GS
[0.75 0 0 0.75 0 0] CT
1 LJ
1.6 LW
N
343 406 M
350 413 L
S
GR
GS
[0.75 0 0 0.75 0 0] CT
1 LJ
1.6 LW
N
348 401 M
355 394 L
S
GR
GS
[0.75 0 0 0.75 0 0] CT
1 LJ
1.6 LW
N
348 394 M
355 401 L
S
GR
GS
[0.75 0 0 0.75 0 0] CT
1 LJ
1.6 LW
N
354 435 M
361 428 L
S
GR
GS
[0.75 0 0 0.75 0 0] CT
1 LJ
1.6 LW
N
354 428 M
361 435 L
S
GR
GS
[0.75 0 0 0.75 0 0] CT
1 LJ
1.6 LW
N
359 439 M
366 432 L
S
GR
GS
[0.75 0 0 0.75 0 0] CT
1 LJ
1.6 LW
N
359 432 M
366 439 L
S
GR
GS
[0.75 0 0 0.75 0 0] CT
1 LJ
1.6 LW
N
365 430 M
372 423 L
S
GR
GS
[0.75 0 0 0.75 0 0] CT
1 LJ
1.6 LW
N
365 423 M
372 430 L
S
GR
GS
[0.75 0 0 0.75 0 0] CT
1 LJ
1.6 LW
N
370 452 M
377 445 L
S
GR
GS
[0.75 0 0 0.75 0 0] CT
1 LJ
1.6 LW
N
370 445 M
377 452 L
S
GR
GS
[0.75 0 0 0.75 0 0] CT
1 LJ
1.6 LW
N
375 467 M
382 460 L
S
GR
GS
[0.75 0 0 0.75 0 0] CT
1 LJ
1.6 LW
N
375 460 M
382 467 L
S
GR
GS
[0.75 0 0 0.75 0 0] CT
1 LJ
1.6 LW
N
381 474 M
388 467 L
S
GR
GS
[0.75 0 0 0.75 0 0] CT
1 LJ
1.6 LW
N
381 467 M
388 474 L
S
GR
GS
[0.75 0 0 0.75 0 0] CT
1 LJ
1.6 LW
N
386 469 M
393 462 L
S
GR
GS
[0.75 0 0 0.75 0 0] CT
1 LJ
1.6 LW
N
386 462 M
393 469 L
S
GR
GS
[0.75 0 0 0.75 0 0] CT
1 LJ
1.6 LW
N
392 460 M
399 453 L
S
GR
GS
[0.75 0 0 0.75 0 0] CT
1 LJ
1.6 LW
N
392 453 M
399 460 L
S
GR
GS
[0.75 0 0 0.75 0 0] CT
1 LJ
1.6 LW
N
397 475 M
404 468 L
S
GR
GS
[0.75 0 0 0.75 0 0] CT
1 LJ
1.6 LW
N
397 468 M
404 475 L
S
GR
GS
[0.75 0 0 0.75 0 0] CT
1 LJ
1.6 LW
N
402 488 M
409 481 L
S
GR
GS
[0.75 0 0 0.75 0 0] CT
1 LJ
1.6 LW
N
402 481 M
409 488 L
S
GR
GS
[0.75 0 0 0.75 0 0] CT
1 LJ
1.6 LW
N
408 484 M
415 477 L
S
GR
GS
[0.75 0 0 0.75 0 0] CT
1 LJ
1.6 LW
N
408 477 M
415 484 L
S
GR
GS
[0.75 0 0 0.75 0 0] CT
1 LJ
1.6 LW
N
413 496 M
420 489 L
S
GR
GS
[0.75 0 0 0.75 0 0] CT
1 LJ
1.6 LW
N
413 489 M
420 496 L
S
GR
GS
[0.75 0 0 0.75 0 0] CT
1 LJ
1.6 LW
N
419 492 M
426 485 L
S
GR
GS
[0.75 0 0 0.75 0 0] CT
1 LJ
1.6 LW
N
419 485 M
426 492 L
S
GR
GS
[0.75 0 0 0.75 0 0] CT
1 LJ
1.6 LW
N
424 493 M
431 486 L
S
GR
GS
[0.75 0 0 0.75 0 0] CT
1 LJ
1.6 LW
N
424 486 M
431 493 L
S
GR
GS
[0.75 0 0 0.75 0 0] CT
1 LJ
1.6 LW
N
429 494 M
436 487 L
S
GR
GS
[0.75 0 0 0.75 0 0] CT
1 LJ
1.6 LW
N
429 487 M
436 494 L
S
GR
GS
[0.75 0 0 0.75 0 0] CT
1 LJ
1.6 LW
N
435 504 M
442 497 L
S
GR
GS
[0.75 0 0 0.75 0 0] CT
1 LJ
1.6 LW
N
435 497 M
442 504 L
S
GR
GS
[0.75 0 0 0.75 0 0] CT
1 LJ
1.6 LW
N
440 502 M
447 495 L
S
GR
GS
[0.75 0 0 0.75 0 0] CT
1 LJ
1.6 LW
N
440 495 M
447 502 L
S
GR
GS
[0.75 0 0 0.75 0 0] CT
1 LJ
1.6 LW
N
446 509 M
453 502 L
S
GR
GS
[0.75 0 0 0.75 0 0] CT
1 LJ
1.6 LW
N
446 502 M
453 509 L
S
GR
GS
[0.75 0 0 0.75 0 0] CT
1 LJ
1.6 LW
N
451 510 M
458 503 L
S
GR
GS
[0.75 0 0 0.75 0 0] CT
1 LJ
1.6 LW
N
451 503 M
458 510 L
S
GR
GS
[0.75 0 0 0.75 0 0] CT
1 LJ
1.6 LW
N
456 511 M
463 504 L
S
GR
GS
[0.75 0 0 0.75 0 0] CT
1 LJ
1.6 LW
N
456 504 M
463 511 L
S
GR
GS
[0.75 0 0 0.75 0 0] CT
1 LJ
1.6 LW
N
462 509 M
469 502 L
S
GR
GS
[0.75 0 0 0.75 0 0] CT
1 LJ
1.6 LW
N
462 502 M
469 509 L
S
GR
GS
[0.75 0 0 0.75 0 0] CT
1 LJ
1.6 LW
N
467 510 M
474 503 L
S
GR
GS
[0.75 0 0 0.75 0 0] CT
1 LJ
1.6 LW
N
467 503 M
474 510 L
S
GR
GS
[0.75 0 0 0.75 0 0] CT
1 LJ
1.6 LW
N
473 510 M
480 503 L
S
GR
GS
[0.75 0 0 0.75 0 0] CT
1 LJ
1.6 LW
N
473 503 M
480 510 L
S
GR
GS
[0.75 0 0 0.75 0 0] CT
1 LJ
1.6 LW
N
478 510 M
485 503 L
S
GR
GS
[0.75 0 0 0.75 0 0] CT
1 LJ
1.6 LW
N
478 503 M
485 510 L
S
GR
GS
[0.75 0 0 0.75 0 0] CT
1 LJ
1.6 LW
N
483 511 M
490 504 L
S
GR
GS
[0.75 0 0 0.75 0 0] CT
1 LJ
1.6 LW
N
483 504 M
490 511 L
S
GR
GS
[0.75 0 0 0.75 0 0] CT
1 LJ
1.6 LW
N
489 510 M
496 503 L
S
GR
GS
[0.75 0 0 0.75 0 0] CT
1 LJ
1.6 LW
N
489 503 M
496 510 L
S
GR
GS
[0.75 0 0 0.75 0 0] CT
1 LJ
1.6 LW
N
494 513 M
501 506 L
S
GR
GS
[0.75 0 0 0.75 0 0] CT
1 LJ
1.6 LW
N
494 506 M
501 513 L
S
GR
GS
[0.75 0 0 0.75 0 0] CT
1 LJ
1.6 LW
N
500 513 M
507 506 L
S
GR
GS
[0.75 0 0 0.75 0 0] CT
1 LJ
1.6 LW
N
500 506 M
507 513 L
S
GR
GS
[0.75 0 0 0.75 0 0] CT
1 LJ
1.6 LW
N
505 514 M
512 507 L
S
GR
GS
[0.75 0 0 0.75 0 0] CT
1 LJ
1.6 LW
N
505 507 M
512 514 L
S
GR
GS
[0.75 0 0 0.75 0 0] CT
1 LJ
1.6 LW
N
510 510 M
517 503 L
S
GR
GS
[0.75 0 0 0.75 0 0] CT
1 LJ
1.6 LW
N
510 503 M
517 510 L
S
GR
GS
[0.75 0 0 0.75 0 0] CT
1 LJ
1.6 LW
N
516 514 M
523 507 L
S
GR
GS
[0.75 0 0 0.75 0 0] CT
1 LJ
1.6 LW
N
516 507 M
523 514 L
S
GR
GS
[0.75 0 0 0.75 0 0] CT
1 LJ
1.6 LW
N
521 515 M
528 508 L
S
GR
GS
[0.75 0 0 0.75 0 0] CT
1 LJ
1.6 LW
N
521 508 M
528 515 L
S
GR
GS
[0.75 0 0 0.75 0 0] CT
1 LJ
1.6 LW
N
527 514 M
534 507 L
S
GR
GS
[0.75 0 0 0.75 0 0] CT
1 LJ
1.6 LW
N
527 507 M
534 514 L
S
GR
GS
[0.75 0 0 0.75 0 0] CT
1 LJ
1.6 LW
N
532 511 M
539 504 L
S
GR
GS
[0.75 0 0 0.75 0 0] CT
1 LJ
1.6 LW
N
532 504 M
539 511 L
S
GR
GS
[0.75 0 0 0.75 0 0] CT
1 LJ
1.6 LW
N
537 513 M
544 506 L
S
GR
GS
[0.75 0 0 0.75 0 0] CT
1 LJ
1.6 LW
N
537 506 M
544 513 L
S
GR
GS
[0.75 0 0 0.75 0 0] CT
1 LJ
1.6 LW
N
543 516 M
550 509 L
S
GR
GS
[0.75 0 0 0.75 0 0] CT
1 LJ
1.6 LW
N
543 509 M
550 516 L
S
GR
GS
[0.75 0 0 0.75 0 0] CT
1 LJ
1.6 LW
N
548 514 M
555 507 L
S
GR
GS
[0.75 0 0 0.75 0 0] CT
1 LJ
1.6 LW
N
548 507 M
555 514 L
S
GR
GS
[0.75 0 0 0.75 0 0] CT
1 LJ
1.6 LW
N
554 516 M
561 509 L
S
GR
GS
[0.75 0 0 0.75 0 0] CT
1 LJ
1.6 LW
N
554 509 M
561 516 L
S
GR
GS
[0.75 0 0 0.75 0 0] CT
1 LJ
1.6 LW
N
559 516 M
566 509 L
S
GR
GS
[0.75 0 0 0.75 0 0] CT
1 LJ
1.6 LW
N
559 509 M
566 516 L
S
GR
GS
[0.75 0 0 0.75 0 0] CT
1 LJ
1.6 LW
N
564 516 M
571 509 L
S
GR
GS
[0.75 0 0 0.75 0 0] CT
1 LJ
1.6 LW
N
564 509 M
571 516 L
S
GR
GS
[0.75 0 0 0.75 0 0] CT
1 LJ
1.6 LW
N
570 514 M
577 507 L
S
GR
GS
[0.75 0 0 0.75 0 0] CT
1 LJ
1.6 LW
N
570 507 M
577 514 L
S
GR
GS
[0.75 0 0 0.75 0 0] CT
1 LJ
1.6 LW
N
575 515 M
582 508 L
S
GR
GS
[0.75 0 0 0.75 0 0] CT
1 LJ
1.6 LW
N
575 508 M
582 515 L
S
GR
GS
[0.75 0 0 0.75 0 0] CT
1 LJ
1.6 LW
N
581 515 M
588 508 L
S
GR
GS
[0.75 0 0 0.75 0 0] CT
1 LJ
1.6 LW
N
581 508 M
588 515 L
S
GR
GS
[0.75 0 0 0.75 0 0] CT
1 LJ
1.6 LW
N
586 515 M
593 508 L
S
GR
GS
[0.75 0 0 0.75 0 0] CT
1 LJ
1.6 LW
N
586 508 M
593 515 L
S
GR
GS
[0.75 0 0 0.75 0 0] CT
1 LJ
1.6 LW
N
591 515 M
598 508 L
S
GR
GS
[0.75 0 0 0.75 0 0] CT
1 LJ
1.6 LW
N
591 508 M
598 515 L
S
GR
GS
[0.75 0 0 0.75 0 0] CT
1 LJ
1.6 LW
N
597 516 M
604 509 L
S
GR
GS
[0.75 0 0 0.75 0 0] CT
1 LJ
1.6 LW
N
597 509 M
604 516 L
S
GR
GS
[0.75 0 0 0.75 0 0] CT
1 LJ
1.6 LW
N
602 515 M
609 508 L
S
GR
GS
[0.75 0 0 0.75 0 0] CT
1 LJ
1.6 LW
N
602 508 M
609 515 L
S
GR
GS
[0.75 0 0 0.75 0 0] CT
1 LJ
1.6 LW
N
608 515 M
615 508 L
S
GR
GS
[0.75 0 0 0.75 0 0] CT
1 LJ
1.6 LW
N
608 508 M
615 515 L
S
GR
GS
[0.75 0 0 0.75 0 0] CT
1 LJ
1.6 LW
N
613 516 M
620 509 L
S
GR
GS
[0.75 0 0 0.75 0 0] CT
1 LJ
1.6 LW
N
613 509 M
620 516 L
S
GR
GS
[0.75 0 0 0.75 0 0] CT
1 LJ
1.6 LW
N
618 516 M
625 509 L
S
GR
GS
[0.75 0 0 0.75 0 0] CT
1 LJ
1.6 LW
N
618 509 M
625 516 L
S
GR
GS
[0.75 0 0 0.75 0 0] CT
1 LJ
1.6 LW
N
624 516 M
631 509 L
S
GR
GS
[0.75 0 0 0.75 0 0] CT
1 LJ
1.6 LW
N
624 509 M
631 516 L
S
GR
GS
[0.75 0 0 0.75 0 0] CT
1 LJ
1.6 LW
N
629 516 M
636 509 L
S
GR
GS
[0.75 0 0 0.75 0 0] CT
1 LJ
1.6 LW
N
629 509 M
636 516 L
S
GR
GS
[0.75 0 0 0.75 0 0] CT
1 LJ
1.6 LW
N
635 515 M
642 508 L
S
GR
GS
[0.75 0 0 0.75 0 0] CT
1 LJ
1.6 LW
N
635 508 M
642 515 L
S
GR
%%Trailer
%%Pages: 1
%%EOF
