%!PS-Adobe-3.0 EPSF-3.0
%%Creator: (MATLAB, The Mathworks, Inc. Version 8.6.0.267246 \(R2015b\). Operating System: Mac OS X)
%%Title: ./exp_data_0.eps
%%CreationDate: 2016-01-06T17:12:13
%%Pages: (atend)
%%BoundingBox:    42    20   530   406
%%LanguageLevel: 3
%%EndComments
%%BeginProlog
%%BeginResource: procset (Apache XML Graphics Std ProcSet) 1.2 0
%%Version: 1.2 0
%%Copyright: (Copyright 2001-2003,2010 The Apache Software Foundation. License terms: http://www.apache.org/licenses/LICENSE-2.0)
/bd{bind def}bind def
/ld{load def}bd
/GR/grestore ld
/M/moveto ld
/LJ/setlinejoin ld
/C/curveto ld
/f/fill ld
/LW/setlinewidth ld
/GC/setgray ld
/t/show ld
/N/newpath ld
/CT/concat ld
/cp/closepath ld
/S/stroke ld
/L/lineto ld
/CC/setcmykcolor ld
/A/ashow ld
/GS/gsave ld
/RC/setrgbcolor ld
/RM/rmoveto ld
/ML/setmiterlimit ld
/re {4 2 roll M
1 index 0 rlineto
0 exch rlineto
neg 0 rlineto
cp } bd
/_ctm matrix def
/_tm matrix def
/BT { _ctm currentmatrix pop matrix _tm copy pop 0 0 moveto } bd
/ET { _ctm setmatrix } bd
/iTm { _ctm setmatrix _tm concat } bd
/Tm { _tm astore pop iTm 0 0 moveto } bd
/ux 0.0 def
/uy 0.0 def
/F {
  /Tp exch def
  /Tf exch def
  Tf findfont Tp scalefont setfont
  /cf Tf def  /cs Tp def
} bd
/ULS {currentpoint /uy exch def /ux exch def} bd
/ULE {
  /Tcx currentpoint pop def
  gsave
  newpath
  cf findfont cs scalefont dup
  /FontMatrix get 0 get /Ts exch def /FontInfo get dup
  /UnderlinePosition get Ts mul /To exch def
  /UnderlineThickness get Ts mul /Tt exch def
  ux uy To add moveto  Tcx uy To add lineto
  Tt setlinewidth stroke
  grestore
} bd
/OLE {
  /Tcx currentpoint pop def
  gsave
  newpath
  cf findfont cs scalefont dup
  /FontMatrix get 0 get /Ts exch def /FontInfo get dup
  /UnderlinePosition get Ts mul /To exch def
  /UnderlineThickness get Ts mul /Tt exch def
  ux uy To add cs add moveto Tcx uy To add cs add lineto
  Tt setlinewidth stroke
  grestore
} bd
/SOE {
  /Tcx currentpoint pop def
  gsave
  newpath
  cf findfont cs scalefont dup
  /FontMatrix get 0 get /Ts exch def /FontInfo get dup
  /UnderlinePosition get Ts mul /To exch def
  /UnderlineThickness get Ts mul /Tt exch def
  ux uy To add cs 10 mul 26 idiv add moveto Tcx uy To add cs 10 mul 26 idiv add lineto
  Tt setlinewidth stroke
  grestore
} bd
/QT {
/Y22 exch store
/X22 exch store
/Y21 exch store
/X21 exch store
currentpoint
/Y21 load 2 mul add 3 div exch
/X21 load 2 mul add 3 div exch
/X21 load 2 mul /X22 load add 3 div
/Y21 load 2 mul /Y22 load add 3 div
/X22 load /Y22 load curveto
} bd
/SSPD {
dup length /d exch dict def
{
/v exch def
/k exch def
currentpagedevice k known {
/cpdv currentpagedevice k get def
v cpdv ne {
/upd false def
/nullv v type /nulltype eq def
/nullcpdv cpdv type /nulltype eq def
nullv nullcpdv or
{
/upd true def
} {
/sametype v type cpdv type eq def
sametype {
v type /arraytype eq {
/vlen v length def
/cpdvlen cpdv length def
vlen cpdvlen eq {
0 1 vlen 1 sub {
/i exch def
/obj v i get def
/cpdobj cpdv i get def
obj cpdobj ne {
/upd true def
exit
} if
} for
} {
/upd true def
} ifelse
} {
v type /dicttype eq {
v {
/dv exch def
/dk exch def
/cpddv cpdv dk get def
dv cpddv ne {
/upd true def
exit
} if
} forall
} {
/upd true def
} ifelse
} ifelse
} if
} ifelse
upd true eq {
d k v put
} if
} if
} if
} forall
d length 0 gt {
d setpagedevice
} if
} bd
%%EndResource
%%BeginResource: procset (Apache XML Graphics EPS ProcSet) 1.0 0
%%Version: 1.0 0
%%Copyright: (Copyright 2002-2003 The Apache Software Foundation. License terms: http://www.apache.org/licenses/LICENSE-2.0)
/BeginEPSF { %def
/b4_Inc_state save def         % Save state for cleanup
/dict_count countdictstack def % Count objects on dict stack
/op_count count 1 sub def      % Count objects on operand stack
userdict begin                 % Push userdict on dict stack
/showpage { } def              % Redefine showpage, { } = null proc
0 setgray 0 setlinecap         % Prepare graphics state
1 setlinewidth 0 setlinejoin
10 setmiterlimit [ ] 0 setdash newpath
/languagelevel where           % If level not equal to 1 then
{pop languagelevel             % set strokeadjust and
1 ne                           % overprint to their defaults.
{false setstrokeadjust false setoverprint
} if
} if
} bd
/EndEPSF { %def
count op_count sub {pop} repeat            % Clean up stacks
countdictstack dict_count sub {end} repeat
b4_Inc_state restore
} bd
%%EndResource
%FOPBeginFontDict
%%IncludeResource: font Courier-Bold
%%IncludeResource: font Helvetica
%%IncludeResource: font Courier-BoldOblique
%%IncludeResource: font Courier-Oblique
%%IncludeResource: font Times-Roman
%%IncludeResource: font Helvetica-BoldOblique
%%IncludeResource: font Helvetica-Bold
%%IncludeResource: font Helvetica-Oblique
%%IncludeResource: font Times-BoldItalic
%%IncludeResource: font Courier
%%IncludeResource: font Times-Italic
%%IncludeResource: font Times-Bold
%%IncludeResource: font Symbol
%%IncludeResource: font ZapfDingbats
%FOPEndFontDict
%%BeginResource: encoding WinAnsiEncoding
/WinAnsiEncoding [
/.notdef /.notdef /.notdef /.notdef /.notdef
/.notdef /.notdef /.notdef /.notdef /.notdef
/.notdef /.notdef /.notdef /.notdef /.notdef
/.notdef /.notdef /.notdef /.notdef /.notdef
/.notdef /.notdef /.notdef /.notdef /.notdef
/.notdef /.notdef /.notdef /.notdef /.notdef
/.notdef /.notdef /space /exclam /quotedbl
/numbersign /dollar /percent /ampersand /quotesingle
/parenleft /parenright /asterisk /plus /comma
/hyphen /period /slash /zero /one
/two /three /four /five /six
/seven /eight /nine /colon /semicolon
/less /equal /greater /question /at
/A /B /C /D /E
/F /G /H /I /J
/K /L /M /N /O
/P /Q /R /S /T
/U /V /W /X /Y
/Z /bracketleft /backslash /bracketright /asciicircum
/underscore /quoteleft /a /b /c
/d /e /f /g /h
/i /j /k /l /m
/n /o /p /q /r
/s /t /u /v /w
/x /y /z /braceleft /bar
/braceright /asciitilde /bullet /Euro /bullet
/quotesinglbase /florin /quotedblbase /ellipsis /dagger
/daggerdbl /circumflex /perthousand /Scaron /guilsinglleft
/OE /bullet /Zcaron /bullet /bullet
/quoteleft /quoteright /quotedblleft /quotedblright /bullet
/endash /emdash /asciitilde /trademark /scaron
/guilsinglright /oe /bullet /zcaron /Ydieresis
/space /exclamdown /cent /sterling /currency
/yen /brokenbar /section /dieresis /copyright
/ordfeminine /guillemotleft /logicalnot /sfthyphen /registered
/macron /degree /plusminus /twosuperior /threesuperior
/acute /mu /paragraph /middot /cedilla
/onesuperior /ordmasculine /guillemotright /onequarter /onehalf
/threequarters /questiondown /Agrave /Aacute /Acircumflex
/Atilde /Adieresis /Aring /AE /Ccedilla
/Egrave /Eacute /Ecircumflex /Edieresis /Igrave
/Iacute /Icircumflex /Idieresis /Eth /Ntilde
/Ograve /Oacute /Ocircumflex /Otilde /Odieresis
/multiply /Oslash /Ugrave /Uacute /Ucircumflex
/Udieresis /Yacute /Thorn /germandbls /agrave
/aacute /acircumflex /atilde /adieresis /aring
/ae /ccedilla /egrave /eacute /ecircumflex
/edieresis /igrave /iacute /icircumflex /idieresis
/eth /ntilde /ograve /oacute /ocircumflex
/otilde /odieresis /divide /oslash /ugrave
/uacute /ucircumflex /udieresis /yacute /thorn
/ydieresis
] def
%%EndResource
%FOPBeginFontReencode
/Courier-Bold findfont
dup length dict begin
  {1 index /FID ne {def} {pop pop} ifelse} forall
  /Encoding WinAnsiEncoding def
  currentdict
end
/Courier-Bold exch definefont pop
/Helvetica findfont
dup length dict begin
  {1 index /FID ne {def} {pop pop} ifelse} forall
  /Encoding WinAnsiEncoding def
  currentdict
end
/Helvetica exch definefont pop
/Courier-BoldOblique findfont
dup length dict begin
  {1 index /FID ne {def} {pop pop} ifelse} forall
  /Encoding WinAnsiEncoding def
  currentdict
end
/Courier-BoldOblique exch definefont pop
/Courier-Oblique findfont
dup length dict begin
  {1 index /FID ne {def} {pop pop} ifelse} forall
  /Encoding WinAnsiEncoding def
  currentdict
end
/Courier-Oblique exch definefont pop
/Times-Roman findfont
dup length dict begin
  {1 index /FID ne {def} {pop pop} ifelse} forall
  /Encoding WinAnsiEncoding def
  currentdict
end
/Times-Roman exch definefont pop
/Helvetica-BoldOblique findfont
dup length dict begin
  {1 index /FID ne {def} {pop pop} ifelse} forall
  /Encoding WinAnsiEncoding def
  currentdict
end
/Helvetica-BoldOblique exch definefont pop
/Helvetica-Bold findfont
dup length dict begin
  {1 index /FID ne {def} {pop pop} ifelse} forall
  /Encoding WinAnsiEncoding def
  currentdict
end
/Helvetica-Bold exch definefont pop
/Helvetica-Oblique findfont
dup length dict begin
  {1 index /FID ne {def} {pop pop} ifelse} forall
  /Encoding WinAnsiEncoding def
  currentdict
end
/Helvetica-Oblique exch definefont pop
/Times-BoldItalic findfont
dup length dict begin
  {1 index /FID ne {def} {pop pop} ifelse} forall
  /Encoding WinAnsiEncoding def
  currentdict
end
/Times-BoldItalic exch definefont pop
/Courier findfont
dup length dict begin
  {1 index /FID ne {def} {pop pop} ifelse} forall
  /Encoding WinAnsiEncoding def
  currentdict
end
/Courier exch definefont pop
/Times-Italic findfont
dup length dict begin
  {1 index /FID ne {def} {pop pop} ifelse} forall
  /Encoding WinAnsiEncoding def
  currentdict
end
/Times-Italic exch definefont pop
/Times-Bold findfont
dup length dict begin
  {1 index /FID ne {def} {pop pop} ifelse} forall
  /Encoding WinAnsiEncoding def
  currentdict
end
/Times-Bold exch definefont pop
%FOPEndFontReencode
%%EndProlog
%%Page: 1 1
%%PageBoundingBox: 0 0 576 432
%%BeginPageSetup
[1 0 0 -1 0 432] CT
%%EndPageSetup
GS
1 GC
N
0 0 576 432 re
f
GR
GS
1 GC
N
0 0 576 432 re
f
GR
GS
1 GC
N
75 384 M
521 384 L
521 32 L
75 32 L
cp
f
GR
GS
0.873 GC
1 LJ
0.5 LW
N
75 384 M
75 32 L
S
GR
GS
0.873 GC
1 LJ
0.5 LW
N
119.6 384 M
119.6 32 L
S
GR
GS
0.873 GC
1 LJ
0.5 LW
N
164.2 384 M
164.2 32 L
S
GR
GS
0.873 GC
1 LJ
0.5 LW
N
208.8 384 M
208.8 32 L
S
GR
GS
0.873 GC
1 LJ
0.5 LW
N
253.4 384 M
253.4 32 L
S
GR
GS
0.873 GC
1 LJ
0.5 LW
N
298 384 M
298 32 L
S
GR
GS
0.873 GC
1 LJ
0.5 LW
N
342.6 384 M
342.6 32 L
S
GR
GS
0.873 GC
1 LJ
0.5 LW
N
387.2 384 M
387.2 32 L
S
GR
GS
0.873 GC
1 LJ
0.5 LW
N
431.8 384 M
431.8 32 L
S
GR
GS
0.873 GC
1 LJ
0.5 LW
N
476.4 384 M
476.4 32 L
S
GR
GS
0.873 GC
1 LJ
0.5 LW
N
521 384 M
521 32 L
S
GR
GS
0.873 GC
1 LJ
0.5 LW
N
521 384 M
75 384 L
S
GR
GS
0.873 GC
1 LJ
0.5 LW
N
521 348.8 M
75 348.8 L
S
GR
GS
0.873 GC
1 LJ
0.5 LW
N
521 313.6 M
75 313.6 L
S
GR
GS
0.873 GC
1 LJ
0.5 LW
N
521 278.4 M
75 278.4 L
S
GR
GS
0.873 GC
1 LJ
0.5 LW
N
521 243.2 M
75 243.2 L
S
GR
GS
0.873 GC
1 LJ
0.5 LW
N
521 208 M
75 208 L
S
GR
GS
0.873 GC
1 LJ
0.5 LW
N
521 172.8 M
75 172.8 L
S
GR
GS
0.873 GC
1 LJ
0.5 LW
N
521 137.6 M
75 137.6 L
S
GR
GS
0.873 GC
1 LJ
0.5 LW
N
521 102.4 M
75 102.4 L
S
GR
GS
0.873 GC
1 LJ
0.5 LW
N
521 67.2 M
75 67.2 L
S
GR
GS
0.873 GC
1 LJ
0.5 LW
N
521 32 M
75 32 L
S
GR
GS
0.149 GC
2 setlinecap
1 LJ
0.5 LW
N
75 384 M
521 384 L
S
GR
GS
0.149 GC
2 setlinecap
1 LJ
0.5 LW
N
75 32 M
521 32 L
S
GR
GS
0.149 GC
2 setlinecap
1 LJ
0.5 LW
N
75 384 M
75 379.54 L
S
GR
GS
0.149 GC
2 setlinecap
1 LJ
0.5 LW
N
119.6 384 M
119.6 379.54 L
S
GR
GS
0.149 GC
2 setlinecap
1 LJ
0.5 LW
N
164.2 384 M
164.2 379.54 L
S
GR
GS
0.149 GC
2 setlinecap
1 LJ
0.5 LW
N
208.8 384 M
208.8 379.54 L
S
GR
GS
0.149 GC
2 setlinecap
1 LJ
0.5 LW
N
253.4 384 M
253.4 379.54 L
S
GR
GS
0.149 GC
2 setlinecap
1 LJ
0.5 LW
N
298 384 M
298 379.54 L
S
GR
GS
0.149 GC
2 setlinecap
1 LJ
0.5 LW
N
342.6 384 M
342.6 379.54 L
S
GR
GS
0.149 GC
2 setlinecap
1 LJ
0.5 LW
N
387.2 384 M
387.2 379.54 L
S
GR
GS
0.149 GC
2 setlinecap
1 LJ
0.5 LW
N
431.8 384 M
431.8 379.54 L
S
GR
GS
0.149 GC
2 setlinecap
1 LJ
0.5 LW
N
476.4 384 M
476.4 379.54 L
S
GR
GS
0.149 GC
2 setlinecap
1 LJ
0.5 LW
N
521 384 M
521 379.54 L
S
GR
GS
0.149 GC
2 setlinecap
1 LJ
0.5 LW
N
75 32 M
75 36.46 L
S
GR
GS
0.149 GC
2 setlinecap
1 LJ
0.5 LW
N
119.6 32 M
119.6 36.46 L
S
GR
GS
0.149 GC
2 setlinecap
1 LJ
0.5 LW
N
164.2 32 M
164.2 36.46 L
S
GR
GS
0.149 GC
2 setlinecap
1 LJ
0.5 LW
N
208.8 32 M
208.8 36.46 L
S
GR
GS
0.149 GC
2 setlinecap
1 LJ
0.5 LW
N
253.4 32 M
253.4 36.46 L
S
GR
GS
0.149 GC
2 setlinecap
1 LJ
0.5 LW
N
298 32 M
298 36.46 L
S
GR
GS
0.149 GC
2 setlinecap
1 LJ
0.5 LW
N
342.6 32 M
342.6 36.46 L
S
GR
GS
0.149 GC
2 setlinecap
1 LJ
0.5 LW
N
387.2 32 M
387.2 36.46 L
S
GR
GS
0.149 GC
2 setlinecap
1 LJ
0.5 LW
N
431.8 32 M
431.8 36.46 L
S
GR
GS
0.149 GC
2 setlinecap
1 LJ
0.5 LW
N
476.4 32 M
476.4 36.46 L
S
GR
GS
0.149 GC
2 setlinecap
1 LJ
0.5 LW
N
521 32 M
521 36.46 L
S
GR
GS
[1 0 0 1 75 388] CT
0.149 GC
/Helvetica 10 F
GS
[1 0 0 1 0 0] CT
-6 8 moveto 
1 -1 scale
(50) t 
GR
GR
GS
[1 0 0 1 119.6 388] CT
0.149 GC
/Helvetica 10 F
GS
[1 0 0 1 0 0] CT
-6 8 moveto 
1 -1 scale
(60) t 
GR
GR
GS
[1 0 0 1 164.2 388] CT
0.149 GC
/Helvetica 10 F
GS
[1 0 0 1 0 0] CT
-6 8 moveto 
1 -1 scale
(70) t 
GR
GR
GS
[1 0 0 1 208.8 388] CT
0.149 GC
/Helvetica 10 F
GS
[1 0 0 1 0 0] CT
-6 8 moveto 
1 -1 scale
(80) t 
GR
GR
GS
[1 0 0 1 253.39999 388] CT
0.149 GC
/Helvetica 10 F
GS
[1 0 0 1 0 0] CT
-6 8 moveto 
1 -1 scale
(90) t 
GR
GR
GS
[1 0 0 1 298 388] CT
0.149 GC
/Helvetica 10 F
GS
[1 0 0 1 0 0] CT
-8.5 8 moveto 
1 -1 scale
(100) t 
GR
GR
GS
[1 0 0 1 342.60001 388] CT
0.149 GC
/Helvetica 10 F
GS
[1 0 0 1 0 0] CT
-8.5 8 moveto 
1 -1 scale
(110) t 
GR
GR
GS
[1 0 0 1 387.20001 388] CT
0.149 GC
/Helvetica 10 F
GS
[1 0 0 1 0 0] CT
-8.5 8 moveto 
1 -1 scale
(120) t 
GR
GR
GS
[1 0 0 1 431.79999 388] CT
0.149 GC
/Helvetica 10 F
GS
[1 0 0 1 0 0] CT
-8.5 8 moveto 
1 -1 scale
(130) t 
GR
GR
GS
[1 0 0 1 476.39999 388] CT
0.149 GC
/Helvetica 10 F
GS
[1 0 0 1 0 0] CT
-8.5 8 moveto 
1 -1 scale
(140) t 
GR
GR
GS
[1 0 0 1 521 388] CT
0.149 GC
/Helvetica 10 F
GS
[1 0 0 1 0 0] CT
-8.5 8 moveto 
1 -1 scale
(150) t 
GR
GR
GS
[1 0 0 1 298.00021 400] CT
0.149 GC
/Helvetica 11 F
GS
[1 0 0 1 0 0] CT
-3 9 moveto 
1 -1 scale
(x) t 
GR
GR
GS
0.149 GC
2 setlinecap
1 LJ
0.5 LW
N
75 384 M
75 32 L
S
GR
GS
0.149 GC
2 setlinecap
1 LJ
0.5 LW
N
521 384 M
521 32 L
S
GR
GS
0.149 GC
2 setlinecap
1 LJ
0.5 LW
N
75 384 M
79.46 384 L
S
GR
GS
0.149 GC
2 setlinecap
1 LJ
0.5 LW
N
75 348.8 M
79.46 348.8 L
S
GR
GS
0.149 GC
2 setlinecap
1 LJ
0.5 LW
N
75 313.6 M
79.46 313.6 L
S
GR
GS
0.149 GC
2 setlinecap
1 LJ
0.5 LW
N
75 278.4 M
79.46 278.4 L
S
GR
GS
0.149 GC
2 setlinecap
1 LJ
0.5 LW
N
75 243.2 M
79.46 243.2 L
S
GR
GS
0.149 GC
2 setlinecap
1 LJ
0.5 LW
N
75 208 M
79.46 208 L
S
GR
GS
0.149 GC
2 setlinecap
1 LJ
0.5 LW
N
75 172.8 M
79.46 172.8 L
S
GR
GS
0.149 GC
2 setlinecap
1 LJ
0.5 LW
N
75 137.6 M
79.46 137.6 L
S
GR
GS
0.149 GC
2 setlinecap
1 LJ
0.5 LW
N
75 102.4 M
79.46 102.4 L
S
GR
GS
0.149 GC
2 setlinecap
1 LJ
0.5 LW
N
75 67.2 M
79.46 67.2 L
S
GR
GS
0.149 GC
2 setlinecap
1 LJ
0.5 LW
N
75 32 M
79.46 32 L
S
GR
GS
0.149 GC
2 setlinecap
1 LJ
0.5 LW
N
521 384 M
516.54 384 L
S
GR
GS
0.149 GC
2 setlinecap
1 LJ
0.5 LW
N
521 348.8 M
516.54 348.8 L
S
GR
GS
0.149 GC
2 setlinecap
1 LJ
0.5 LW
N
521 313.6 M
516.54 313.6 L
S
GR
GS
0.149 GC
2 setlinecap
1 LJ
0.5 LW
N
521 278.4 M
516.54 278.4 L
S
GR
GS
0.149 GC
2 setlinecap
1 LJ
0.5 LW
N
521 243.2 M
516.54 243.2 L
S
GR
GS
0.149 GC
2 setlinecap
1 LJ
0.5 LW
N
521 208 M
516.54 208 L
S
GR
GS
0.149 GC
2 setlinecap
1 LJ
0.5 LW
N
521 172.8 M
516.54 172.8 L
S
GR
GS
0.149 GC
2 setlinecap
1 LJ
0.5 LW
N
521 137.6 M
516.54 137.6 L
S
GR
GS
0.149 GC
2 setlinecap
1 LJ
0.5 LW
N
521 102.4 M
516.54 102.4 L
S
GR
GS
0.149 GC
2 setlinecap
1 LJ
0.5 LW
N
521 67.2 M
516.54 67.2 L
S
GR
GS
0.149 GC
2 setlinecap
1 LJ
0.5 LW
N
521 32 M
516.54 32 L
S
GR
GS
[1 0 0 1 70.99999 384] CT
0.149 GC
/Helvetica 10 F
GS
[1 0 0 1 0 0] CT
-6 2.5 moveto 
1 -1 scale
(0) t 
GR
GR
GS
[1 0 0 1 70.99999 348.79999] CT
0.149 GC
/Helvetica 10 F
GS
[1 0 0 1 0 0] CT
-14 2.5 moveto 
1 -1 scale
(0.1) t 
GR
GR
GS
[1 0 0 1 70.99999 313.60001] CT
0.149 GC
/Helvetica 10 F
GS
[1 0 0 1 0 0] CT
-14 2.5 moveto 
1 -1 scale
(0.2) t 
GR
GR
GS
[1 0 0 1 70.99999 278.39999] CT
0.149 GC
/Helvetica 10 F
GS
[1 0 0 1 0 0] CT
-14 2.5 moveto 
1 -1 scale
(0.3) t 
GR
GR
GS
[1 0 0 1 70.99999 243.2] CT
0.149 GC
/Helvetica 10 F
GS
[1 0 0 1 0 0] CT
-14 2.5 moveto 
1 -1 scale
(0.4) t 
GR
GR
GS
[1 0 0 1 70.99999 208] CT
0.149 GC
/Helvetica 10 F
GS
[1 0 0 1 0 0] CT
-14 2.5 moveto 
1 -1 scale
(0.5) t 
GR
GR
GS
[1 0 0 1 70.99999 172.79999] CT
0.149 GC
/Helvetica 10 F
GS
[1 0 0 1 0 0] CT
-14 2.5 moveto 
1 -1 scale
(0.6) t 
GR
GR
GS
[1 0 0 1 70.99999 137.60001] CT
0.149 GC
/Helvetica 10 F
GS
[1 0 0 1 0 0] CT
-14 2.5 moveto 
1 -1 scale
(0.7) t 
GR
GR
GS
[1 0 0 1 70.99999 102.39999] CT
0.149 GC
/Helvetica 10 F
GS
[1 0 0 1 0 0] CT
-14 2.5 moveto 
1 -1 scale
(0.8) t 
GR
GR
GS
[1 0 0 1 70.99999 67.20001] CT
0.149 GC
/Helvetica 10 F
GS
[1 0 0 1 0 0] CT
-14 2.5 moveto 
1 -1 scale
(0.9) t 
GR
GR
GS
[1 0 0 1 70.99999 32] CT
0.149 GC
/Helvetica 10 F
GS
[1 0 0 1 0 0] CT
-6 2.5 moveto 
1 -1 scale
(1) t 
GR
GR
GS
[0 -1 1 0 54 207.99983] CT
0.149 GC
/Helvetica 11 F
GS
[1 0 0 1 0 0] CT
-100.5 -3 moveto 
1 -1 scale
(Exponentially distributed data \(mean = 0\)) t 
GR
GR
GS
1 LJ
1.2 LW
N
73 386 M
78 381 L
S
GR
GS
1 LJ
1.2 LW
N
73 381 M
78 386 L
S
GR
GS
1 LJ
1.2 LW
N
77 386 M
82 381 L
S
GR
GS
1 LJ
1.2 LW
N
77 381 M
82 386 L
S
GR
GS
1 LJ
1.2 LW
N
81 386 M
86 381 L
S
GR
GS
1 LJ
1.2 LW
N
81 381 M
86 386 L
S
GR
GS
1 LJ
1.2 LW
N
86 386 M
91 381 L
S
GR
GS
1 LJ
1.2 LW
N
86 381 M
91 386 L
S
GR
GS
1 LJ
1.2 LW
N
90 386 M
95 381 L
S
GR
GS
1 LJ
1.2 LW
N
90 381 M
95 386 L
S
GR
GS
1 LJ
1.2 LW
N
95 386 M
100 381 L
S
GR
GS
1 LJ
1.2 LW
N
95 381 M
100 386 L
S
GR
GS
1 LJ
1.2 LW
N
99 386 M
104 381 L
S
GR
GS
1 LJ
1.2 LW
N
99 381 M
104 386 L
S
GR
GS
1 LJ
1.2 LW
N
104 386 M
109 381 L
S
GR
GS
1 LJ
1.2 LW
N
104 381 M
109 386 L
S
GR
GS
1 LJ
1.2 LW
N
108 386 M
113 381 L
S
GR
GS
1 LJ
1.2 LW
N
108 381 M
113 386 L
S
GR
GS
1 LJ
1.2 LW
N
113 386 M
118 381 L
S
GR
GS
1 LJ
1.2 LW
N
113 381 M
118 386 L
S
GR
GS
1 LJ
1.2 LW
N
117 386 M
122 381 L
S
GR
GS
1 LJ
1.2 LW
N
117 381 M
122 386 L
S
GR
GS
1 LJ
1.2 LW
N
122 386 M
127 381 L
S
GR
GS
1 LJ
1.2 LW
N
122 381 M
127 386 L
S
GR
GS
1 LJ
1.2 LW
N
126 386 M
131 381 L
S
GR
GS
1 LJ
1.2 LW
N
126 381 M
131 386 L
S
GR
GS
1 LJ
1.2 LW
N
130 386 M
135 381 L
S
GR
GS
1 LJ
1.2 LW
N
130 381 M
135 386 L
S
GR
GS
1 LJ
1.2 LW
N
135 386 M
140 381 L
S
GR
GS
1 LJ
1.2 LW
N
135 381 M
140 386 L
S
GR
GS
1 LJ
1.2 LW
N
139 386 M
144 381 L
S
GR
GS
1 LJ
1.2 LW
N
139 381 M
144 386 L
S
GR
GS
1 LJ
1.2 LW
N
144 386 M
149 381 L
S
GR
GS
1 LJ
1.2 LW
N
144 381 M
149 386 L
S
GR
GS
1 LJ
1.2 LW
N
148 386 M
153 381 L
S
GR
GS
1 LJ
1.2 LW
N
148 381 M
153 386 L
S
GR
GS
1 LJ
1.2 LW
N
153 386 M
158 381 L
S
GR
GS
1 LJ
1.2 LW
N
153 381 M
158 386 L
S
GR
GS
1 LJ
1.2 LW
N
157 386 M
162 381 L
S
GR
GS
1 LJ
1.2 LW
N
157 381 M
162 386 L
S
GR
GS
1 LJ
1.2 LW
N
162 386 M
167 381 L
S
GR
GS
1 LJ
1.2 LW
N
162 381 M
167 386 L
S
GR
GS
1 LJ
1.2 LW
N
166 386 M
171 381 L
S
GR
GS
1 LJ
1.2 LW
N
166 381 M
171 386 L
S
GR
GS
1 LJ
1.2 LW
N
171 386 M
176 381 L
S
GR
GS
1 LJ
1.2 LW
N
171 381 M
176 386 L
S
GR
GS
1 LJ
1.2 LW
N
175 386 M
180 381 L
S
GR
GS
1 LJ
1.2 LW
N
175 381 M
180 386 L
S
GR
GS
1 LJ
1.2 LW
N
180 386 M
185 381 L
S
GR
GS
1 LJ
1.2 LW
N
180 381 M
185 386 L
S
GR
GS
1 LJ
1.2 LW
N
184 386 M
189 381 L
S
GR
GS
1 LJ
1.2 LW
N
184 381 M
189 386 L
S
GR
GS
1 LJ
1.2 LW
N
188 386 M
193 381 L
S
GR
GS
1 LJ
1.2 LW
N
188 381 M
193 386 L
S
GR
GS
1 LJ
1.2 LW
N
193 386 M
198 381 L
S
GR
GS
1 LJ
1.2 LW
N
193 381 M
198 386 L
S
GR
GS
1 LJ
1.2 LW
N
197 386 M
202 381 L
S
GR
GS
1 LJ
1.2 LW
N
197 381 M
202 386 L
S
GR
GS
1 LJ
1.2 LW
N
202 386 M
207 381 L
S
GR
GS
1 LJ
1.2 LW
N
202 381 M
207 386 L
S
GR
GS
1 LJ
1.2 LW
N
206 386 M
211 381 L
S
GR
GS
1 LJ
1.2 LW
N
206 381 M
211 386 L
S
GR
GS
1 LJ
1.2 LW
N
211 386 M
216 381 L
S
GR
GS
1 LJ
1.2 LW
N
211 381 M
216 386 L
S
GR
GS
1 LJ
1.2 LW
N
215 386 M
220 381 L
S
GR
GS
1 LJ
1.2 LW
N
215 381 M
220 386 L
S
GR
GS
1 LJ
1.2 LW
N
220 386 M
225 381 L
S
GR
GS
1 LJ
1.2 LW
N
220 381 M
225 386 L
S
GR
GS
1 LJ
1.2 LW
N
224 386 M
229 381 L
S
GR
GS
1 LJ
1.2 LW
N
224 381 M
229 386 L
S
GR
GS
1 LJ
1.2 LW
N
229 386 M
234 381 L
S
GR
GS
1 LJ
1.2 LW
N
229 381 M
234 386 L
S
GR
GS
1 LJ
1.2 LW
N
233 386 M
238 381 L
S
GR
GS
1 LJ
1.2 LW
N
233 381 M
238 386 L
S
GR
GS
1 LJ
1.2 LW
N
238 386 M
243 381 L
S
GR
GS
1 LJ
1.2 LW
N
238 381 M
243 386 L
S
GR
GS
1 LJ
1.2 LW
N
242 386 M
247 381 L
S
GR
GS
1 LJ
1.2 LW
N
242 381 M
247 386 L
S
GR
GS
1 LJ
1.2 LW
N
246 386 M
251 381 L
S
GR
GS
1 LJ
1.2 LW
N
246 381 M
251 386 L
S
GR
GS
1 LJ
1.2 LW
N
251 386 M
256 381 L
S
GR
GS
1 LJ
1.2 LW
N
251 381 M
256 386 L
S
GR
GS
1 LJ
1.2 LW
N
255 386 M
260 381 L
S
GR
GS
1 LJ
1.2 LW
N
255 381 M
260 386 L
S
GR
GS
1 LJ
1.2 LW
N
260 386 M
265 381 L
S
GR
GS
1 LJ
1.2 LW
N
260 381 M
265 386 L
S
GR
GS
1 LJ
1.2 LW
N
264 386 M
269 381 L
S
GR
GS
1 LJ
1.2 LW
N
264 381 M
269 386 L
S
GR
GS
1 LJ
1.2 LW
N
269 386 M
274 381 L
S
GR
GS
1 LJ
1.2 LW
N
269 381 M
274 386 L
S
GR
GS
1 LJ
1.2 LW
N
273 386 M
278 381 L
S
GR
GS
1 LJ
1.2 LW
N
273 381 M
278 386 L
S
GR
GS
1 LJ
1.2 LW
N
278 386 M
283 381 L
S
GR
GS
1 LJ
1.2 LW
N
278 381 M
283 386 L
S
GR
GS
1 LJ
1.2 LW
N
282 386 M
287 381 L
S
GR
GS
1 LJ
1.2 LW
N
282 381 M
287 386 L
S
GR
GS
1 LJ
1.2 LW
N
287 386 M
292 381 L
S
GR
GS
1 LJ
1.2 LW
N
287 381 M
292 386 L
S
GR
GS
1 LJ
1.2 LW
N
291 386 M
296 381 L
S
GR
GS
1 LJ
1.2 LW
N
291 381 M
296 386 L
S
GR
GS
1 LJ
1.2 LW
N
296 34 M
301 29 L
S
GR
GS
1 LJ
1.2 LW
N
296 29 M
301 34 L
S
GR
GS
1 LJ
1.2 LW
N
300 386 M
305 381 L
S
GR
GS
1 LJ
1.2 LW
N
300 381 M
305 386 L
S
GR
GS
1 LJ
1.2 LW
N
304 386 M
309 381 L
S
GR
GS
1 LJ
1.2 LW
N
304 381 M
309 386 L
S
GR
GS
1 LJ
1.2 LW
N
309 386 M
314 381 L
S
GR
GS
1 LJ
1.2 LW
N
309 381 M
314 386 L
S
GR
GS
1 LJ
1.2 LW
N
313 386 M
318 381 L
S
GR
GS
1 LJ
1.2 LW
N
313 381 M
318 386 L
S
GR
GS
1 LJ
1.2 LW
N
318 386 M
323 381 L
S
GR
GS
1 LJ
1.2 LW
N
318 381 M
323 386 L
S
GR
GS
1 LJ
1.2 LW
N
322 386 M
327 381 L
S
GR
GS
1 LJ
1.2 LW
N
322 381 M
327 386 L
S
GR
GS
1 LJ
1.2 LW
N
327 386 M
332 381 L
S
GR
GS
1 LJ
1.2 LW
N
327 381 M
332 386 L
S
GR
GS
1 LJ
1.2 LW
N
331 386 M
336 381 L
S
GR
GS
1 LJ
1.2 LW
N
331 381 M
336 386 L
S
GR
GS
1 LJ
1.2 LW
N
336 386 M
341 381 L
S
GR
GS
1 LJ
1.2 LW
N
336 381 M
341 386 L
S
GR
GS
1 LJ
1.2 LW
N
340 386 M
345 381 L
S
GR
GS
1 LJ
1.2 LW
N
340 381 M
345 386 L
S
GR
GS
1 LJ
1.2 LW
N
345 386 M
350 381 L
S
GR
GS
1 LJ
1.2 LW
N
345 381 M
350 386 L
S
GR
GS
1 LJ
1.2 LW
N
349 386 M
354 381 L
S
GR
GS
1 LJ
1.2 LW
N
349 381 M
354 386 L
S
GR
GS
1 LJ
1.2 LW
N
353 386 M
358 381 L
S
GR
GS
1 LJ
1.2 LW
N
353 381 M
358 386 L
S
GR
GS
1 LJ
1.2 LW
N
358 386 M
363 381 L
S
GR
GS
1 LJ
1.2 LW
N
358 381 M
363 386 L
S
GR
GS
1 LJ
1.2 LW
N
362 386 M
367 381 L
S
GR
GS
1 LJ
1.2 LW
N
362 381 M
367 386 L
S
GR
GS
1 LJ
1.2 LW
N
367 386 M
372 381 L
S
GR
GS
1 LJ
1.2 LW
N
367 381 M
372 386 L
S
GR
GS
1 LJ
1.2 LW
N
371 386 M
376 381 L
S
GR
GS
1 LJ
1.2 LW
N
371 381 M
376 386 L
S
GR
GS
1 LJ
1.2 LW
N
376 386 M
381 381 L
S
GR
GS
1 LJ
1.2 LW
N
376 381 M
381 386 L
S
GR
GS
1 LJ
1.2 LW
N
380 386 M
385 381 L
S
GR
GS
1 LJ
1.2 LW
N
380 381 M
385 386 L
S
GR
GS
1 LJ
1.2 LW
N
385 386 M
390 381 L
S
GR
GS
1 LJ
1.2 LW
N
385 381 M
390 386 L
S
GR
GS
1 LJ
1.2 LW
N
389 386 M
394 381 L
S
GR
GS
1 LJ
1.2 LW
N
389 381 M
394 386 L
S
GR
GS
1 LJ
1.2 LW
N
394 386 M
399 381 L
S
GR
GS
1 LJ
1.2 LW
N
394 381 M
399 386 L
S
GR
GS
1 LJ
1.2 LW
N
398 386 M
403 381 L
S
GR
GS
1 LJ
1.2 LW
N
398 381 M
403 386 L
S
GR
GS
1 LJ
1.2 LW
N
403 386 M
408 381 L
S
GR
GS
1 LJ
1.2 LW
N
403 381 M
408 386 L
S
GR
GS
1 LJ
1.2 LW
N
407 386 M
412 381 L
S
GR
GS
1 LJ
1.2 LW
N
407 381 M
412 386 L
S
GR
GS
1 LJ
1.2 LW
N
411 386 M
416 381 L
S
GR
GS
1 LJ
1.2 LW
N
411 381 M
416 386 L
S
GR
GS
1 LJ
1.2 LW
N
416 386 M
421 381 L
S
GR
GS
1 LJ
1.2 LW
N
416 381 M
421 386 L
S
GR
GS
1 LJ
1.2 LW
N
420 386 M
425 381 L
S
GR
GS
1 LJ
1.2 LW
N
420 381 M
425 386 L
S
GR
GS
1 LJ
1.2 LW
N
425 386 M
430 381 L
S
GR
GS
1 LJ
1.2 LW
N
425 381 M
430 386 L
S
GR
GS
1 LJ
1.2 LW
N
429 386 M
434 381 L
S
GR
GS
1 LJ
1.2 LW
N
429 381 M
434 386 L
S
GR
GS
1 LJ
1.2 LW
N
434 386 M
439 381 L
S
GR
GS
1 LJ
1.2 LW
N
434 381 M
439 386 L
S
GR
GS
1 LJ
1.2 LW
N
438 386 M
443 381 L
S
GR
GS
1 LJ
1.2 LW
N
438 381 M
443 386 L
S
GR
GS
1 LJ
1.2 LW
N
443 386 M
448 381 L
S
GR
GS
1 LJ
1.2 LW
N
443 381 M
448 386 L
S
GR
GS
1 LJ
1.2 LW
N
447 386 M
452 381 L
S
GR
GS
1 LJ
1.2 LW
N
447 381 M
452 386 L
S
GR
GS
1 LJ
1.2 LW
N
452 386 M
457 381 L
S
GR
GS
1 LJ
1.2 LW
N
452 381 M
457 386 L
S
GR
GS
1 LJ
1.2 LW
N
456 386 M
461 381 L
S
GR
GS
1 LJ
1.2 LW
N
456 381 M
461 386 L
S
GR
GS
1 LJ
1.2 LW
N
461 386 M
466 381 L
S
GR
GS
1 LJ
1.2 LW
N
461 381 M
466 386 L
S
GR
GS
1 LJ
1.2 LW
N
465 386 M
470 381 L
S
GR
GS
1 LJ
1.2 LW
N
465 381 M
470 386 L
S
GR
GS
1 LJ
1.2 LW
N
469 386 M
474 381 L
S
GR
GS
1 LJ
1.2 LW
N
469 381 M
474 386 L
S
GR
GS
1 LJ
1.2 LW
N
474 386 M
479 381 L
S
GR
GS
1 LJ
1.2 LW
N
474 381 M
479 386 L
S
GR
GS
1 LJ
1.2 LW
N
478 386 M
483 381 L
S
GR
GS
1 LJ
1.2 LW
N
478 381 M
483 386 L
S
GR
GS
1 LJ
1.2 LW
N
483 386 M
488 381 L
S
GR
GS
1 LJ
1.2 LW
N
483 381 M
488 386 L
S
GR
GS
1 LJ
1.2 LW
N
487 386 M
492 381 L
S
GR
GS
1 LJ
1.2 LW
N
487 381 M
492 386 L
S
GR
GS
1 LJ
1.2 LW
N
492 386 M
497 381 L
S
GR
GS
1 LJ
1.2 LW
N
492 381 M
497 386 L
S
GR
GS
1 LJ
1.2 LW
N
496 386 M
501 381 L
S
GR
GS
1 LJ
1.2 LW
N
496 381 M
501 386 L
S
GR
GS
1 LJ
1.2 LW
N
501 386 M
506 381 L
S
GR
GS
1 LJ
1.2 LW
N
501 381 M
506 386 L
S
GR
GS
1 LJ
1.2 LW
N
505 386 M
510 381 L
S
GR
GS
1 LJ
1.2 LW
N
505 381 M
510 386 L
S
GR
GS
1 LJ
1.2 LW
N
510 386 M
515 381 L
S
GR
GS
1 LJ
1.2 LW
N
510 381 M
515 386 L
S
GR
GS
1 LJ
1.2 LW
N
514 386 M
519 381 L
S
GR
GS
1 LJ
1.2 LW
N
514 381 M
519 386 L
S
GR
%%Trailer
%%Pages: 1
%%EOF
