%!PS-Adobe-3.0 EPSF-3.0
%%Creator: (MATLAB, The Mathworks, Inc. Version 8.6.0.267246 \(R2015b\). Operating System: Windows 8)
%%Title: ./exp_data_2.eps
%%CreationDate: 2016-01-21T15:24:02
%%Pages: (atend)
%%BoundingBox:    39    14   527   406
%%LanguageLevel: 3
%%EndComments
%%BeginProlog
%%BeginResource: procset (Apache XML Graphics Std ProcSet) 1.2 0
%%Version: 1.2 0
%%Copyright: (Copyright 2001-2003,2010 The Apache Software Foundation. License terms: http://www.apache.org/licenses/LICENSE-2.0)
/bd{bind def}bind def
/ld{load def}bd
/GR/grestore ld
/M/moveto ld
/LJ/setlinejoin ld
/C/curveto ld
/f/fill ld
/LW/setlinewidth ld
/GC/setgray ld
/t/show ld
/N/newpath ld
/CT/concat ld
/cp/closepath ld
/S/stroke ld
/L/lineto ld
/CC/setcmykcolor ld
/A/ashow ld
/GS/gsave ld
/RC/setrgbcolor ld
/RM/rmoveto ld
/ML/setmiterlimit ld
/re {4 2 roll M
1 index 0 rlineto
0 exch rlineto
neg 0 rlineto
cp } bd
/_ctm matrix def
/_tm matrix def
/BT { _ctm currentmatrix pop matrix _tm copy pop 0 0 moveto } bd
/ET { _ctm setmatrix } bd
/iTm { _ctm setmatrix _tm concat } bd
/Tm { _tm astore pop iTm 0 0 moveto } bd
/ux 0.0 def
/uy 0.0 def
/F {
  /Tp exch def
  /Tf exch def
  Tf findfont Tp scalefont setfont
  /cf Tf def  /cs Tp def
} bd
/ULS {currentpoint /uy exch def /ux exch def} bd
/ULE {
  /Tcx currentpoint pop def
  gsave
  newpath
  cf findfont cs scalefont dup
  /FontMatrix get 0 get /Ts exch def /FontInfo get dup
  /UnderlinePosition get Ts mul /To exch def
  /UnderlineThickness get Ts mul /Tt exch def
  ux uy To add moveto  Tcx uy To add lineto
  Tt setlinewidth stroke
  grestore
} bd
/OLE {
  /Tcx currentpoint pop def
  gsave
  newpath
  cf findfont cs scalefont dup
  /FontMatrix get 0 get /Ts exch def /FontInfo get dup
  /UnderlinePosition get Ts mul /To exch def
  /UnderlineThickness get Ts mul /Tt exch def
  ux uy To add cs add moveto Tcx uy To add cs add lineto
  Tt setlinewidth stroke
  grestore
} bd
/SOE {
  /Tcx currentpoint pop def
  gsave
  newpath
  cf findfont cs scalefont dup
  /FontMatrix get 0 get /Ts exch def /FontInfo get dup
  /UnderlinePosition get Ts mul /To exch def
  /UnderlineThickness get Ts mul /Tt exch def
  ux uy To add cs 10 mul 26 idiv add moveto Tcx uy To add cs 10 mul 26 idiv add lineto
  Tt setlinewidth stroke
  grestore
} bd
/QT {
/Y22 exch store
/X22 exch store
/Y21 exch store
/X21 exch store
currentpoint
/Y21 load 2 mul add 3 div exch
/X21 load 2 mul add 3 div exch
/X21 load 2 mul /X22 load add 3 div
/Y21 load 2 mul /Y22 load add 3 div
/X22 load /Y22 load curveto
} bd
/SSPD {
dup length /d exch dict def
{
/v exch def
/k exch def
currentpagedevice k known {
/cpdv currentpagedevice k get def
v cpdv ne {
/upd false def
/nullv v type /nulltype eq def
/nullcpdv cpdv type /nulltype eq def
nullv nullcpdv or
{
/upd true def
} {
/sametype v type cpdv type eq def
sametype {
v type /arraytype eq {
/vlen v length def
/cpdvlen cpdv length def
vlen cpdvlen eq {
0 1 vlen 1 sub {
/i exch def
/obj v i get def
/cpdobj cpdv i get def
obj cpdobj ne {
/upd true def
exit
} if
} for
} {
/upd true def
} ifelse
} {
v type /dicttype eq {
v {
/dv exch def
/dk exch def
/cpddv cpdv dk get def
dv cpddv ne {
/upd true def
exit
} if
} forall
} {
/upd true def
} ifelse
} ifelse
} if
} ifelse
upd true eq {
d k v put
} if
} if
} if
} forall
d length 0 gt {
d setpagedevice
} if
} bd
%%EndResource
%%BeginResource: procset (Apache XML Graphics EPS ProcSet) 1.0 0
%%Version: 1.0 0
%%Copyright: (Copyright 2002-2003 The Apache Software Foundation. License terms: http://www.apache.org/licenses/LICENSE-2.0)
/BeginEPSF { %def
/b4_Inc_state save def         % Save state for cleanup
/dict_count countdictstack def % Count objects on dict stack
/op_count count 1 sub def      % Count objects on operand stack
userdict begin                 % Push userdict on dict stack
/showpage { } def              % Redefine showpage, { } = null proc
0 setgray 0 setlinecap         % Prepare graphics state
1 setlinewidth 0 setlinejoin
10 setmiterlimit [ ] 0 setdash newpath
/languagelevel where           % If level not equal to 1 then
{pop languagelevel             % set strokeadjust and
1 ne                           % overprint to their defaults.
{false setstrokeadjust false setoverprint
} if
} if
} bd
/EndEPSF { %def
count op_count sub {pop} repeat            % Clean up stacks
countdictstack dict_count sub {end} repeat
b4_Inc_state restore
} bd
%%EndResource
%FOPBeginFontDict
%%IncludeResource: font Courier-Bold
%%IncludeResource: font Helvetica
%%IncludeResource: font Courier-BoldOblique
%%IncludeResource: font Courier-Oblique
%%IncludeResource: font Times-Roman
%%IncludeResource: font Helvetica-BoldOblique
%%IncludeResource: font Helvetica-Bold
%%IncludeResource: font Helvetica-Oblique
%%IncludeResource: font Times-BoldItalic
%%IncludeResource: font Courier
%%IncludeResource: font Times-Italic
%%IncludeResource: font Times-Bold
%%IncludeResource: font Symbol
%%IncludeResource: font ZapfDingbats
%FOPEndFontDict
%%BeginResource: encoding WinAnsiEncoding
/WinAnsiEncoding [
/.notdef /.notdef /.notdef /.notdef /.notdef
/.notdef /.notdef /.notdef /.notdef /.notdef
/.notdef /.notdef /.notdef /.notdef /.notdef
/.notdef /.notdef /.notdef /.notdef /.notdef
/.notdef /.notdef /.notdef /.notdef /.notdef
/.notdef /.notdef /.notdef /.notdef /.notdef
/.notdef /.notdef /space /exclam /quotedbl
/numbersign /dollar /percent /ampersand /quotesingle
/parenleft /parenright /asterisk /plus /comma
/hyphen /period /slash /zero /one
/two /three /four /five /six
/seven /eight /nine /colon /semicolon
/less /equal /greater /question /at
/A /B /C /D /E
/F /G /H /I /J
/K /L /M /N /O
/P /Q /R /S /T
/U /V /W /X /Y
/Z /bracketleft /backslash /bracketright /asciicircum
/underscore /quoteleft /a /b /c
/d /e /f /g /h
/i /j /k /l /m
/n /o /p /q /r
/s /t /u /v /w
/x /y /z /braceleft /bar
/braceright /asciitilde /bullet /Euro /bullet
/quotesinglbase /florin /quotedblbase /ellipsis /dagger
/daggerdbl /circumflex /perthousand /Scaron /guilsinglleft
/OE /bullet /Zcaron /bullet /bullet
/quoteleft /quoteright /quotedblleft /quotedblright /bullet
/endash /emdash /asciitilde /trademark /scaron
/guilsinglright /oe /bullet /zcaron /Ydieresis
/space /exclamdown /cent /sterling /currency
/yen /brokenbar /section /dieresis /copyright
/ordfeminine /guillemotleft /logicalnot /sfthyphen /registered
/macron /degree /plusminus /twosuperior /threesuperior
/acute /mu /paragraph /middot /cedilla
/onesuperior /ordmasculine /guillemotright /onequarter /onehalf
/threequarters /questiondown /Agrave /Aacute /Acircumflex
/Atilde /Adieresis /Aring /AE /Ccedilla
/Egrave /Eacute /Ecircumflex /Edieresis /Igrave
/Iacute /Icircumflex /Idieresis /Eth /Ntilde
/Ograve /Oacute /Ocircumflex /Otilde /Odieresis
/multiply /Oslash /Ugrave /Uacute /Ucircumflex
/Udieresis /Yacute /Thorn /germandbls /agrave
/aacute /acircumflex /atilde /adieresis /aring
/ae /ccedilla /egrave /eacute /ecircumflex
/edieresis /igrave /iacute /icircumflex /idieresis
/eth /ntilde /ograve /oacute /ocircumflex
/otilde /odieresis /divide /oslash /ugrave
/uacute /ucircumflex /udieresis /yacute /thorn
/ydieresis
] def
%%EndResource
%FOPBeginFontReencode
/Courier-Bold findfont
dup length dict begin
  {1 index /FID ne {def} {pop pop} ifelse} forall
  /Encoding WinAnsiEncoding def
  currentdict
end
/Courier-Bold exch definefont pop
/Helvetica findfont
dup length dict begin
  {1 index /FID ne {def} {pop pop} ifelse} forall
  /Encoding WinAnsiEncoding def
  currentdict
end
/Helvetica exch definefont pop
/Courier-BoldOblique findfont
dup length dict begin
  {1 index /FID ne {def} {pop pop} ifelse} forall
  /Encoding WinAnsiEncoding def
  currentdict
end
/Courier-BoldOblique exch definefont pop
/Courier-Oblique findfont
dup length dict begin
  {1 index /FID ne {def} {pop pop} ifelse} forall
  /Encoding WinAnsiEncoding def
  currentdict
end
/Courier-Oblique exch definefont pop
/Times-Roman findfont
dup length dict begin
  {1 index /FID ne {def} {pop pop} ifelse} forall
  /Encoding WinAnsiEncoding def
  currentdict
end
/Times-Roman exch definefont pop
/Helvetica-BoldOblique findfont
dup length dict begin
  {1 index /FID ne {def} {pop pop} ifelse} forall
  /Encoding WinAnsiEncoding def
  currentdict
end
/Helvetica-BoldOblique exch definefont pop
/Helvetica-Bold findfont
dup length dict begin
  {1 index /FID ne {def} {pop pop} ifelse} forall
  /Encoding WinAnsiEncoding def
  currentdict
end
/Helvetica-Bold exch definefont pop
/Helvetica-Oblique findfont
dup length dict begin
  {1 index /FID ne {def} {pop pop} ifelse} forall
  /Encoding WinAnsiEncoding def
  currentdict
end
/Helvetica-Oblique exch definefont pop
/Times-BoldItalic findfont
dup length dict begin
  {1 index /FID ne {def} {pop pop} ifelse} forall
  /Encoding WinAnsiEncoding def
  currentdict
end
/Times-BoldItalic exch definefont pop
/Courier findfont
dup length dict begin
  {1 index /FID ne {def} {pop pop} ifelse} forall
  /Encoding WinAnsiEncoding def
  currentdict
end
/Courier exch definefont pop
/Times-Italic findfont
dup length dict begin
  {1 index /FID ne {def} {pop pop} ifelse} forall
  /Encoding WinAnsiEncoding def
  currentdict
end
/Times-Italic exch definefont pop
/Times-Bold findfont
dup length dict begin
  {1 index /FID ne {def} {pop pop} ifelse} forall
  /Encoding WinAnsiEncoding def
  currentdict
end
/Times-Bold exch definefont pop
%FOPEndFontReencode
%%EndProlog
%%Page: 1 1
%%PageBoundingBox: 0 0 576 432
%%BeginPageSetup
[1 0 0 -1 0 432] CT
%%EndPageSetup
GS
[0.75 0 0 0.75 0 0] CT
1 GC
N
0 0 768 576 re
f
GR
GS
[0.75 0 0 0.75 0 0] CT
1 GC
N
0 0 768 576 re
f
GR
GS
[0.75 0 0 0.75 0 0] CT
1 GC
N
100 513 M
695 513 L
695 43 L
100 43 L
cp
f
GR
GS
[0.75 0 0 0.75 0 0] CT
0.873 GC
1 LJ
0.667 LW
N
100 513 M
100 43 L
S
GR
GS
[0.75 0 0 0.75 0 0] CT
0.873 GC
1 LJ
0.667 LW
N
159.5 513 M
159.5 43 L
S
GR
GS
[0.75 0 0 0.75 0 0] CT
0.873 GC
1 LJ
0.667 LW
N
219 513 M
219 43 L
S
GR
GS
[0.75 0 0 0.75 0 0] CT
0.873 GC
1 LJ
0.667 LW
N
278.5 513 M
278.5 43 L
S
GR
GS
[0.75 0 0 0.75 0 0] CT
0.873 GC
1 LJ
0.667 LW
N
338 513 M
338 43 L
S
GR
GS
[0.75 0 0 0.75 0 0] CT
0.873 GC
1 LJ
0.667 LW
N
397.5 513 M
397.5 43 L
S
GR
GS
[0.75 0 0 0.75 0 0] CT
0.873 GC
1 LJ
0.667 LW
N
457 513 M
457 43 L
S
GR
GS
[0.75 0 0 0.75 0 0] CT
0.873 GC
1 LJ
0.667 LW
N
516.5 513 M
516.5 43 L
S
GR
GS
[0.75 0 0 0.75 0 0] CT
0.873 GC
1 LJ
0.667 LW
N
576 513 M
576 43 L
S
GR
GS
[0.75 0 0 0.75 0 0] CT
0.873 GC
1 LJ
0.667 LW
N
635.5 513 M
635.5 43 L
S
GR
GS
[0.75 0 0 0.75 0 0] CT
0.873 GC
1 LJ
0.667 LW
N
695 513 M
695 43 L
S
GR
GS
[0.75 0 0 0.75 0 0] CT
0.873 GC
1 LJ
0.667 LW
N
695 513 M
100 513 L
S
GR
GS
[0.75 0 0 0.75 0 0] CT
0.873 GC
1 LJ
0.667 LW
N
695 434.667 M
100 434.667 L
S
GR
GS
[0.75 0 0 0.75 0 0] CT
0.873 GC
1 LJ
0.667 LW
N
695 356.333 M
100 356.333 L
S
GR
GS
[0.75 0 0 0.75 0 0] CT
0.873 GC
1 LJ
0.667 LW
N
695 278 M
100 278 L
S
GR
GS
[0.75 0 0 0.75 0 0] CT
0.873 GC
1 LJ
0.667 LW
N
695 199.667 M
100 199.667 L
S
GR
GS
[0.75 0 0 0.75 0 0] CT
0.873 GC
1 LJ
0.667 LW
N
695 121.333 M
100 121.333 L
S
GR
GS
[0.75 0 0 0.75 0 0] CT
0.873 GC
1 LJ
0.667 LW
N
695 43 M
100 43 L
S
GR
GS
[0.75 0 0 0.75 0 0] CT
0.149 GC
2 setlinecap
1 LJ
0.667 LW
N
100 513 M
695 513 L
S
GR
GS
[0.75 0 0 0.75 0 0] CT
0.149 GC
2 setlinecap
1 LJ
0.667 LW
N
100 43 M
695 43 L
S
GR
GS
[0.75 0 0 0.75 0 0] CT
0.149 GC
2 setlinecap
1 LJ
0.667 LW
N
100 513 M
100 507.05 L
S
GR
GS
[0.75 0 0 0.75 0 0] CT
0.149 GC
2 setlinecap
1 LJ
0.667 LW
N
159.5 513 M
159.5 507.05 L
S
GR
GS
[0.75 0 0 0.75 0 0] CT
0.149 GC
2 setlinecap
1 LJ
0.667 LW
N
219 513 M
219 507.05 L
S
GR
GS
[0.75 0 0 0.75 0 0] CT
0.149 GC
2 setlinecap
1 LJ
0.667 LW
N
278.5 513 M
278.5 507.05 L
S
GR
GS
[0.75 0 0 0.75 0 0] CT
0.149 GC
2 setlinecap
1 LJ
0.667 LW
N
338 513 M
338 507.05 L
S
GR
GS
[0.75 0 0 0.75 0 0] CT
0.149 GC
2 setlinecap
1 LJ
0.667 LW
N
397.5 513 M
397.5 507.05 L
S
GR
GS
[0.75 0 0 0.75 0 0] CT
0.149 GC
2 setlinecap
1 LJ
0.667 LW
N
457 513 M
457 507.05 L
S
GR
GS
[0.75 0 0 0.75 0 0] CT
0.149 GC
2 setlinecap
1 LJ
0.667 LW
N
516.5 513 M
516.5 507.05 L
S
GR
GS
[0.75 0 0 0.75 0 0] CT
0.149 GC
2 setlinecap
1 LJ
0.667 LW
N
576 513 M
576 507.05 L
S
GR
GS
[0.75 0 0 0.75 0 0] CT
0.149 GC
2 setlinecap
1 LJ
0.667 LW
N
635.5 513 M
635.5 507.05 L
S
GR
GS
[0.75 0 0 0.75 0 0] CT
0.149 GC
2 setlinecap
1 LJ
0.667 LW
N
695 513 M
695 507.05 L
S
GR
GS
[0.75 0 0 0.75 0 0] CT
0.149 GC
2 setlinecap
1 LJ
0.667 LW
N
100 43 M
100 48.95 L
S
GR
GS
[0.75 0 0 0.75 0 0] CT
0.149 GC
2 setlinecap
1 LJ
0.667 LW
N
159.5 43 M
159.5 48.95 L
S
GR
GS
[0.75 0 0 0.75 0 0] CT
0.149 GC
2 setlinecap
1 LJ
0.667 LW
N
219 43 M
219 48.95 L
S
GR
GS
[0.75 0 0 0.75 0 0] CT
0.149 GC
2 setlinecap
1 LJ
0.667 LW
N
278.5 43 M
278.5 48.95 L
S
GR
GS
[0.75 0 0 0.75 0 0] CT
0.149 GC
2 setlinecap
1 LJ
0.667 LW
N
338 43 M
338 48.95 L
S
GR
GS
[0.75 0 0 0.75 0 0] CT
0.149 GC
2 setlinecap
1 LJ
0.667 LW
N
397.5 43 M
397.5 48.95 L
S
GR
GS
[0.75 0 0 0.75 0 0] CT
0.149 GC
2 setlinecap
1 LJ
0.667 LW
N
457 43 M
457 48.95 L
S
GR
GS
[0.75 0 0 0.75 0 0] CT
0.149 GC
2 setlinecap
1 LJ
0.667 LW
N
516.5 43 M
516.5 48.95 L
S
GR
GS
[0.75 0 0 0.75 0 0] CT
0.149 GC
2 setlinecap
1 LJ
0.667 LW
N
576 43 M
576 48.95 L
S
GR
GS
[0.75 0 0 0.75 0 0] CT
0.149 GC
2 setlinecap
1 LJ
0.667 LW
N
635.5 43 M
635.5 48.95 L
S
GR
GS
[0.75 0 0 0.75 0 0] CT
0.149 GC
2 setlinecap
1 LJ
0.667 LW
N
695 43 M
695 48.95 L
S
GR
GS
[0.75 0 0 0.75 75 388.74998] CT
0.149 GC
/Helvetica 13 F
GS
[1 0 0 1 0 0] CT
-4 14 moveto 
1 -1 scale
(0) t 
GR
GR
GS
[0.75 0 0 0.75 119.625 388.74998] CT
0.149 GC
/Helvetica 13 F
GS
[1 0 0 1 0 0] CT
-4 14 moveto 
1 -1 scale
(2) t 
GR
GR
GS
[0.75 0 0 0.75 164.25 388.74998] CT
0.149 GC
/Helvetica 13 F
GS
[1 0 0 1 0 0] CT
-4 14 moveto 
1 -1 scale
(4) t 
GR
GR
GS
[0.75 0 0 0.75 208.875 388.74998] CT
0.149 GC
/Helvetica 13 F
GS
[1 0 0 1 0 0] CT
-4 14 moveto 
1 -1 scale
(6) t 
GR
GR
GS
[0.75 0 0 0.75 253.5 388.74998] CT
0.149 GC
/Helvetica 13 F
GS
[1 0 0 1 0 0] CT
-4 14 moveto 
1 -1 scale
(8) t 
GR
GR
GS
[0.75 0 0 0.75 298.125 388.74998] CT
0.149 GC
/Helvetica 13 F
GS
[1 0 0 1 0 0] CT
-7.5 14 moveto 
1 -1 scale
(10) t 
GR
GR
GS
[0.75 0 0 0.75 342.75 388.74998] CT
0.149 GC
/Helvetica 13 F
GS
[1 0 0 1 0 0] CT
-7.5 14 moveto 
1 -1 scale
(12) t 
GR
GR
GS
[0.75 0 0 0.75 387.375 388.74998] CT
0.149 GC
/Helvetica 13 F
GS
[1 0 0 1 0 0] CT
-7.5 14 moveto 
1 -1 scale
(14) t 
GR
GR
GS
[0.75 0 0 0.75 432 388.74998] CT
0.149 GC
/Helvetica 13 F
GS
[1 0 0 1 0 0] CT
-7.5 14 moveto 
1 -1 scale
(16) t 
GR
GR
GS
[0.75 0 0 0.75 476.625 388.74998] CT
0.149 GC
/Helvetica 13 F
GS
[1 0 0 1 0 0] CT
-7.5 14 moveto 
1 -1 scale
(18) t 
GR
GR
GS
[0.75 0 0 0.75 521.25 388.74998] CT
0.149 GC
/Helvetica 13 F
GS
[1 0 0 1 0 0] CT
-7.5 14 moveto 
1 -1 scale
(20) t 
GR
GR
GS
[0.75 0 0 0.75 298.12521 402.50002] CT
0.149 GC
/Helvetica 15 F
GS
[1 0 0 1 0 0] CT
-4 16 moveto 
1 -1 scale
(x) t 
GR
GR
GS
[0.75 0 0 0.75 0 0] CT
0.149 GC
2 setlinecap
1 LJ
0.667 LW
N
100 513 M
100 43 L
S
GR
GS
[0.75 0 0 0.75 0 0] CT
0.149 GC
2 setlinecap
1 LJ
0.667 LW
N
695 513 M
695 43 L
S
GR
GS
[0.75 0 0 0.75 0 0] CT
0.149 GC
2 setlinecap
1 LJ
0.667 LW
N
100 513 M
105.95 513 L
S
GR
GS
[0.75 0 0 0.75 0 0] CT
0.149 GC
2 setlinecap
1 LJ
0.667 LW
N
100 434.667 M
105.95 434.667 L
S
GR
GS
[0.75 0 0 0.75 0 0] CT
0.149 GC
2 setlinecap
1 LJ
0.667 LW
N
100 356.333 M
105.95 356.333 L
S
GR
GS
[0.75 0 0 0.75 0 0] CT
0.149 GC
2 setlinecap
1 LJ
0.667 LW
N
100 278 M
105.95 278 L
S
GR
GS
[0.75 0 0 0.75 0 0] CT
0.149 GC
2 setlinecap
1 LJ
0.667 LW
N
100 199.667 M
105.95 199.667 L
S
GR
GS
[0.75 0 0 0.75 0 0] CT
0.149 GC
2 setlinecap
1 LJ
0.667 LW
N
100 121.333 M
105.95 121.333 L
S
GR
GS
[0.75 0 0 0.75 0 0] CT
0.149 GC
2 setlinecap
1 LJ
0.667 LW
N
100 43 M
105.95 43 L
S
GR
GS
[0.75 0 0 0.75 0 0] CT
0.149 GC
2 setlinecap
1 LJ
0.667 LW
N
695 513 M
689.05 513 L
S
GR
GS
[0.75 0 0 0.75 0 0] CT
0.149 GC
2 setlinecap
1 LJ
0.667 LW
N
695 434.667 M
689.05 434.667 L
S
GR
GS
[0.75 0 0 0.75 0 0] CT
0.149 GC
2 setlinecap
1 LJ
0.667 LW
N
695 356.333 M
689.05 356.333 L
S
GR
GS
[0.75 0 0 0.75 0 0] CT
0.149 GC
2 setlinecap
1 LJ
0.667 LW
N
695 278 M
689.05 278 L
S
GR
GS
[0.75 0 0 0.75 0 0] CT
0.149 GC
2 setlinecap
1 LJ
0.667 LW
N
695 199.667 M
689.05 199.667 L
S
GR
GS
[0.75 0 0 0.75 0 0] CT
0.149 GC
2 setlinecap
1 LJ
0.667 LW
N
695 121.333 M
689.05 121.333 L
S
GR
GS
[0.75 0 0 0.75 0 0] CT
0.149 GC
2 setlinecap
1 LJ
0.667 LW
N
695 43 M
689.05 43 L
S
GR
GS
[0.75 0 0 0.75 71 384.75] CT
0.149 GC
/Helvetica 13 F
GS
[1 0 0 1 0 0] CT
-8 5.5 moveto 
1 -1 scale
(0) t 
GR
GR
GS
[0.75 0 0 0.75 71 325.99999] CT
0.149 GC
/Helvetica 13 F
GS
[1 0 0 1 0 0] CT
-19 5.5 moveto 
1 -1 scale
(0.1) t 
GR
GR
GS
[0.75 0 0 0.75 71 267.25001] CT
0.149 GC
/Helvetica 13 F
GS
[1 0 0 1 0 0] CT
-19 5.5 moveto 
1 -1 scale
(0.2) t 
GR
GR
GS
[0.75 0 0 0.75 71 208.5] CT
0.149 GC
/Helvetica 13 F
GS
[1 0 0 1 0 0] CT
-19 5.5 moveto 
1 -1 scale
(0.3) t 
GR
GR
GS
[0.75 0 0 0.75 71 149.74999] CT
0.149 GC
/Helvetica 13 F
GS
[1 0 0 1 0 0] CT
-19 5.5 moveto 
1 -1 scale
(0.4) t 
GR
GR
GS
[0.75 0 0 0.75 71 91] CT
0.149 GC
/Helvetica 13 F
GS
[1 0 0 1 0 0] CT
-19 5.5 moveto 
1 -1 scale
(0.5) t 
GR
GR
GS
[0.75 0 0 0.75 71 32.24999] CT
0.149 GC
/Helvetica 13 F
GS
[1 0 0 1 0 0] CT
-19 5.5 moveto 
1 -1 scale
(0.6) t 
GR
GR
GS
[0 -0.75 0.75 0 53.75 208.49982] CT
0.149 GC
/Helvetica 15 F
GS
[1 0 0 1 0 0] CT
-137 -4 moveto 
1 -1 scale
(Exponentially distributed data \(mean = 2\)) t 
GR
GR
GS
[0.75 0 0 0.75 0 0] CT
1 LJ
1.6 LW
N
99 122 M
106 115 L
S
GR
GS
[0.75 0 0 0.75 0 0] CT
1 LJ
1.6 LW
N
99 115 M
106 122 L
S
GR
GS
[0.75 0 0 0.75 0 0] CT
1 LJ
1.6 LW
N
105 150 M
112 143 L
S
GR
GS
[0.75 0 0 0.75 0 0] CT
1 LJ
1.6 LW
N
105 143 M
112 150 L
S
GR
GS
[0.75 0 0 0.75 0 0] CT
1 LJ
1.6 LW
N
110 188 M
117 181 L
S
GR
GS
[0.75 0 0 0.75 0 0] CT
1 LJ
1.6 LW
N
110 181 M
117 188 L
S
GR
GS
[0.75 0 0 0.75 0 0] CT
1 LJ
1.6 LW
N
116 225 M
123 218 L
S
GR
GS
[0.75 0 0 0.75 0 0] CT
1 LJ
1.6 LW
N
116 218 M
123 225 L
S
GR
GS
[0.75 0 0 0.75 0 0] CT
1 LJ
1.6 LW
N
122 244 M
129 237 L
S
GR
GS
[0.75 0 0 0.75 0 0] CT
1 LJ
1.6 LW
N
122 237 M
129 244 L
S
GR
GS
[0.75 0 0 0.75 0 0] CT
1 LJ
1.6 LW
N
127 264 M
134 257 L
S
GR
GS
[0.75 0 0 0.75 0 0] CT
1 LJ
1.6 LW
N
127 257 M
134 264 L
S
GR
GS
[0.75 0 0 0.75 0 0] CT
1 LJ
1.6 LW
N
133 292 M
140 285 L
S
GR
GS
[0.75 0 0 0.75 0 0] CT
1 LJ
1.6 LW
N
133 285 M
140 292 L
S
GR
GS
[0.75 0 0 0.75 0 0] CT
1 LJ
1.6 LW
N
138 312 M
145 305 L
S
GR
GS
[0.75 0 0 0.75 0 0] CT
1 LJ
1.6 LW
N
138 305 M
145 312 L
S
GR
GS
[0.75 0 0 0.75 0 0] CT
1 LJ
1.6 LW
N
144 328 M
151 321 L
S
GR
GS
[0.75 0 0 0.75 0 0] CT
1 LJ
1.6 LW
N
144 321 M
151 328 L
S
GR
GS
[0.75 0 0 0.75 0 0] CT
1 LJ
1.6 LW
N
149 335 M
156 328 L
S
GR
GS
[0.75 0 0 0.75 0 0] CT
1 LJ
1.6 LW
N
149 328 M
156 335 L
S
GR
GS
[0.75 0 0 0.75 0 0] CT
1 LJ
1.6 LW
N
155 364 M
162 357 L
S
GR
GS
[0.75 0 0 0.75 0 0] CT
1 LJ
1.6 LW
N
155 357 M
162 364 L
S
GR
GS
[0.75 0 0 0.75 0 0] CT
1 LJ
1.6 LW
N
161 380 M
168 373 L
S
GR
GS
[0.75 0 0 0.75 0 0] CT
1 LJ
1.6 LW
N
161 373 M
168 380 L
S
GR
GS
[0.75 0 0 0.75 0 0] CT
1 LJ
1.6 LW
N
166 394 M
173 387 L
S
GR
GS
[0.75 0 0 0.75 0 0] CT
1 LJ
1.6 LW
N
166 387 M
173 394 L
S
GR
GS
[0.75 0 0 0.75 0 0] CT
1 LJ
1.6 LW
N
172 406 M
179 399 L
S
GR
GS
[0.75 0 0 0.75 0 0] CT
1 LJ
1.6 LW
N
172 399 M
179 406 L
S
GR
GS
[0.75 0 0 0.75 0 0] CT
1 LJ
1.6 LW
N
177 419 M
184 412 L
S
GR
GS
[0.75 0 0 0.75 0 0] CT
1 LJ
1.6 LW
N
177 412 M
184 419 L
S
GR
GS
[0.75 0 0 0.75 0 0] CT
1 LJ
1.6 LW
N
183 431 M
190 424 L
S
GR
GS
[0.75 0 0 0.75 0 0] CT
1 LJ
1.6 LW
N
183 424 M
190 431 L
S
GR
GS
[0.75 0 0 0.75 0 0] CT
1 LJ
1.6 LW
N
189 415 M
196 408 L
S
GR
GS
[0.75 0 0 0.75 0 0] CT
1 LJ
1.6 LW
N
189 408 M
196 415 L
S
GR
GS
[0.75 0 0 0.75 0 0] CT
1 LJ
1.6 LW
N
194 434 M
201 427 L
S
GR
GS
[0.75 0 0 0.75 0 0] CT
1 LJ
1.6 LW
N
194 427 M
201 434 L
S
GR
GS
[0.75 0 0 0.75 0 0] CT
1 LJ
1.6 LW
N
200 442 M
207 435 L
S
GR
GS
[0.75 0 0 0.75 0 0] CT
1 LJ
1.6 LW
N
200 435 M
207 442 L
S
GR
GS
[0.75 0 0 0.75 0 0] CT
1 LJ
1.6 LW
N
205 458 M
212 451 L
S
GR
GS
[0.75 0 0 0.75 0 0] CT
1 LJ
1.6 LW
N
205 451 M
212 458 L
S
GR
GS
[0.75 0 0 0.75 0 0] CT
1 LJ
1.6 LW
N
211 453 M
218 446 L
S
GR
GS
[0.75 0 0 0.75 0 0] CT
1 LJ
1.6 LW
N
211 446 M
218 453 L
S
GR
GS
[0.75 0 0 0.75 0 0] CT
1 LJ
1.6 LW
N
216 465 M
223 458 L
S
GR
GS
[0.75 0 0 0.75 0 0] CT
1 LJ
1.6 LW
N
216 458 M
223 465 L
S
GR
GS
[0.75 0 0 0.75 0 0] CT
1 LJ
1.6 LW
N
222 467 M
229 460 L
S
GR
GS
[0.75 0 0 0.75 0 0] CT
1 LJ
1.6 LW
N
222 460 M
229 467 L
S
GR
GS
[0.75 0 0 0.75 0 0] CT
1 LJ
1.6 LW
N
228 476 M
235 469 L
S
GR
GS
[0.75 0 0 0.75 0 0] CT
1 LJ
1.6 LW
N
228 469 M
235 476 L
S
GR
GS
[0.75 0 0 0.75 0 0] CT
1 LJ
1.6 LW
N
233 483 M
240 476 L
S
GR
GS
[0.75 0 0 0.75 0 0] CT
1 LJ
1.6 LW
N
233 476 M
240 483 L
S
GR
GS
[0.75 0 0 0.75 0 0] CT
1 LJ
1.6 LW
N
239 475 M
246 468 L
S
GR
GS
[0.75 0 0 0.75 0 0] CT
1 LJ
1.6 LW
N
239 468 M
246 475 L
S
GR
GS
[0.75 0 0 0.75 0 0] CT
1 LJ
1.6 LW
N
244 480 M
251 473 L
S
GR
GS
[0.75 0 0 0.75 0 0] CT
1 LJ
1.6 LW
N
244 473 M
251 480 L
S
GR
GS
[0.75 0 0 0.75 0 0] CT
1 LJ
1.6 LW
N
250 488 M
257 481 L
S
GR
GS
[0.75 0 0 0.75 0 0] CT
1 LJ
1.6 LW
N
250 481 M
257 488 L
S
GR
GS
[0.75 0 0 0.75 0 0] CT
1 LJ
1.6 LW
N
255 491 M
262 484 L
S
GR
GS
[0.75 0 0 0.75 0 0] CT
1 LJ
1.6 LW
N
255 484 M
262 491 L
S
GR
GS
[0.75 0 0 0.75 0 0] CT
1 LJ
1.6 LW
N
261 493 M
268 486 L
S
GR
GS
[0.75 0 0 0.75 0 0] CT
1 LJ
1.6 LW
N
261 486 M
268 493 L
S
GR
GS
[0.75 0 0 0.75 0 0] CT
1 LJ
1.6 LW
N
267 491 M
274 484 L
S
GR
GS
[0.75 0 0 0.75 0 0] CT
1 LJ
1.6 LW
N
267 484 M
274 491 L
S
GR
GS
[0.75 0 0 0.75 0 0] CT
1 LJ
1.6 LW
N
272 494 M
279 487 L
S
GR
GS
[0.75 0 0 0.75 0 0] CT
1 LJ
1.6 LW
N
272 487 M
279 494 L
S
GR
GS
[0.75 0 0 0.75 0 0] CT
1 LJ
1.6 LW
N
278 502 M
285 495 L
S
GR
GS
[0.75 0 0 0.75 0 0] CT
1 LJ
1.6 LW
N
278 495 M
285 502 L
S
GR
GS
[0.75 0 0 0.75 0 0] CT
1 LJ
1.6 LW
N
283 498 M
290 491 L
S
GR
GS
[0.75 0 0 0.75 0 0] CT
1 LJ
1.6 LW
N
283 491 M
290 498 L
S
GR
GS
[0.75 0 0 0.75 0 0] CT
1 LJ
1.6 LW
N
289 493 M
296 486 L
S
GR
GS
[0.75 0 0 0.75 0 0] CT
1 LJ
1.6 LW
N
289 486 M
296 493 L
S
GR
GS
[0.75 0 0 0.75 0 0] CT
1 LJ
1.6 LW
N
295 508 M
302 501 L
S
GR
GS
[0.75 0 0 0.75 0 0] CT
1 LJ
1.6 LW
N
295 501 M
302 508 L
S
GR
GS
[0.75 0 0 0.75 0 0] CT
1 LJ
1.6 LW
N
300 506 M
307 499 L
S
GR
GS
[0.75 0 0 0.75 0 0] CT
1 LJ
1.6 LW
N
300 499 M
307 506 L
S
GR
GS
[0.75 0 0 0.75 0 0] CT
1 LJ
1.6 LW
N
306 506 M
313 499 L
S
GR
GS
[0.75 0 0 0.75 0 0] CT
1 LJ
1.6 LW
N
306 499 M
313 506 L
S
GR
GS
[0.75 0 0 0.75 0 0] CT
1 LJ
1.6 LW
N
311 503 M
318 496 L
S
GR
GS
[0.75 0 0 0.75 0 0] CT
1 LJ
1.6 LW
N
311 496 M
318 503 L
S
GR
GS
[0.75 0 0 0.75 0 0] CT
1 LJ
1.6 LW
N
317 505 M
324 498 L
S
GR
GS
[0.75 0 0 0.75 0 0] CT
1 LJ
1.6 LW
N
317 498 M
324 505 L
S
GR
GS
[0.75 0 0 0.75 0 0] CT
1 LJ
1.6 LW
N
322 511 M
329 504 L
S
GR
GS
[0.75 0 0 0.75 0 0] CT
1 LJ
1.6 LW
N
322 504 M
329 511 L
S
GR
GS
[0.75 0 0 0.75 0 0] CT
1 LJ
1.6 LW
N
328 509 M
335 502 L
S
GR
GS
[0.75 0 0 0.75 0 0] CT
1 LJ
1.6 LW
N
328 502 M
335 509 L
S
GR
GS
[0.75 0 0 0.75 0 0] CT
1 LJ
1.6 LW
N
334 509 M
341 502 L
S
GR
GS
[0.75 0 0 0.75 0 0] CT
1 LJ
1.6 LW
N
334 502 M
341 509 L
S
GR
GS
[0.75 0 0 0.75 0 0] CT
1 LJ
1.6 LW
N
339 512 M
346 505 L
S
GR
GS
[0.75 0 0 0.75 0 0] CT
1 LJ
1.6 LW
N
339 505 M
346 512 L
S
GR
GS
[0.75 0 0 0.75 0 0] CT
1 LJ
1.6 LW
N
345 510 M
352 503 L
S
GR
GS
[0.75 0 0 0.75 0 0] CT
1 LJ
1.6 LW
N
345 503 M
352 510 L
S
GR
GS
[0.75 0 0 0.75 0 0] CT
1 LJ
1.6 LW
N
350 514 M
357 507 L
S
GR
GS
[0.75 0 0 0.75 0 0] CT
1 LJ
1.6 LW
N
350 507 M
357 514 L
S
GR
GS
[0.75 0 0 0.75 0 0] CT
1 LJ
1.6 LW
N
356 512 M
363 505 L
S
GR
GS
[0.75 0 0 0.75 0 0] CT
1 LJ
1.6 LW
N
356 505 M
363 512 L
S
GR
GS
[0.75 0 0 0.75 0 0] CT
1 LJ
1.6 LW
N
361 511 M
368 504 L
S
GR
GS
[0.75 0 0 0.75 0 0] CT
1 LJ
1.6 LW
N
361 504 M
368 511 L
S
GR
GS
[0.75 0 0 0.75 0 0] CT
1 LJ
1.6 LW
N
367 514 M
374 507 L
S
GR
GS
[0.75 0 0 0.75 0 0] CT
1 LJ
1.6 LW
N
367 507 M
374 514 L
S
GR
GS
[0.75 0 0 0.75 0 0] CT
1 LJ
1.6 LW
N
373 510 M
380 503 L
S
GR
GS
[0.75 0 0 0.75 0 0] CT
1 LJ
1.6 LW
N
373 503 M
380 510 L
S
GR
GS
[0.75 0 0 0.75 0 0] CT
1 LJ
1.6 LW
N
378 514 M
385 507 L
S
GR
GS
[0.75 0 0 0.75 0 0] CT
1 LJ
1.6 LW
N
378 507 M
385 514 L
S
GR
GS
[0.75 0 0 0.75 0 0] CT
1 LJ
1.6 LW
N
384 513 M
391 506 L
S
GR
GS
[0.75 0 0 0.75 0 0] CT
1 LJ
1.6 LW
N
384 506 M
391 513 L
S
GR
GS
[0.75 0 0 0.75 0 0] CT
1 LJ
1.6 LW
N
389 513 M
396 506 L
S
GR
GS
[0.75 0 0 0.75 0 0] CT
1 LJ
1.6 LW
N
389 506 M
396 513 L
S
GR
GS
[0.75 0 0 0.75 0 0] CT
1 LJ
1.6 LW
N
395 514 M
402 507 L
S
GR
GS
[0.75 0 0 0.75 0 0] CT
1 LJ
1.6 LW
N
395 507 M
402 514 L
S
GR
GS
[0.75 0 0 0.75 0 0] CT
1 LJ
1.6 LW
N
401 514 M
408 507 L
S
GR
GS
[0.75 0 0 0.75 0 0] CT
1 LJ
1.6 LW
N
401 507 M
408 514 L
S
GR
GS
[0.75 0 0 0.75 0 0] CT
1 LJ
1.6 LW
N
406 513 M
413 506 L
S
GR
GS
[0.75 0 0 0.75 0 0] CT
1 LJ
1.6 LW
N
406 506 M
413 513 L
S
GR
GS
[0.75 0 0 0.75 0 0] CT
1 LJ
1.6 LW
N
412 516 M
419 509 L
S
GR
GS
[0.75 0 0 0.75 0 0] CT
1 LJ
1.6 LW
N
412 509 M
419 516 L
S
GR
GS
[0.75 0 0 0.75 0 0] CT
1 LJ
1.6 LW
N
417 515 M
424 508 L
S
GR
GS
[0.75 0 0 0.75 0 0] CT
1 LJ
1.6 LW
N
417 508 M
424 515 L
S
GR
GS
[0.75 0 0 0.75 0 0] CT
1 LJ
1.6 LW
N
423 515 M
430 508 L
S
GR
GS
[0.75 0 0 0.75 0 0] CT
1 LJ
1.6 LW
N
423 508 M
430 515 L
S
GR
GS
[0.75 0 0 0.75 0 0] CT
1 LJ
1.6 LW
N
428 515 M
435 508 L
S
GR
GS
[0.75 0 0 0.75 0 0] CT
1 LJ
1.6 LW
N
428 508 M
435 515 L
S
GR
GS
[0.75 0 0 0.75 0 0] CT
1 LJ
1.6 LW
N
434 515 M
441 508 L
S
GR
GS
[0.75 0 0 0.75 0 0] CT
1 LJ
1.6 LW
N
434 508 M
441 515 L
S
GR
GS
[0.75 0 0 0.75 0 0] CT
1 LJ
1.6 LW
N
440 516 M
447 509 L
S
GR
GS
[0.75 0 0 0.75 0 0] CT
1 LJ
1.6 LW
N
440 509 M
447 516 L
S
GR
GS
[0.75 0 0 0.75 0 0] CT
1 LJ
1.6 LW
N
445 515 M
452 508 L
S
GR
GS
[0.75 0 0 0.75 0 0] CT
1 LJ
1.6 LW
N
445 508 M
452 515 L
S
GR
GS
[0.75 0 0 0.75 0 0] CT
1 LJ
1.6 LW
N
451 516 M
458 509 L
S
GR
GS
[0.75 0 0 0.75 0 0] CT
1 LJ
1.6 LW
N
451 509 M
458 516 L
S
GR
GS
[0.75 0 0 0.75 0 0] CT
1 LJ
1.6 LW
N
456 515 M
463 508 L
S
GR
GS
[0.75 0 0 0.75 0 0] CT
1 LJ
1.6 LW
N
456 508 M
463 515 L
S
GR
GS
[0.75 0 0 0.75 0 0] CT
1 LJ
1.6 LW
N
462 515 M
469 508 L
S
GR
GS
[0.75 0 0 0.75 0 0] CT
1 LJ
1.6 LW
N
462 508 M
469 515 L
S
GR
GS
[0.75 0 0 0.75 0 0] CT
1 LJ
1.6 LW
N
467 515 M
474 508 L
S
GR
GS
[0.75 0 0 0.75 0 0] CT
1 LJ
1.6 LW
N
467 508 M
474 515 L
S
GR
GS
[0.75 0 0 0.75 0 0] CT
1 LJ
1.6 LW
N
473 516 M
480 509 L
S
GR
GS
[0.75 0 0 0.75 0 0] CT
1 LJ
1.6 LW
N
473 509 M
480 516 L
S
GR
GS
[0.75 0 0 0.75 0 0] CT
1 LJ
1.6 LW
N
479 516 M
486 509 L
S
GR
GS
[0.75 0 0 0.75 0 0] CT
1 LJ
1.6 LW
N
479 509 M
486 516 L
S
GR
GS
[0.75 0 0 0.75 0 0] CT
1 LJ
1.6 LW
N
484 516 M
491 509 L
S
GR
GS
[0.75 0 0 0.75 0 0] CT
1 LJ
1.6 LW
N
484 509 M
491 516 L
S
GR
GS
[0.75 0 0 0.75 0 0] CT
1 LJ
1.6 LW
N
490 516 M
497 509 L
S
GR
GS
[0.75 0 0 0.75 0 0] CT
1 LJ
1.6 LW
N
490 509 M
497 516 L
S
GR
GS
[0.75 0 0 0.75 0 0] CT
1 LJ
1.6 LW
N
495 516 M
502 509 L
S
GR
GS
[0.75 0 0 0.75 0 0] CT
1 LJ
1.6 LW
N
495 509 M
502 516 L
S
GR
GS
[0.75 0 0 0.75 0 0] CT
1 LJ
1.6 LW
N
501 516 M
508 509 L
S
GR
GS
[0.75 0 0 0.75 0 0] CT
1 LJ
1.6 LW
N
501 509 M
508 516 L
S
GR
GS
[0.75 0 0 0.75 0 0] CT
1 LJ
1.6 LW
N
507 516 M
514 509 L
S
GR
GS
[0.75 0 0 0.75 0 0] CT
1 LJ
1.6 LW
N
507 509 M
514 516 L
S
GR
GS
[0.75 0 0 0.75 0 0] CT
1 LJ
1.6 LW
N
512 516 M
519 509 L
S
GR
GS
[0.75 0 0 0.75 0 0] CT
1 LJ
1.6 LW
N
512 509 M
519 516 L
S
GR
GS
[0.75 0 0 0.75 0 0] CT
1 LJ
1.6 LW
N
518 515 M
525 508 L
S
GR
GS
[0.75 0 0 0.75 0 0] CT
1 LJ
1.6 LW
N
518 508 M
525 515 L
S
GR
GS
[0.75 0 0 0.75 0 0] CT
1 LJ
1.6 LW
N
523 516 M
530 509 L
S
GR
GS
[0.75 0 0 0.75 0 0] CT
1 LJ
1.6 LW
N
523 509 M
530 516 L
S
GR
GS
[0.75 0 0 0.75 0 0] CT
1 LJ
1.6 LW
N
529 516 M
536 509 L
S
GR
GS
[0.75 0 0 0.75 0 0] CT
1 LJ
1.6 LW
N
529 509 M
536 516 L
S
GR
GS
[0.75 0 0 0.75 0 0] CT
1 LJ
1.6 LW
N
534 516 M
541 509 L
S
GR
GS
[0.75 0 0 0.75 0 0] CT
1 LJ
1.6 LW
N
534 509 M
541 516 L
S
GR
GS
[0.75 0 0 0.75 0 0] CT
1 LJ
1.6 LW
N
540 516 M
547 509 L
S
GR
GS
[0.75 0 0 0.75 0 0] CT
1 LJ
1.6 LW
N
540 509 M
547 516 L
S
GR
GS
[0.75 0 0 0.75 0 0] CT
1 LJ
1.6 LW
N
546 516 M
553 509 L
S
GR
GS
[0.75 0 0 0.75 0 0] CT
1 LJ
1.6 LW
N
546 509 M
553 516 L
S
GR
GS
[0.75 0 0 0.75 0 0] CT
1 LJ
1.6 LW
N
551 516 M
558 509 L
S
GR
GS
[0.75 0 0 0.75 0 0] CT
1 LJ
1.6 LW
N
551 509 M
558 516 L
S
GR
GS
[0.75 0 0 0.75 0 0] CT
1 LJ
1.6 LW
N
557 516 M
564 509 L
S
GR
GS
[0.75 0 0 0.75 0 0] CT
1 LJ
1.6 LW
N
557 509 M
564 516 L
S
GR
GS
[0.75 0 0 0.75 0 0] CT
1 LJ
1.6 LW
N
562 516 M
569 509 L
S
GR
GS
[0.75 0 0 0.75 0 0] CT
1 LJ
1.6 LW
N
562 509 M
569 516 L
S
GR
GS
[0.75 0 0 0.75 0 0] CT
1 LJ
1.6 LW
N
568 516 M
575 509 L
S
GR
GS
[0.75 0 0 0.75 0 0] CT
1 LJ
1.6 LW
N
568 509 M
575 516 L
S
GR
GS
[0.75 0 0 0.75 0 0] CT
1 LJ
1.6 LW
N
573 516 M
580 509 L
S
GR
GS
[0.75 0 0 0.75 0 0] CT
1 LJ
1.6 LW
N
573 509 M
580 516 L
S
GR
GS
[0.75 0 0 0.75 0 0] CT
1 LJ
1.6 LW
N
579 516 M
586 509 L
S
GR
GS
[0.75 0 0 0.75 0 0] CT
1 LJ
1.6 LW
N
579 509 M
586 516 L
S
GR
GS
[0.75 0 0 0.75 0 0] CT
1 LJ
1.6 LW
N
585 516 M
592 509 L
S
GR
GS
[0.75 0 0 0.75 0 0] CT
1 LJ
1.6 LW
N
585 509 M
592 516 L
S
GR
GS
[0.75 0 0 0.75 0 0] CT
1 LJ
1.6 LW
N
590 516 M
597 509 L
S
GR
GS
[0.75 0 0 0.75 0 0] CT
1 LJ
1.6 LW
N
590 509 M
597 516 L
S
GR
GS
[0.75 0 0 0.75 0 0] CT
1 LJ
1.6 LW
N
596 516 M
603 509 L
S
GR
GS
[0.75 0 0 0.75 0 0] CT
1 LJ
1.6 LW
N
596 509 M
603 516 L
S
GR
GS
[0.75 0 0 0.75 0 0] CT
1 LJ
1.6 LW
N
601 516 M
608 509 L
S
GR
GS
[0.75 0 0 0.75 0 0] CT
1 LJ
1.6 LW
N
601 509 M
608 516 L
S
GR
GS
[0.75 0 0 0.75 0 0] CT
1 LJ
1.6 LW
N
607 516 M
614 509 L
S
GR
GS
[0.75 0 0 0.75 0 0] CT
1 LJ
1.6 LW
N
607 509 M
614 516 L
S
GR
GS
[0.75 0 0 0.75 0 0] CT
1 LJ
1.6 LW
N
613 516 M
620 509 L
S
GR
GS
[0.75 0 0 0.75 0 0] CT
1 LJ
1.6 LW
N
613 509 M
620 516 L
S
GR
GS
[0.75 0 0 0.75 0 0] CT
1 LJ
1.6 LW
N
618 516 M
625 509 L
S
GR
GS
[0.75 0 0 0.75 0 0] CT
1 LJ
1.6 LW
N
618 509 M
625 516 L
S
GR
GS
[0.75 0 0 0.75 0 0] CT
1 LJ
1.6 LW
N
624 516 M
631 509 L
S
GR
GS
[0.75 0 0 0.75 0 0] CT
1 LJ
1.6 LW
N
624 509 M
631 516 L
S
GR
GS
[0.75 0 0 0.75 0 0] CT
1 LJ
1.6 LW
N
629 516 M
636 509 L
S
GR
GS
[0.75 0 0 0.75 0 0] CT
1 LJ
1.6 LW
N
629 509 M
636 516 L
S
GR
GS
[0.75 0 0 0.75 0 0] CT
1 LJ
1.6 LW
N
635 516 M
642 509 L
S
GR
GS
[0.75 0 0 0.75 0 0] CT
1 LJ
1.6 LW
N
635 509 M
642 516 L
S
GR
GS
[0.75 0 0 0.75 0 0] CT
1 LJ
1.6 LW
N
640 516 M
647 509 L
S
GR
GS
[0.75 0 0 0.75 0 0] CT
1 LJ
1.6 LW
N
640 509 M
647 516 L
S
GR
GS
[0.75 0 0 0.75 0 0] CT
1 LJ
1.6 LW
N
646 516 M
653 509 L
S
GR
GS
[0.75 0 0 0.75 0 0] CT
1 LJ
1.6 LW
N
646 509 M
653 516 L
S
GR
GS
[0.75 0 0 0.75 0 0] CT
1 LJ
1.6 LW
N
652 516 M
659 509 L
S
GR
GS
[0.75 0 0 0.75 0 0] CT
1 LJ
1.6 LW
N
652 509 M
659 516 L
S
GR
%%Trailer
%%Pages: 1
%%EOF
