%!PS-Adobe-3.0 EPSF-3.0
%%Creator: (MATLAB, The Mathworks, Inc. Version 8.6.0.267246 \(R2015b\). Operating System: Mac OS X)
%%Title: ./exp_data_6.eps
%%CreationDate: 2016-01-07T17:45:41
%%Pages: (atend)
%%BoundingBox:    36    20   527   406
%%LanguageLevel: 3
%%EndComments
%%BeginProlog
%%BeginResource: procset (Apache XML Graphics Std ProcSet) 1.2 0
%%Version: 1.2 0
%%Copyright: (Copyright 2001-2003,2010 The Apache Software Foundation. License terms: http://www.apache.org/licenses/LICENSE-2.0)
/bd{bind def}bind def
/ld{load def}bd
/GR/grestore ld
/M/moveto ld
/LJ/setlinejoin ld
/C/curveto ld
/f/fill ld
/LW/setlinewidth ld
/GC/setgray ld
/t/show ld
/N/newpath ld
/CT/concat ld
/cp/closepath ld
/S/stroke ld
/L/lineto ld
/CC/setcmykcolor ld
/A/ashow ld
/GS/gsave ld
/RC/setrgbcolor ld
/RM/rmoveto ld
/ML/setmiterlimit ld
/re {4 2 roll M
1 index 0 rlineto
0 exch rlineto
neg 0 rlineto
cp } bd
/_ctm matrix def
/_tm matrix def
/BT { _ctm currentmatrix pop matrix _tm copy pop 0 0 moveto } bd
/ET { _ctm setmatrix } bd
/iTm { _ctm setmatrix _tm concat } bd
/Tm { _tm astore pop iTm 0 0 moveto } bd
/ux 0.0 def
/uy 0.0 def
/F {
  /Tp exch def
  /Tf exch def
  Tf findfont Tp scalefont setfont
  /cf Tf def  /cs Tp def
} bd
/ULS {currentpoint /uy exch def /ux exch def} bd
/ULE {
  /Tcx currentpoint pop def
  gsave
  newpath
  cf findfont cs scalefont dup
  /FontMatrix get 0 get /Ts exch def /FontInfo get dup
  /UnderlinePosition get Ts mul /To exch def
  /UnderlineThickness get Ts mul /Tt exch def
  ux uy To add moveto  Tcx uy To add lineto
  Tt setlinewidth stroke
  grestore
} bd
/OLE {
  /Tcx currentpoint pop def
  gsave
  newpath
  cf findfont cs scalefont dup
  /FontMatrix get 0 get /Ts exch def /FontInfo get dup
  /UnderlinePosition get Ts mul /To exch def
  /UnderlineThickness get Ts mul /Tt exch def
  ux uy To add cs add moveto Tcx uy To add cs add lineto
  Tt setlinewidth stroke
  grestore
} bd
/SOE {
  /Tcx currentpoint pop def
  gsave
  newpath
  cf findfont cs scalefont dup
  /FontMatrix get 0 get /Ts exch def /FontInfo get dup
  /UnderlinePosition get Ts mul /To exch def
  /UnderlineThickness get Ts mul /Tt exch def
  ux uy To add cs 10 mul 26 idiv add moveto Tcx uy To add cs 10 mul 26 idiv add lineto
  Tt setlinewidth stroke
  grestore
} bd
/QT {
/Y22 exch store
/X22 exch store
/Y21 exch store
/X21 exch store
currentpoint
/Y21 load 2 mul add 3 div exch
/X21 load 2 mul add 3 div exch
/X21 load 2 mul /X22 load add 3 div
/Y21 load 2 mul /Y22 load add 3 div
/X22 load /Y22 load curveto
} bd
/SSPD {
dup length /d exch dict def
{
/v exch def
/k exch def
currentpagedevice k known {
/cpdv currentpagedevice k get def
v cpdv ne {
/upd false def
/nullv v type /nulltype eq def
/nullcpdv cpdv type /nulltype eq def
nullv nullcpdv or
{
/upd true def
} {
/sametype v type cpdv type eq def
sametype {
v type /arraytype eq {
/vlen v length def
/cpdvlen cpdv length def
vlen cpdvlen eq {
0 1 vlen 1 sub {
/i exch def
/obj v i get def
/cpdobj cpdv i get def
obj cpdobj ne {
/upd true def
exit
} if
} for
} {
/upd true def
} ifelse
} {
v type /dicttype eq {
v {
/dv exch def
/dk exch def
/cpddv cpdv dk get def
dv cpddv ne {
/upd true def
exit
} if
} forall
} {
/upd true def
} ifelse
} ifelse
} if
} ifelse
upd true eq {
d k v put
} if
} if
} if
} forall
d length 0 gt {
d setpagedevice
} if
} bd
%%EndResource
%%BeginResource: procset (Apache XML Graphics EPS ProcSet) 1.0 0
%%Version: 1.0 0
%%Copyright: (Copyright 2002-2003 The Apache Software Foundation. License terms: http://www.apache.org/licenses/LICENSE-2.0)
/BeginEPSF { %def
/b4_Inc_state save def         % Save state for cleanup
/dict_count countdictstack def % Count objects on dict stack
/op_count count 1 sub def      % Count objects on operand stack
userdict begin                 % Push userdict on dict stack
/showpage { } def              % Redefine showpage, { } = null proc
0 setgray 0 setlinecap         % Prepare graphics state
1 setlinewidth 0 setlinejoin
10 setmiterlimit [ ] 0 setdash newpath
/languagelevel where           % If level not equal to 1 then
{pop languagelevel             % set strokeadjust and
1 ne                           % overprint to their defaults.
{false setstrokeadjust false setoverprint
} if
} if
} bd
/EndEPSF { %def
count op_count sub {pop} repeat            % Clean up stacks
countdictstack dict_count sub {end} repeat
b4_Inc_state restore
} bd
%%EndResource
%FOPBeginFontDict
%%IncludeResource: font Courier-Bold
%%IncludeResource: font Helvetica
%%IncludeResource: font Courier-BoldOblique
%%IncludeResource: font Courier-Oblique
%%IncludeResource: font Times-Roman
%%IncludeResource: font Helvetica-BoldOblique
%%IncludeResource: font Helvetica-Bold
%%IncludeResource: font Helvetica-Oblique
%%IncludeResource: font Times-BoldItalic
%%IncludeResource: font Courier
%%IncludeResource: font Times-Italic
%%IncludeResource: font Times-Bold
%%IncludeResource: font Symbol
%%IncludeResource: font ZapfDingbats
%FOPEndFontDict
%%BeginResource: encoding WinAnsiEncoding
/WinAnsiEncoding [
/.notdef /.notdef /.notdef /.notdef /.notdef
/.notdef /.notdef /.notdef /.notdef /.notdef
/.notdef /.notdef /.notdef /.notdef /.notdef
/.notdef /.notdef /.notdef /.notdef /.notdef
/.notdef /.notdef /.notdef /.notdef /.notdef
/.notdef /.notdef /.notdef /.notdef /.notdef
/.notdef /.notdef /space /exclam /quotedbl
/numbersign /dollar /percent /ampersand /quotesingle
/parenleft /parenright /asterisk /plus /comma
/hyphen /period /slash /zero /one
/two /three /four /five /six
/seven /eight /nine /colon /semicolon
/less /equal /greater /question /at
/A /B /C /D /E
/F /G /H /I /J
/K /L /M /N /O
/P /Q /R /S /T
/U /V /W /X /Y
/Z /bracketleft /backslash /bracketright /asciicircum
/underscore /quoteleft /a /b /c
/d /e /f /g /h
/i /j /k /l /m
/n /o /p /q /r
/s /t /u /v /w
/x /y /z /braceleft /bar
/braceright /asciitilde /bullet /Euro /bullet
/quotesinglbase /florin /quotedblbase /ellipsis /dagger
/daggerdbl /circumflex /perthousand /Scaron /guilsinglleft
/OE /bullet /Zcaron /bullet /bullet
/quoteleft /quoteright /quotedblleft /quotedblright /bullet
/endash /emdash /asciitilde /trademark /scaron
/guilsinglright /oe /bullet /zcaron /Ydieresis
/space /exclamdown /cent /sterling /currency
/yen /brokenbar /section /dieresis /copyright
/ordfeminine /guillemotleft /logicalnot /sfthyphen /registered
/macron /degree /plusminus /twosuperior /threesuperior
/acute /mu /paragraph /middot /cedilla
/onesuperior /ordmasculine /guillemotright /onequarter /onehalf
/threequarters /questiondown /Agrave /Aacute /Acircumflex
/Atilde /Adieresis /Aring /AE /Ccedilla
/Egrave /Eacute /Ecircumflex /Edieresis /Igrave
/Iacute /Icircumflex /Idieresis /Eth /Ntilde
/Ograve /Oacute /Ocircumflex /Otilde /Odieresis
/multiply /Oslash /Ugrave /Uacute /Ucircumflex
/Udieresis /Yacute /Thorn /germandbls /agrave
/aacute /acircumflex /atilde /adieresis /aring
/ae /ccedilla /egrave /eacute /ecircumflex
/edieresis /igrave /iacute /icircumflex /idieresis
/eth /ntilde /ograve /oacute /ocircumflex
/otilde /odieresis /divide /oslash /ugrave
/uacute /ucircumflex /udieresis /yacute /thorn
/ydieresis
] def
%%EndResource
%FOPBeginFontReencode
/Courier-Bold findfont
dup length dict begin
  {1 index /FID ne {def} {pop pop} ifelse} forall
  /Encoding WinAnsiEncoding def
  currentdict
end
/Courier-Bold exch definefont pop
/Helvetica findfont
dup length dict begin
  {1 index /FID ne {def} {pop pop} ifelse} forall
  /Encoding WinAnsiEncoding def
  currentdict
end
/Helvetica exch definefont pop
/Courier-BoldOblique findfont
dup length dict begin
  {1 index /FID ne {def} {pop pop} ifelse} forall
  /Encoding WinAnsiEncoding def
  currentdict
end
/Courier-BoldOblique exch definefont pop
/Courier-Oblique findfont
dup length dict begin
  {1 index /FID ne {def} {pop pop} ifelse} forall
  /Encoding WinAnsiEncoding def
  currentdict
end
/Courier-Oblique exch definefont pop
/Times-Roman findfont
dup length dict begin
  {1 index /FID ne {def} {pop pop} ifelse} forall
  /Encoding WinAnsiEncoding def
  currentdict
end
/Times-Roman exch definefont pop
/Helvetica-BoldOblique findfont
dup length dict begin
  {1 index /FID ne {def} {pop pop} ifelse} forall
  /Encoding WinAnsiEncoding def
  currentdict
end
/Helvetica-BoldOblique exch definefont pop
/Helvetica-Bold findfont
dup length dict begin
  {1 index /FID ne {def} {pop pop} ifelse} forall
  /Encoding WinAnsiEncoding def
  currentdict
end
/Helvetica-Bold exch definefont pop
/Helvetica-Oblique findfont
dup length dict begin
  {1 index /FID ne {def} {pop pop} ifelse} forall
  /Encoding WinAnsiEncoding def
  currentdict
end
/Helvetica-Oblique exch definefont pop
/Times-BoldItalic findfont
dup length dict begin
  {1 index /FID ne {def} {pop pop} ifelse} forall
  /Encoding WinAnsiEncoding def
  currentdict
end
/Times-BoldItalic exch definefont pop
/Courier findfont
dup length dict begin
  {1 index /FID ne {def} {pop pop} ifelse} forall
  /Encoding WinAnsiEncoding def
  currentdict
end
/Courier exch definefont pop
/Times-Italic findfont
dup length dict begin
  {1 index /FID ne {def} {pop pop} ifelse} forall
  /Encoding WinAnsiEncoding def
  currentdict
end
/Times-Italic exch definefont pop
/Times-Bold findfont
dup length dict begin
  {1 index /FID ne {def} {pop pop} ifelse} forall
  /Encoding WinAnsiEncoding def
  currentdict
end
/Times-Bold exch definefont pop
%FOPEndFontReencode
%%EndProlog
%%Page: 1 1
%%PageBoundingBox: 0 0 576 432
%%BeginPageSetup
[1 0 0 -1 0 432] CT
%%EndPageSetup
GS
1 GC
N
0 0 576 432 re
f
GR
GS
1 GC
N
0 0 576 432 re
f
GR
GS
1 GC
N
75 384 M
521 384 L
521 32 L
75 32 L
cp
f
GR
GS
0.873 GC
1 LJ
0.5 LW
N
75 384 M
75 32 L
S
GR
GS
0.873 GC
1 LJ
0.5 LW
N
149.333 384 M
149.333 32 L
S
GR
GS
0.873 GC
1 LJ
0.5 LW
N
223.667 384 M
223.667 32 L
S
GR
GS
0.873 GC
1 LJ
0.5 LW
N
298 384 M
298 32 L
S
GR
GS
0.873 GC
1 LJ
0.5 LW
N
372.333 384 M
372.333 32 L
S
GR
GS
0.873 GC
1 LJ
0.5 LW
N
446.667 384 M
446.667 32 L
S
GR
GS
0.873 GC
1 LJ
0.5 LW
N
521 384 M
521 32 L
S
GR
GS
0.873 GC
1 LJ
0.5 LW
N
521 384 M
75 384 L
S
GR
GS
0.873 GC
1 LJ
0.5 LW
N
521 340 M
75 340 L
S
GR
GS
0.873 GC
1 LJ
0.5 LW
N
521 296 M
75 296 L
S
GR
GS
0.873 GC
1 LJ
0.5 LW
N
521 252 M
75 252 L
S
GR
GS
0.873 GC
1 LJ
0.5 LW
N
521 208 M
75 208 L
S
GR
GS
0.873 GC
1 LJ
0.5 LW
N
521 164 M
75 164 L
S
GR
GS
0.873 GC
1 LJ
0.5 LW
N
521 120 M
75 120 L
S
GR
GS
0.873 GC
1 LJ
0.5 LW
N
521 76 M
75 76 L
S
GR
GS
0.873 GC
1 LJ
0.5 LW
N
521 32 M
75 32 L
S
GR
GS
0.149 GC
2 setlinecap
1 LJ
0.5 LW
N
75 384 M
521 384 L
S
GR
GS
0.149 GC
2 setlinecap
1 LJ
0.5 LW
N
75 32 M
521 32 L
S
GR
GS
0.149 GC
2 setlinecap
1 LJ
0.5 LW
N
75 384 M
75 379.54 L
S
GR
GS
0.149 GC
2 setlinecap
1 LJ
0.5 LW
N
149.333 384 M
149.333 379.54 L
S
GR
GS
0.149 GC
2 setlinecap
1 LJ
0.5 LW
N
223.667 384 M
223.667 379.54 L
S
GR
GS
0.149 GC
2 setlinecap
1 LJ
0.5 LW
N
298 384 M
298 379.54 L
S
GR
GS
0.149 GC
2 setlinecap
1 LJ
0.5 LW
N
372.333 384 M
372.333 379.54 L
S
GR
GS
0.149 GC
2 setlinecap
1 LJ
0.5 LW
N
446.667 384 M
446.667 379.54 L
S
GR
GS
0.149 GC
2 setlinecap
1 LJ
0.5 LW
N
521 384 M
521 379.54 L
S
GR
GS
0.149 GC
2 setlinecap
1 LJ
0.5 LW
N
75 32 M
75 36.46 L
S
GR
GS
0.149 GC
2 setlinecap
1 LJ
0.5 LW
N
149.333 32 M
149.333 36.46 L
S
GR
GS
0.149 GC
2 setlinecap
1 LJ
0.5 LW
N
223.667 32 M
223.667 36.46 L
S
GR
GS
0.149 GC
2 setlinecap
1 LJ
0.5 LW
N
298 32 M
298 36.46 L
S
GR
GS
0.149 GC
2 setlinecap
1 LJ
0.5 LW
N
372.333 32 M
372.333 36.46 L
S
GR
GS
0.149 GC
2 setlinecap
1 LJ
0.5 LW
N
446.667 32 M
446.667 36.46 L
S
GR
GS
0.149 GC
2 setlinecap
1 LJ
0.5 LW
N
521 32 M
521 36.46 L
S
GR
GS
[1 0 0 1 75 388] CT
0.149 GC
/Helvetica 10 F
GS
[1 0 0 1 0 0] CT
-3 8 moveto 
1 -1 scale
(0) t 
GR
GR
GS
[1 0 0 1 149.33333 388] CT
0.149 GC
/Helvetica 10 F
GS
[1 0 0 1 0 0] CT
-6 8 moveto 
1 -1 scale
(10) t 
GR
GR
GS
[1 0 0 1 223.66667 388] CT
0.149 GC
/Helvetica 10 F
GS
[1 0 0 1 0 0] CT
-6 8 moveto 
1 -1 scale
(20) t 
GR
GR
GS
[1 0 0 1 298 388] CT
0.149 GC
/Helvetica 10 F
GS
[1 0 0 1 0 0] CT
-6 8 moveto 
1 -1 scale
(30) t 
GR
GR
GS
[1 0 0 1 372.33334 388] CT
0.149 GC
/Helvetica 10 F
GS
[1 0 0 1 0 0] CT
-6 8 moveto 
1 -1 scale
(40) t 
GR
GR
GS
[1 0 0 1 446.66666 388] CT
0.149 GC
/Helvetica 10 F
GS
[1 0 0 1 0 0] CT
-6 8 moveto 
1 -1 scale
(50) t 
GR
GR
GS
[1 0 0 1 521 388] CT
0.149 GC
/Helvetica 10 F
GS
[1 0 0 1 0 0] CT
-6 8 moveto 
1 -1 scale
(60) t 
GR
GR
GS
[1 0 0 1 298.00021 400] CT
0.149 GC
/Helvetica 11 F
GS
[1 0 0 1 0 0] CT
-3 9 moveto 
1 -1 scale
(x) t 
GR
GR
GS
0.149 GC
2 setlinecap
1 LJ
0.5 LW
N
75 384 M
75 32 L
S
GR
GS
0.149 GC
2 setlinecap
1 LJ
0.5 LW
N
521 384 M
521 32 L
S
GR
GS
0.149 GC
2 setlinecap
1 LJ
0.5 LW
N
75 384 M
79.46 384 L
S
GR
GS
0.149 GC
2 setlinecap
1 LJ
0.5 LW
N
75 340 M
79.46 340 L
S
GR
GS
0.149 GC
2 setlinecap
1 LJ
0.5 LW
N
75 296 M
79.46 296 L
S
GR
GS
0.149 GC
2 setlinecap
1 LJ
0.5 LW
N
75 252 M
79.46 252 L
S
GR
GS
0.149 GC
2 setlinecap
1 LJ
0.5 LW
N
75 208 M
79.46 208 L
S
GR
GS
0.149 GC
2 setlinecap
1 LJ
0.5 LW
N
75 164 M
79.46 164 L
S
GR
GS
0.149 GC
2 setlinecap
1 LJ
0.5 LW
N
75 120 M
79.46 120 L
S
GR
GS
0.149 GC
2 setlinecap
1 LJ
0.5 LW
N
75 76 M
79.46 76 L
S
GR
GS
0.149 GC
2 setlinecap
1 LJ
0.5 LW
N
75 32 M
79.46 32 L
S
GR
GS
0.149 GC
2 setlinecap
1 LJ
0.5 LW
N
521 384 M
516.54 384 L
S
GR
GS
0.149 GC
2 setlinecap
1 LJ
0.5 LW
N
521 340 M
516.54 340 L
S
GR
GS
0.149 GC
2 setlinecap
1 LJ
0.5 LW
N
521 296 M
516.54 296 L
S
GR
GS
0.149 GC
2 setlinecap
1 LJ
0.5 LW
N
521 252 M
516.54 252 L
S
GR
GS
0.149 GC
2 setlinecap
1 LJ
0.5 LW
N
521 208 M
516.54 208 L
S
GR
GS
0.149 GC
2 setlinecap
1 LJ
0.5 LW
N
521 164 M
516.54 164 L
S
GR
GS
0.149 GC
2 setlinecap
1 LJ
0.5 LW
N
521 120 M
516.54 120 L
S
GR
GS
0.149 GC
2 setlinecap
1 LJ
0.5 LW
N
521 76 M
516.54 76 L
S
GR
GS
0.149 GC
2 setlinecap
1 LJ
0.5 LW
N
521 32 M
516.54 32 L
S
GR
GS
[1 0 0 1 71 384] CT
0.149 GC
/Helvetica 10 F
GS
[1 0 0 1 0 0] CT
-6 2.5 moveto 
1 -1 scale
(0) t 
GR
GR
GS
[1 0 0 1 71 340] CT
0.149 GC
/Helvetica 10 F
GS
[1 0 0 1 0 0] CT
-20 2.5 moveto 
1 -1 scale
(0.02) t 
GR
GR
GS
[1 0 0 1 71 296] CT
0.149 GC
/Helvetica 10 F
GS
[1 0 0 1 0 0] CT
-20 2.5 moveto 
1 -1 scale
(0.04) t 
GR
GR
GS
[1 0 0 1 71 252] CT
0.149 GC
/Helvetica 10 F
GS
[1 0 0 1 0 0] CT
-20 2.5 moveto 
1 -1 scale
(0.06) t 
GR
GR
GS
[1 0 0 1 71 208] CT
0.149 GC
/Helvetica 10 F
GS
[1 0 0 1 0 0] CT
-20 2.5 moveto 
1 -1 scale
(0.08) t 
GR
GR
GS
[1 0 0 1 71 164] CT
0.149 GC
/Helvetica 10 F
GS
[1 0 0 1 0 0] CT
-14 2.5 moveto 
1 -1 scale
(0.1) t 
GR
GR
GS
[1 0 0 1 71 120.00001] CT
0.149 GC
/Helvetica 10 F
GS
[1 0 0 1 0 0] CT
-20 2.5 moveto 
1 -1 scale
(0.12) t 
GR
GR
GS
[1 0 0 1 71 76] CT
0.149 GC
/Helvetica 10 F
GS
[1 0 0 1 0 0] CT
-20 2.5 moveto 
1 -1 scale
(0.14) t 
GR
GR
GS
[1 0 0 1 71 32.00001] CT
0.149 GC
/Helvetica 10 F
GS
[1 0 0 1 0 0] CT
-20 2.5 moveto 
1 -1 scale
(0.16) t 
GR
GR
GS
[0 -1 1 0 48 207.99985] CT
0.149 GC
/Helvetica 11 F
GS
[1 0 0 1 0 0] CT
-100.5 -3 moveto 
1 -1 scale
(Exponentially distributed data \(mean = 6\)) t 
GR
GR
GS
1 LJ
1.2 LW
N
75 44 M
80 39 L
S
GR
GS
1 LJ
1.2 LW
N
75 39 M
80 44 L
S
GR
GS
1 LJ
1.2 LW
N
79 54 M
84 49 L
S
GR
GS
1 LJ
1.2 LW
N
79 49 M
84 54 L
S
GR
GS
1 LJ
1.2 LW
N
83 77 M
88 72 L
S
GR
GS
1 LJ
1.2 LW
N
83 72 M
88 77 L
S
GR
GS
1 LJ
1.2 LW
N
88 112 M
93 107 L
S
GR
GS
1 LJ
1.2 LW
N
88 107 M
93 112 L
S
GR
GS
1 LJ
1.2 LW
N
92 143 M
97 138 L
S
GR
GS
1 LJ
1.2 LW
N
92 138 M
97 143 L
S
GR
GS
1 LJ
1.2 LW
N
96 156 M
101 151 L
S
GR
GS
1 LJ
1.2 LW
N
96 151 M
101 156 L
S
GR
GS
1 LJ
1.2 LW
N
101 162 M
106 157 L
S
GR
GS
1 LJ
1.2 LW
N
101 157 M
106 162 L
S
GR
GS
1 LJ
1.2 LW
N
105 205 M
110 200 L
S
GR
GS
1 LJ
1.2 LW
N
105 200 M
110 205 L
S
GR
GS
1 LJ
1.2 LW
N
109 220 M
114 215 L
S
GR
GS
1 LJ
1.2 LW
N
109 215 M
114 220 L
S
GR
GS
1 LJ
1.2 LW
N
114 241 M
119 236 L
S
GR
GS
1 LJ
1.2 LW
N
114 236 M
119 241 L
S
GR
GS
1 LJ
1.2 LW
N
118 249 M
123 244 L
S
GR
GS
1 LJ
1.2 LW
N
118 244 M
123 249 L
S
GR
GS
1 LJ
1.2 LW
N
122 262 M
127 257 L
S
GR
GS
1 LJ
1.2 LW
N
122 257 M
127 262 L
S
GR
GS
1 LJ
1.2 LW
N
127 281 M
132 276 L
S
GR
GS
1 LJ
1.2 LW
N
127 276 M
132 281 L
S
GR
GS
1 LJ
1.2 LW
N
131 299 M
136 294 L
S
GR
GS
1 LJ
1.2 LW
N
131 294 M
136 299 L
S
GR
GS
1 LJ
1.2 LW
N
135 292 M
140 287 L
S
GR
GS
1 LJ
1.2 LW
N
135 287 M
140 292 L
S
GR
GS
1 LJ
1.2 LW
N
140 288 M
145 283 L
S
GR
GS
1 LJ
1.2 LW
N
140 283 M
145 288 L
S
GR
GS
1 LJ
1.2 LW
N
144 320 M
149 315 L
S
GR
GS
1 LJ
1.2 LW
N
144 315 M
149 320 L
S
GR
GS
1 LJ
1.2 LW
N
148 321 M
153 316 L
S
GR
GS
1 LJ
1.2 LW
N
148 316 M
153 321 L
S
GR
GS
1 LJ
1.2 LW
N
152 325 M
157 320 L
S
GR
GS
1 LJ
1.2 LW
N
152 320 M
157 325 L
S
GR
GS
1 LJ
1.2 LW
N
157 330 M
162 325 L
S
GR
GS
1 LJ
1.2 LW
N
157 325 M
162 330 L
S
GR
GS
1 LJ
1.2 LW
N
161 332 M
166 327 L
S
GR
GS
1 LJ
1.2 LW
N
161 327 M
166 332 L
S
GR
GS
1 LJ
1.2 LW
N
165 337 M
170 332 L
S
GR
GS
1 LJ
1.2 LW
N
165 332 M
170 337 L
S
GR
GS
1 LJ
1.2 LW
N
170 341 M
175 336 L
S
GR
GS
1 LJ
1.2 LW
N
170 336 M
175 341 L
S
GR
GS
1 LJ
1.2 LW
N
174 343 M
179 338 L
S
GR
GS
1 LJ
1.2 LW
N
174 338 M
179 343 L
S
GR
GS
1 LJ
1.2 LW
N
178 355 M
183 350 L
S
GR
GS
1 LJ
1.2 LW
N
178 350 M
183 355 L
S
GR
GS
1 LJ
1.2 LW
N
183 346 M
188 341 L
S
GR
GS
1 LJ
1.2 LW
N
183 341 M
188 346 L
S
GR
GS
1 LJ
1.2 LW
N
187 356 M
192 351 L
S
GR
GS
1 LJ
1.2 LW
N
187 351 M
192 356 L
S
GR
GS
1 LJ
1.2 LW
N
191 355 M
196 350 L
S
GR
GS
1 LJ
1.2 LW
N
191 350 M
196 355 L
S
GR
GS
1 LJ
1.2 LW
N
196 356 M
201 351 L
S
GR
GS
1 LJ
1.2 LW
N
196 351 M
201 356 L
S
GR
GS
1 LJ
1.2 LW
N
200 358 M
205 353 L
S
GR
GS
1 LJ
1.2 LW
N
200 353 M
205 358 L
S
GR
GS
1 LJ
1.2 LW
N
204 364 M
209 359 L
S
GR
GS
1 LJ
1.2 LW
N
204 359 M
209 364 L
S
GR
GS
1 LJ
1.2 LW
N
209 371 M
214 366 L
S
GR
GS
1 LJ
1.2 LW
N
209 366 M
214 371 L
S
GR
GS
1 LJ
1.2 LW
N
213 370 M
218 365 L
S
GR
GS
1 LJ
1.2 LW
N
213 365 M
218 370 L
S
GR
GS
1 LJ
1.2 LW
N
217 375 M
222 370 L
S
GR
GS
1 LJ
1.2 LW
N
217 370 M
222 375 L
S
GR
GS
1 LJ
1.2 LW
N
222 370 M
227 365 L
S
GR
GS
1 LJ
1.2 LW
N
222 365 M
227 370 L
S
GR
GS
1 LJ
1.2 LW
N
226 372 M
231 367 L
S
GR
GS
1 LJ
1.2 LW
N
226 367 M
231 372 L
S
GR
GS
1 LJ
1.2 LW
N
230 378 M
235 373 L
S
GR
GS
1 LJ
1.2 LW
N
230 373 M
235 378 L
S
GR
GS
1 LJ
1.2 LW
N
235 374 M
240 369 L
S
GR
GS
1 LJ
1.2 LW
N
235 369 M
240 374 L
S
GR
GS
1 LJ
1.2 LW
N
239 381 M
244 376 L
S
GR
GS
1 LJ
1.2 LW
N
239 376 M
244 381 L
S
GR
GS
1 LJ
1.2 LW
N
243 374 M
248 369 L
S
GR
GS
1 LJ
1.2 LW
N
243 369 M
248 374 L
S
GR
GS
1 LJ
1.2 LW
N
248 381 M
253 376 L
S
GR
GS
1 LJ
1.2 LW
N
248 376 M
253 381 L
S
GR
GS
1 LJ
1.2 LW
N
252 378 M
257 373 L
S
GR
GS
1 LJ
1.2 LW
N
252 373 M
257 378 L
S
GR
GS
1 LJ
1.2 LW
N
256 379 M
261 374 L
S
GR
GS
1 LJ
1.2 LW
N
256 374 M
261 379 L
S
GR
GS
1 LJ
1.2 LW
N
261 383 M
266 378 L
S
GR
GS
1 LJ
1.2 LW
N
261 378 M
266 383 L
S
GR
GS
1 LJ
1.2 LW
N
265 381 M
270 376 L
S
GR
GS
1 LJ
1.2 LW
N
265 376 M
270 381 L
S
GR
GS
1 LJ
1.2 LW
N
269 382 M
274 377 L
S
GR
GS
1 LJ
1.2 LW
N
269 377 M
274 382 L
S
GR
GS
1 LJ
1.2 LW
N
274 383 M
279 378 L
S
GR
GS
1 LJ
1.2 LW
N
274 378 M
279 383 L
S
GR
GS
1 LJ
1.2 LW
N
278 382 M
283 377 L
S
GR
GS
1 LJ
1.2 LW
N
278 377 M
283 382 L
S
GR
GS
1 LJ
1.2 LW
N
282 383 M
287 378 L
S
GR
GS
1 LJ
1.2 LW
N
282 378 M
287 383 L
S
GR
GS
1 LJ
1.2 LW
N
287 385 M
292 380 L
S
GR
GS
1 LJ
1.2 LW
N
287 380 M
292 385 L
S
GR
GS
1 LJ
1.2 LW
N
291 381 M
296 376 L
S
GR
GS
1 LJ
1.2 LW
N
291 376 M
296 381 L
S
GR
GS
1 LJ
1.2 LW
N
295 383 M
300 378 L
S
GR
GS
1 LJ
1.2 LW
N
295 378 M
300 383 L
S
GR
GS
1 LJ
1.2 LW
N
300 384 M
305 379 L
S
GR
GS
1 LJ
1.2 LW
N
300 379 M
305 384 L
S
GR
GS
1 LJ
1.2 LW
N
304 385 M
309 380 L
S
GR
GS
1 LJ
1.2 LW
N
304 380 M
309 385 L
S
GR
GS
1 LJ
1.2 LW
N
308 385 M
313 380 L
S
GR
GS
1 LJ
1.2 LW
N
308 380 M
313 385 L
S
GR
GS
1 LJ
1.2 LW
N
312 385 M
317 380 L
S
GR
GS
1 LJ
1.2 LW
N
312 380 M
317 385 L
S
GR
GS
1 LJ
1.2 LW
N
317 385 M
322 380 L
S
GR
GS
1 LJ
1.2 LW
N
317 380 M
322 385 L
S
GR
GS
1 LJ
1.2 LW
N
321 384 M
326 379 L
S
GR
GS
1 LJ
1.2 LW
N
321 379 M
326 384 L
S
GR
GS
1 LJ
1.2 LW
N
325 385 M
330 380 L
S
GR
GS
1 LJ
1.2 LW
N
325 380 M
330 385 L
S
GR
GS
1 LJ
1.2 LW
N
330 385 M
335 380 L
S
GR
GS
1 LJ
1.2 LW
N
330 380 M
335 385 L
S
GR
GS
1 LJ
1.2 LW
N
334 385 M
339 380 L
S
GR
GS
1 LJ
1.2 LW
N
334 380 M
339 385 L
S
GR
GS
1 LJ
1.2 LW
N
338 385 M
343 380 L
S
GR
GS
1 LJ
1.2 LW
N
338 380 M
343 385 L
S
GR
GS
1 LJ
1.2 LW
N
343 386 M
348 381 L
S
GR
GS
1 LJ
1.2 LW
N
343 381 M
348 386 L
S
GR
GS
1 LJ
1.2 LW
N
347 386 M
352 381 L
S
GR
GS
1 LJ
1.2 LW
N
347 381 M
352 386 L
S
GR
GS
1 LJ
1.2 LW
N
351 386 M
356 381 L
S
GR
GS
1 LJ
1.2 LW
N
351 381 M
356 386 L
S
GR
GS
1 LJ
1.2 LW
N
356 386 M
361 381 L
S
GR
GS
1 LJ
1.2 LW
N
356 381 M
361 386 L
S
GR
GS
1 LJ
1.2 LW
N
360 386 M
365 381 L
S
GR
GS
1 LJ
1.2 LW
N
360 381 M
365 386 L
S
GR
GS
1 LJ
1.2 LW
N
364 386 M
369 381 L
S
GR
GS
1 LJ
1.2 LW
N
364 381 M
369 386 L
S
GR
GS
1 LJ
1.2 LW
N
369 386 M
374 381 L
S
GR
GS
1 LJ
1.2 LW
N
369 381 M
374 386 L
S
GR
GS
1 LJ
1.2 LW
N
373 386 M
378 381 L
S
GR
GS
1 LJ
1.2 LW
N
373 381 M
378 386 L
S
GR
GS
1 LJ
1.2 LW
N
377 386 M
382 381 L
S
GR
GS
1 LJ
1.2 LW
N
377 381 M
382 386 L
S
GR
GS
1 LJ
1.2 LW
N
382 386 M
387 381 L
S
GR
GS
1 LJ
1.2 LW
N
382 381 M
387 386 L
S
GR
GS
1 LJ
1.2 LW
N
386 386 M
391 381 L
S
GR
GS
1 LJ
1.2 LW
N
386 381 M
391 386 L
S
GR
GS
1 LJ
1.2 LW
N
390 386 M
395 381 L
S
GR
GS
1 LJ
1.2 LW
N
390 381 M
395 386 L
S
GR
GS
1 LJ
1.2 LW
N
395 386 M
400 381 L
S
GR
GS
1 LJ
1.2 LW
N
395 381 M
400 386 L
S
GR
GS
1 LJ
1.2 LW
N
399 386 M
404 381 L
S
GR
GS
1 LJ
1.2 LW
N
399 381 M
404 386 L
S
GR
GS
1 LJ
1.2 LW
N
403 386 M
408 381 L
S
GR
GS
1 LJ
1.2 LW
N
403 381 M
408 386 L
S
GR
GS
1 LJ
1.2 LW
N
408 386 M
413 381 L
S
GR
GS
1 LJ
1.2 LW
N
408 381 M
413 386 L
S
GR
GS
1 LJ
1.2 LW
N
412 386 M
417 381 L
S
GR
GS
1 LJ
1.2 LW
N
412 381 M
417 386 L
S
GR
GS
1 LJ
1.2 LW
N
416 386 M
421 381 L
S
GR
GS
1 LJ
1.2 LW
N
416 381 M
421 386 L
S
GR
GS
1 LJ
1.2 LW
N
421 386 M
426 381 L
S
GR
GS
1 LJ
1.2 LW
N
421 381 M
426 386 L
S
GR
GS
1 LJ
1.2 LW
N
425 386 M
430 381 L
S
GR
GS
1 LJ
1.2 LW
N
425 381 M
430 386 L
S
GR
GS
1 LJ
1.2 LW
N
429 386 M
434 381 L
S
GR
GS
1 LJ
1.2 LW
N
429 381 M
434 386 L
S
GR
GS
1 LJ
1.2 LW
N
434 386 M
439 381 L
S
GR
GS
1 LJ
1.2 LW
N
434 381 M
439 386 L
S
GR
GS
1 LJ
1.2 LW
N
438 386 M
443 381 L
S
GR
GS
1 LJ
1.2 LW
N
438 381 M
443 386 L
S
GR
GS
1 LJ
1.2 LW
N
442 386 M
447 381 L
S
GR
GS
1 LJ
1.2 LW
N
442 381 M
447 386 L
S
GR
GS
1 LJ
1.2 LW
N
447 386 M
452 381 L
S
GR
GS
1 LJ
1.2 LW
N
447 381 M
452 386 L
S
GR
GS
1 LJ
1.2 LW
N
451 386 M
456 381 L
S
GR
GS
1 LJ
1.2 LW
N
451 381 M
456 386 L
S
GR
GS
1 LJ
1.2 LW
N
455 386 M
460 381 L
S
GR
GS
1 LJ
1.2 LW
N
455 381 M
460 386 L
S
GR
GS
1 LJ
1.2 LW
N
460 386 M
465 381 L
S
GR
GS
1 LJ
1.2 LW
N
460 381 M
465 386 L
S
GR
GS
1 LJ
1.2 LW
N
464 386 M
469 381 L
S
GR
GS
1 LJ
1.2 LW
N
464 381 M
469 386 L
S
GR
GS
1 LJ
1.2 LW
N
468 386 M
473 381 L
S
GR
GS
1 LJ
1.2 LW
N
468 381 M
473 386 L
S
GR
GS
1 LJ
1.2 LW
N
472 386 M
477 381 L
S
GR
GS
1 LJ
1.2 LW
N
472 381 M
477 386 L
S
GR
GS
1 LJ
1.2 LW
N
477 386 M
482 381 L
S
GR
GS
1 LJ
1.2 LW
N
477 381 M
482 386 L
S
GR
GS
1 LJ
1.2 LW
N
481 386 M
486 381 L
S
GR
GS
1 LJ
1.2 LW
N
481 381 M
486 386 L
S
GR
GS
1 LJ
1.2 LW
N
485 386 M
490 381 L
S
GR
GS
1 LJ
1.2 LW
N
485 381 M
490 386 L
S
GR
GS
1 LJ
1.2 LW
N
490 386 M
495 381 L
S
GR
GS
1 LJ
1.2 LW
N
490 381 M
495 386 L
S
GR
GS
1 LJ
1.2 LW
N
494 386 M
499 381 L
S
GR
GS
1 LJ
1.2 LW
N
494 381 M
499 386 L
S
GR
GS
1 LJ
1.2 LW
N
498 386 M
503 381 L
S
GR
GS
1 LJ
1.2 LW
N
498 381 M
503 386 L
S
GR
GS
1 LJ
1.2 LW
N
503 386 M
508 381 L
S
GR
GS
1 LJ
1.2 LW
N
503 381 M
508 386 L
S
GR
%%Trailer
%%Pages: 1
%%EOF
