%!PS-Adobe-3.0 EPSF-3.0
%%Creator: (MATLAB, The Mathworks, Inc. Version 8.6.0.267246 \(R2015b\). Operating System: Mac OS X)
%%Title: ./exp_data_1.eps
%%CreationDate: 2016-01-06T17:11:03
%%Pages: (atend)
%%BoundingBox:    42    20   524   406
%%LanguageLevel: 3
%%EndComments
%%BeginProlog
%%BeginResource: procset (Apache XML Graphics Std ProcSet) 1.2 0
%%Version: 1.2 0
%%Copyright: (Copyright 2001-2003,2010 The Apache Software Foundation. License terms: http://www.apache.org/licenses/LICENSE-2.0)
/bd{bind def}bind def
/ld{load def}bd
/GR/grestore ld
/M/moveto ld
/LJ/setlinejoin ld
/C/curveto ld
/f/fill ld
/LW/setlinewidth ld
/GC/setgray ld
/t/show ld
/N/newpath ld
/CT/concat ld
/cp/closepath ld
/S/stroke ld
/L/lineto ld
/CC/setcmykcolor ld
/A/ashow ld
/GS/gsave ld
/RC/setrgbcolor ld
/RM/rmoveto ld
/ML/setmiterlimit ld
/re {4 2 roll M
1 index 0 rlineto
0 exch rlineto
neg 0 rlineto
cp } bd
/_ctm matrix def
/_tm matrix def
/BT { _ctm currentmatrix pop matrix _tm copy pop 0 0 moveto } bd
/ET { _ctm setmatrix } bd
/iTm { _ctm setmatrix _tm concat } bd
/Tm { _tm astore pop iTm 0 0 moveto } bd
/ux 0.0 def
/uy 0.0 def
/F {
  /Tp exch def
  /Tf exch def
  Tf findfont Tp scalefont setfont
  /cf Tf def  /cs Tp def
} bd
/ULS {currentpoint /uy exch def /ux exch def} bd
/ULE {
  /Tcx currentpoint pop def
  gsave
  newpath
  cf findfont cs scalefont dup
  /FontMatrix get 0 get /Ts exch def /FontInfo get dup
  /UnderlinePosition get Ts mul /To exch def
  /UnderlineThickness get Ts mul /Tt exch def
  ux uy To add moveto  Tcx uy To add lineto
  Tt setlinewidth stroke
  grestore
} bd
/OLE {
  /Tcx currentpoint pop def
  gsave
  newpath
  cf findfont cs scalefont dup
  /FontMatrix get 0 get /Ts exch def /FontInfo get dup
  /UnderlinePosition get Ts mul /To exch def
  /UnderlineThickness get Ts mul /Tt exch def
  ux uy To add cs add moveto Tcx uy To add cs add lineto
  Tt setlinewidth stroke
  grestore
} bd
/SOE {
  /Tcx currentpoint pop def
  gsave
  newpath
  cf findfont cs scalefont dup
  /FontMatrix get 0 get /Ts exch def /FontInfo get dup
  /UnderlinePosition get Ts mul /To exch def
  /UnderlineThickness get Ts mul /Tt exch def
  ux uy To add cs 10 mul 26 idiv add moveto Tcx uy To add cs 10 mul 26 idiv add lineto
  Tt setlinewidth stroke
  grestore
} bd
/QT {
/Y22 exch store
/X22 exch store
/Y21 exch store
/X21 exch store
currentpoint
/Y21 load 2 mul add 3 div exch
/X21 load 2 mul add 3 div exch
/X21 load 2 mul /X22 load add 3 div
/Y21 load 2 mul /Y22 load add 3 div
/X22 load /Y22 load curveto
} bd
/SSPD {
dup length /d exch dict def
{
/v exch def
/k exch def
currentpagedevice k known {
/cpdv currentpagedevice k get def
v cpdv ne {
/upd false def
/nullv v type /nulltype eq def
/nullcpdv cpdv type /nulltype eq def
nullv nullcpdv or
{
/upd true def
} {
/sametype v type cpdv type eq def
sametype {
v type /arraytype eq {
/vlen v length def
/cpdvlen cpdv length def
vlen cpdvlen eq {
0 1 vlen 1 sub {
/i exch def
/obj v i get def
/cpdobj cpdv i get def
obj cpdobj ne {
/upd true def
exit
} if
} for
} {
/upd true def
} ifelse
} {
v type /dicttype eq {
v {
/dv exch def
/dk exch def
/cpddv cpdv dk get def
dv cpddv ne {
/upd true def
exit
} if
} forall
} {
/upd true def
} ifelse
} ifelse
} if
} ifelse
upd true eq {
d k v put
} if
} if
} if
} forall
d length 0 gt {
d setpagedevice
} if
} bd
%%EndResource
%%BeginResource: procset (Apache XML Graphics EPS ProcSet) 1.0 0
%%Version: 1.0 0
%%Copyright: (Copyright 2002-2003 The Apache Software Foundation. License terms: http://www.apache.org/licenses/LICENSE-2.0)
/BeginEPSF { %def
/b4_Inc_state save def         % Save state for cleanup
/dict_count countdictstack def % Count objects on dict stack
/op_count count 1 sub def      % Count objects on operand stack
userdict begin                 % Push userdict on dict stack
/showpage { } def              % Redefine showpage, { } = null proc
0 setgray 0 setlinecap         % Prepare graphics state
1 setlinewidth 0 setlinejoin
10 setmiterlimit [ ] 0 setdash newpath
/languagelevel where           % If level not equal to 1 then
{pop languagelevel             % set strokeadjust and
1 ne                           % overprint to their defaults.
{false setstrokeadjust false setoverprint
} if
} if
} bd
/EndEPSF { %def
count op_count sub {pop} repeat            % Clean up stacks
countdictstack dict_count sub {end} repeat
b4_Inc_state restore
} bd
%%EndResource
%FOPBeginFontDict
%%IncludeResource: font Courier-Bold
%%IncludeResource: font Helvetica
%%IncludeResource: font Courier-BoldOblique
%%IncludeResource: font Courier-Oblique
%%IncludeResource: font Times-Roman
%%IncludeResource: font Helvetica-BoldOblique
%%IncludeResource: font Helvetica-Bold
%%IncludeResource: font Helvetica-Oblique
%%IncludeResource: font Times-BoldItalic
%%IncludeResource: font Courier
%%IncludeResource: font Times-Italic
%%IncludeResource: font Times-Bold
%%IncludeResource: font Symbol
%%IncludeResource: font ZapfDingbats
%FOPEndFontDict
%%BeginResource: encoding WinAnsiEncoding
/WinAnsiEncoding [
/.notdef /.notdef /.notdef /.notdef /.notdef
/.notdef /.notdef /.notdef /.notdef /.notdef
/.notdef /.notdef /.notdef /.notdef /.notdef
/.notdef /.notdef /.notdef /.notdef /.notdef
/.notdef /.notdef /.notdef /.notdef /.notdef
/.notdef /.notdef /.notdef /.notdef /.notdef
/.notdef /.notdef /space /exclam /quotedbl
/numbersign /dollar /percent /ampersand /quotesingle
/parenleft /parenright /asterisk /plus /comma
/hyphen /period /slash /zero /one
/two /three /four /five /six
/seven /eight /nine /colon /semicolon
/less /equal /greater /question /at
/A /B /C /D /E
/F /G /H /I /J
/K /L /M /N /O
/P /Q /R /S /T
/U /V /W /X /Y
/Z /bracketleft /backslash /bracketright /asciicircum
/underscore /quoteleft /a /b /c
/d /e /f /g /h
/i /j /k /l /m
/n /o /p /q /r
/s /t /u /v /w
/x /y /z /braceleft /bar
/braceright /asciitilde /bullet /Euro /bullet
/quotesinglbase /florin /quotedblbase /ellipsis /dagger
/daggerdbl /circumflex /perthousand /Scaron /guilsinglleft
/OE /bullet /Zcaron /bullet /bullet
/quoteleft /quoteright /quotedblleft /quotedblright /bullet
/endash /emdash /asciitilde /trademark /scaron
/guilsinglright /oe /bullet /zcaron /Ydieresis
/space /exclamdown /cent /sterling /currency
/yen /brokenbar /section /dieresis /copyright
/ordfeminine /guillemotleft /logicalnot /sfthyphen /registered
/macron /degree /plusminus /twosuperior /threesuperior
/acute /mu /paragraph /middot /cedilla
/onesuperior /ordmasculine /guillemotright /onequarter /onehalf
/threequarters /questiondown /Agrave /Aacute /Acircumflex
/Atilde /Adieresis /Aring /AE /Ccedilla
/Egrave /Eacute /Ecircumflex /Edieresis /Igrave
/Iacute /Icircumflex /Idieresis /Eth /Ntilde
/Ograve /Oacute /Ocircumflex /Otilde /Odieresis
/multiply /Oslash /Ugrave /Uacute /Ucircumflex
/Udieresis /Yacute /Thorn /germandbls /agrave
/aacute /acircumflex /atilde /adieresis /aring
/ae /ccedilla /egrave /eacute /ecircumflex
/edieresis /igrave /iacute /icircumflex /idieresis
/eth /ntilde /ograve /oacute /ocircumflex
/otilde /odieresis /divide /oslash /ugrave
/uacute /ucircumflex /udieresis /yacute /thorn
/ydieresis
] def
%%EndResource
%FOPBeginFontReencode
/Courier-Bold findfont
dup length dict begin
  {1 index /FID ne {def} {pop pop} ifelse} forall
  /Encoding WinAnsiEncoding def
  currentdict
end
/Courier-Bold exch definefont pop
/Helvetica findfont
dup length dict begin
  {1 index /FID ne {def} {pop pop} ifelse} forall
  /Encoding WinAnsiEncoding def
  currentdict
end
/Helvetica exch definefont pop
/Courier-BoldOblique findfont
dup length dict begin
  {1 index /FID ne {def} {pop pop} ifelse} forall
  /Encoding WinAnsiEncoding def
  currentdict
end
/Courier-BoldOblique exch definefont pop
/Courier-Oblique findfont
dup length dict begin
  {1 index /FID ne {def} {pop pop} ifelse} forall
  /Encoding WinAnsiEncoding def
  currentdict
end
/Courier-Oblique exch definefont pop
/Times-Roman findfont
dup length dict begin
  {1 index /FID ne {def} {pop pop} ifelse} forall
  /Encoding WinAnsiEncoding def
  currentdict
end
/Times-Roman exch definefont pop
/Helvetica-BoldOblique findfont
dup length dict begin
  {1 index /FID ne {def} {pop pop} ifelse} forall
  /Encoding WinAnsiEncoding def
  currentdict
end
/Helvetica-BoldOblique exch definefont pop
/Helvetica-Bold findfont
dup length dict begin
  {1 index /FID ne {def} {pop pop} ifelse} forall
  /Encoding WinAnsiEncoding def
  currentdict
end
/Helvetica-Bold exch definefont pop
/Helvetica-Oblique findfont
dup length dict begin
  {1 index /FID ne {def} {pop pop} ifelse} forall
  /Encoding WinAnsiEncoding def
  currentdict
end
/Helvetica-Oblique exch definefont pop
/Times-BoldItalic findfont
dup length dict begin
  {1 index /FID ne {def} {pop pop} ifelse} forall
  /Encoding WinAnsiEncoding def
  currentdict
end
/Times-BoldItalic exch definefont pop
/Courier findfont
dup length dict begin
  {1 index /FID ne {def} {pop pop} ifelse} forall
  /Encoding WinAnsiEncoding def
  currentdict
end
/Courier exch definefont pop
/Times-Italic findfont
dup length dict begin
  {1 index /FID ne {def} {pop pop} ifelse} forall
  /Encoding WinAnsiEncoding def
  currentdict
end
/Times-Italic exch definefont pop
/Times-Bold findfont
dup length dict begin
  {1 index /FID ne {def} {pop pop} ifelse} forall
  /Encoding WinAnsiEncoding def
  currentdict
end
/Times-Bold exch definefont pop
%FOPEndFontReencode
%%EndProlog
%%Page: 1 1
%%PageBoundingBox: 0 0 576 432
%%BeginPageSetup
[1 0 0 -1 0 432] CT
%%EndPageSetup
GS
1 GC
N
0 0 576 432 re
f
GR
GS
1 GC
N
0 0 576 432 re
f
GR
GS
1 GC
N
75 384 M
521 384 L
521 32 L
75 32 L
cp
f
GR
GS
0.873 GC
1 LJ
0.5 LW
N
75 384 M
75 32 L
S
GR
GS
0.873 GC
1 LJ
0.5 LW
N
130.75 384 M
130.75 32 L
S
GR
GS
0.873 GC
1 LJ
0.5 LW
N
186.5 384 M
186.5 32 L
S
GR
GS
0.873 GC
1 LJ
0.5 LW
N
242.25 384 M
242.25 32 L
S
GR
GS
0.873 GC
1 LJ
0.5 LW
N
298 384 M
298 32 L
S
GR
GS
0.873 GC
1 LJ
0.5 LW
N
353.75 384 M
353.75 32 L
S
GR
GS
0.873 GC
1 LJ
0.5 LW
N
409.5 384 M
409.5 32 L
S
GR
GS
0.873 GC
1 LJ
0.5 LW
N
465.25 384 M
465.25 32 L
S
GR
GS
0.873 GC
1 LJ
0.5 LW
N
521 384 M
521 32 L
S
GR
GS
0.873 GC
1 LJ
0.5 LW
N
521 384 M
75 384 L
S
GR
GS
0.873 GC
1 LJ
0.5 LW
N
521 325.333 M
75 325.333 L
S
GR
GS
0.873 GC
1 LJ
0.5 LW
N
521 266.667 M
75 266.667 L
S
GR
GS
0.873 GC
1 LJ
0.5 LW
N
521 208 M
75 208 L
S
GR
GS
0.873 GC
1 LJ
0.5 LW
N
521 149.333 M
75 149.333 L
S
GR
GS
0.873 GC
1 LJ
0.5 LW
N
521 90.667 M
75 90.667 L
S
GR
GS
0.873 GC
1 LJ
0.5 LW
N
521 32 M
75 32 L
S
GR
GS
0.149 GC
2 setlinecap
1 LJ
0.5 LW
N
75 384 M
521 384 L
S
GR
GS
0.149 GC
2 setlinecap
1 LJ
0.5 LW
N
75 32 M
521 32 L
S
GR
GS
0.149 GC
2 setlinecap
1 LJ
0.5 LW
N
75 384 M
75 379.54 L
S
GR
GS
0.149 GC
2 setlinecap
1 LJ
0.5 LW
N
130.75 384 M
130.75 379.54 L
S
GR
GS
0.149 GC
2 setlinecap
1 LJ
0.5 LW
N
186.5 384 M
186.5 379.54 L
S
GR
GS
0.149 GC
2 setlinecap
1 LJ
0.5 LW
N
242.25 384 M
242.25 379.54 L
S
GR
GS
0.149 GC
2 setlinecap
1 LJ
0.5 LW
N
298 384 M
298 379.54 L
S
GR
GS
0.149 GC
2 setlinecap
1 LJ
0.5 LW
N
353.75 384 M
353.75 379.54 L
S
GR
GS
0.149 GC
2 setlinecap
1 LJ
0.5 LW
N
409.5 384 M
409.5 379.54 L
S
GR
GS
0.149 GC
2 setlinecap
1 LJ
0.5 LW
N
465.25 384 M
465.25 379.54 L
S
GR
GS
0.149 GC
2 setlinecap
1 LJ
0.5 LW
N
521 384 M
521 379.54 L
S
GR
GS
0.149 GC
2 setlinecap
1 LJ
0.5 LW
N
75 32 M
75 36.46 L
S
GR
GS
0.149 GC
2 setlinecap
1 LJ
0.5 LW
N
130.75 32 M
130.75 36.46 L
S
GR
GS
0.149 GC
2 setlinecap
1 LJ
0.5 LW
N
186.5 32 M
186.5 36.46 L
S
GR
GS
0.149 GC
2 setlinecap
1 LJ
0.5 LW
N
242.25 32 M
242.25 36.46 L
S
GR
GS
0.149 GC
2 setlinecap
1 LJ
0.5 LW
N
298 32 M
298 36.46 L
S
GR
GS
0.149 GC
2 setlinecap
1 LJ
0.5 LW
N
353.75 32 M
353.75 36.46 L
S
GR
GS
0.149 GC
2 setlinecap
1 LJ
0.5 LW
N
409.5 32 M
409.5 36.46 L
S
GR
GS
0.149 GC
2 setlinecap
1 LJ
0.5 LW
N
465.25 32 M
465.25 36.46 L
S
GR
GS
0.149 GC
2 setlinecap
1 LJ
0.5 LW
N
521 32 M
521 36.46 L
S
GR
GS
[1 0 0 1 75 388] CT
0.149 GC
/Helvetica 10 F
GS
[1 0 0 1 0 0] CT
-3 8 moveto 
1 -1 scale
(0) t 
GR
GR
GS
[1 0 0 1 130.75 388] CT
0.149 GC
/Helvetica 10 F
GS
[1 0 0 1 0 0] CT
-7 8 moveto 
1 -1 scale
(0.5) t 
GR
GR
GS
[1 0 0 1 186.5 388] CT
0.149 GC
/Helvetica 10 F
GS
[1 0 0 1 0 0] CT
-3 8 moveto 
1 -1 scale
(1) t 
GR
GR
GS
[1 0 0 1 242.25 388] CT
0.149 GC
/Helvetica 10 F
GS
[1 0 0 1 0 0] CT
-7 8 moveto 
1 -1 scale
(1.5) t 
GR
GR
GS
[1 0 0 1 298 388] CT
0.149 GC
/Helvetica 10 F
GS
[1 0 0 1 0 0] CT
-3 8 moveto 
1 -1 scale
(2) t 
GR
GR
GS
[1 0 0 1 353.75 388] CT
0.149 GC
/Helvetica 10 F
GS
[1 0 0 1 0 0] CT
-7 8 moveto 
1 -1 scale
(2.5) t 
GR
GR
GS
[1 0 0 1 409.5 388] CT
0.149 GC
/Helvetica 10 F
GS
[1 0 0 1 0 0] CT
-3 8 moveto 
1 -1 scale
(3) t 
GR
GR
GS
[1 0 0 1 465.25 388] CT
0.149 GC
/Helvetica 10 F
GS
[1 0 0 1 0 0] CT
-7 8 moveto 
1 -1 scale
(3.5) t 
GR
GR
GS
[1 0 0 1 521 388] CT
0.149 GC
/Helvetica 10 F
GS
[1 0 0 1 0 0] CT
-3 8 moveto 
1 -1 scale
(4) t 
GR
GR
GS
[1 0 0 1 298.00021 400] CT
0.149 GC
/Helvetica 11 F
GS
[1 0 0 1 0 0] CT
-3 9 moveto 
1 -1 scale
(x) t 
GR
GR
GS
0.149 GC
2 setlinecap
1 LJ
0.5 LW
N
75 384 M
75 32 L
S
GR
GS
0.149 GC
2 setlinecap
1 LJ
0.5 LW
N
521 384 M
521 32 L
S
GR
GS
0.149 GC
2 setlinecap
1 LJ
0.5 LW
N
75 384 M
79.46 384 L
S
GR
GS
0.149 GC
2 setlinecap
1 LJ
0.5 LW
N
75 325.333 M
79.46 325.333 L
S
GR
GS
0.149 GC
2 setlinecap
1 LJ
0.5 LW
N
75 266.667 M
79.46 266.667 L
S
GR
GS
0.149 GC
2 setlinecap
1 LJ
0.5 LW
N
75 208 M
79.46 208 L
S
GR
GS
0.149 GC
2 setlinecap
1 LJ
0.5 LW
N
75 149.333 M
79.46 149.333 L
S
GR
GS
0.149 GC
2 setlinecap
1 LJ
0.5 LW
N
75 90.667 M
79.46 90.667 L
S
GR
GS
0.149 GC
2 setlinecap
1 LJ
0.5 LW
N
75 32 M
79.46 32 L
S
GR
GS
0.149 GC
2 setlinecap
1 LJ
0.5 LW
N
521 384 M
516.54 384 L
S
GR
GS
0.149 GC
2 setlinecap
1 LJ
0.5 LW
N
521 325.333 M
516.54 325.333 L
S
GR
GS
0.149 GC
2 setlinecap
1 LJ
0.5 LW
N
521 266.667 M
516.54 266.667 L
S
GR
GS
0.149 GC
2 setlinecap
1 LJ
0.5 LW
N
521 208 M
516.54 208 L
S
GR
GS
0.149 GC
2 setlinecap
1 LJ
0.5 LW
N
521 149.333 M
516.54 149.333 L
S
GR
GS
0.149 GC
2 setlinecap
1 LJ
0.5 LW
N
521 90.667 M
516.54 90.667 L
S
GR
GS
0.149 GC
2 setlinecap
1 LJ
0.5 LW
N
521 32 M
516.54 32 L
S
GR
GS
[1 0 0 1 71 384] CT
0.149 GC
/Helvetica 10 F
GS
[1 0 0 1 0 0] CT
-6 2.5 moveto 
1 -1 scale
(0) t 
GR
GR
GS
[1 0 0 1 71 325.33334] CT
0.149 GC
/Helvetica 10 F
GS
[1 0 0 1 0 0] CT
-14 2.5 moveto 
1 -1 scale
(0.5) t 
GR
GR
GS
[1 0 0 1 71 266.66666] CT
0.149 GC
/Helvetica 10 F
GS
[1 0 0 1 0 0] CT
-6 2.5 moveto 
1 -1 scale
(1) t 
GR
GR
GS
[1 0 0 1 71 208] CT
0.149 GC
/Helvetica 10 F
GS
[1 0 0 1 0 0] CT
-14 2.5 moveto 
1 -1 scale
(1.5) t 
GR
GR
GS
[1 0 0 1 71 149.33333] CT
0.149 GC
/Helvetica 10 F
GS
[1 0 0 1 0 0] CT
-6 2.5 moveto 
1 -1 scale
(2) t 
GR
GR
GS
[1 0 0 1 71 90.66666] CT
0.149 GC
/Helvetica 10 F
GS
[1 0 0 1 0 0] CT
-14 2.5 moveto 
1 -1 scale
(2.5) t 
GR
GR
GS
[1 0 0 1 71 32] CT
0.149 GC
/Helvetica 10 F
GS
[1 0 0 1 0 0] CT
-6 2.5 moveto 
1 -1 scale
(3) t 
GR
GR
GS
[0 -1 1 0 54 207.99983] CT
0.149 GC
/Helvetica 11 F
GS
[1 0 0 1 0 0] CT
-100.5 -3 moveto 
1 -1 scale
(Exponentially distributed data \(mean = 1\)) t 
GR
GR
GS
1 LJ
1.2 LW
N
76 155 M
81 150 L
S
GR
GS
1 LJ
1.2 LW
N
76 150 M
81 155 L
S
GR
GS
1 LJ
1.2 LW
N
80 320 M
85 315 L
S
GR
GS
1 LJ
1.2 LW
N
80 315 M
85 320 L
S
GR
GS
1 LJ
1.2 LW
N
84 287 M
89 282 L
S
GR
GS
1 LJ
1.2 LW
N
84 282 M
89 287 L
S
GR
GS
1 LJ
1.2 LW
N
88 89 M
93 84 L
S
GR
GS
1 LJ
1.2 LW
N
88 84 M
93 89 L
S
GR
GS
1 LJ
1.2 LW
N
93 254 M
98 249 L
S
GR
GS
1 LJ
1.2 LW
N
93 249 M
98 254 L
S
GR
GS
1 LJ
1.2 LW
N
97 254 M
102 249 L
S
GR
GS
1 LJ
1.2 LW
N
97 249 M
102 254 L
S
GR
GS
1 LJ
1.2 LW
N
101 353 M
106 348 L
S
GR
GS
1 LJ
1.2 LW
N
101 348 M
106 353 L
S
GR
GS
1 LJ
1.2 LW
N
105 320 M
110 315 L
S
GR
GS
1 LJ
1.2 LW
N
105 315 M
110 320 L
S
GR
GS
1 LJ
1.2 LW
N
109 320 M
114 315 L
S
GR
GS
1 LJ
1.2 LW
N
109 315 M
114 320 L
S
GR
GS
1 LJ
1.2 LW
N
113 221 M
118 216 L
S
GR
GS
1 LJ
1.2 LW
N
113 216 M
118 221 L
S
GR
GS
1 LJ
1.2 LW
N
117 320 M
122 315 L
S
GR
GS
1 LJ
1.2 LW
N
117 315 M
122 320 L
S
GR
GS
1 LJ
1.2 LW
N
122 254 M
127 249 L
S
GR
GS
1 LJ
1.2 LW
N
122 249 M
127 254 L
S
GR
GS
1 LJ
1.2 LW
N
126 320 M
131 315 L
S
GR
GS
1 LJ
1.2 LW
N
126 315 M
131 320 L
S
GR
GS
1 LJ
1.2 LW
N
130 386 M
135 381 L
S
GR
GS
1 LJ
1.2 LW
N
130 381 M
135 386 L
S
GR
GS
1 LJ
1.2 LW
N
134 353 M
139 348 L
S
GR
GS
1 LJ
1.2 LW
N
134 348 M
139 353 L
S
GR
GS
1 LJ
1.2 LW
N
138 254 M
143 249 L
S
GR
GS
1 LJ
1.2 LW
N
138 249 M
143 254 L
S
GR
GS
1 LJ
1.2 LW
N
142 320 M
147 315 L
S
GR
GS
1 LJ
1.2 LW
N
142 315 M
147 320 L
S
GR
GS
1 LJ
1.2 LW
N
146 320 M
151 315 L
S
GR
GS
1 LJ
1.2 LW
N
146 315 M
151 320 L
S
GR
GS
1 LJ
1.2 LW
N
151 386 M
156 381 L
S
GR
GS
1 LJ
1.2 LW
N
151 381 M
156 386 L
S
GR
GS
1 LJ
1.2 LW
N
155 320 M
160 315 L
S
GR
GS
1 LJ
1.2 LW
N
155 315 M
160 320 L
S
GR
GS
1 LJ
1.2 LW
N
159 320 M
164 315 L
S
GR
GS
1 LJ
1.2 LW
N
159 315 M
164 320 L
S
GR
GS
1 LJ
1.2 LW
N
163 287 M
168 282 L
S
GR
GS
1 LJ
1.2 LW
N
163 282 M
168 287 L
S
GR
GS
1 LJ
1.2 LW
N
167 353 M
172 348 L
S
GR
GS
1 LJ
1.2 LW
N
167 348 M
172 353 L
S
GR
GS
1 LJ
1.2 LW
N
171 320 M
176 315 L
S
GR
GS
1 LJ
1.2 LW
N
171 315 M
176 320 L
S
GR
GS
1 LJ
1.2 LW
N
175 386 M
180 381 L
S
GR
GS
1 LJ
1.2 LW
N
175 381 M
180 386 L
S
GR
GS
1 LJ
1.2 LW
N
179 320 M
184 315 L
S
GR
GS
1 LJ
1.2 LW
N
179 315 M
184 320 L
S
GR
GS
1 LJ
1.2 LW
N
184 221 M
189 216 L
S
GR
GS
1 LJ
1.2 LW
N
184 216 M
189 221 L
S
GR
GS
1 LJ
1.2 LW
N
188 320 M
193 315 L
S
GR
GS
1 LJ
1.2 LW
N
188 315 M
193 320 L
S
GR
GS
1 LJ
1.2 LW
N
192 386 M
197 381 L
S
GR
GS
1 LJ
1.2 LW
N
192 381 M
197 386 L
S
GR
GS
1 LJ
1.2 LW
N
196 320 M
201 315 L
S
GR
GS
1 LJ
1.2 LW
N
196 315 M
201 320 L
S
GR
GS
1 LJ
1.2 LW
N
200 353 M
205 348 L
S
GR
GS
1 LJ
1.2 LW
N
200 348 M
205 353 L
S
GR
GS
1 LJ
1.2 LW
N
204 386 M
209 381 L
S
GR
GS
1 LJ
1.2 LW
N
204 381 M
209 386 L
S
GR
GS
1 LJ
1.2 LW
N
208 386 M
213 381 L
S
GR
GS
1 LJ
1.2 LW
N
208 381 M
213 386 L
S
GR
GS
1 LJ
1.2 LW
N
213 386 M
218 381 L
S
GR
GS
1 LJ
1.2 LW
N
213 381 M
218 386 L
S
GR
GS
1 LJ
1.2 LW
N
217 320 M
222 315 L
S
GR
GS
1 LJ
1.2 LW
N
217 315 M
222 320 L
S
GR
GS
1 LJ
1.2 LW
N
221 353 M
226 348 L
S
GR
GS
1 LJ
1.2 LW
N
221 348 M
226 353 L
S
GR
GS
1 LJ
1.2 LW
N
225 386 M
230 381 L
S
GR
GS
1 LJ
1.2 LW
N
225 381 M
230 386 L
S
GR
GS
1 LJ
1.2 LW
N
229 353 M
234 348 L
S
GR
GS
1 LJ
1.2 LW
N
229 348 M
234 353 L
S
GR
GS
1 LJ
1.2 LW
N
233 386 M
238 381 L
S
GR
GS
1 LJ
1.2 LW
N
233 381 M
238 386 L
S
GR
GS
1 LJ
1.2 LW
N
237 320 M
242 315 L
S
GR
GS
1 LJ
1.2 LW
N
237 315 M
242 320 L
S
GR
GS
1 LJ
1.2 LW
N
242 386 M
247 381 L
S
GR
GS
1 LJ
1.2 LW
N
242 381 M
247 386 L
S
GR
GS
1 LJ
1.2 LW
N
246 386 M
251 381 L
S
GR
GS
1 LJ
1.2 LW
N
246 381 M
251 386 L
S
GR
GS
1 LJ
1.2 LW
N
250 386 M
255 381 L
S
GR
GS
1 LJ
1.2 LW
N
250 381 M
255 386 L
S
GR
GS
1 LJ
1.2 LW
N
254 320 M
259 315 L
S
GR
GS
1 LJ
1.2 LW
N
254 315 M
259 320 L
S
GR
GS
1 LJ
1.2 LW
N
258 386 M
263 381 L
S
GR
GS
1 LJ
1.2 LW
N
258 381 M
263 386 L
S
GR
GS
1 LJ
1.2 LW
N
262 386 M
267 381 L
S
GR
GS
1 LJ
1.2 LW
N
262 381 M
267 386 L
S
GR
GS
1 LJ
1.2 LW
N
266 320 M
271 315 L
S
GR
GS
1 LJ
1.2 LW
N
266 315 M
271 320 L
S
GR
GS
1 LJ
1.2 LW
N
271 353 M
276 348 L
S
GR
GS
1 LJ
1.2 LW
N
271 348 M
276 353 L
S
GR
GS
1 LJ
1.2 LW
N
275 353 M
280 348 L
S
GR
GS
1 LJ
1.2 LW
N
275 348 M
280 353 L
S
GR
GS
1 LJ
1.2 LW
N
279 353 M
284 348 L
S
GR
GS
1 LJ
1.2 LW
N
279 348 M
284 353 L
S
GR
GS
1 LJ
1.2 LW
N
283 386 M
288 381 L
S
GR
GS
1 LJ
1.2 LW
N
283 381 M
288 386 L
S
GR
GS
1 LJ
1.2 LW
N
287 386 M
292 381 L
S
GR
GS
1 LJ
1.2 LW
N
287 381 M
292 386 L
S
GR
GS
1 LJ
1.2 LW
N
291 320 M
296 315 L
S
GR
GS
1 LJ
1.2 LW
N
291 315 M
296 320 L
S
GR
GS
1 LJ
1.2 LW
N
295 386 M
300 381 L
S
GR
GS
1 LJ
1.2 LW
N
295 381 M
300 386 L
S
GR
GS
1 LJ
1.2 LW
N
300 386 M
305 381 L
S
GR
GS
1 LJ
1.2 LW
N
300 381 M
305 386 L
S
GR
GS
1 LJ
1.2 LW
N
304 386 M
309 381 L
S
GR
GS
1 LJ
1.2 LW
N
304 381 M
309 386 L
S
GR
GS
1 LJ
1.2 LW
N
308 386 M
313 381 L
S
GR
GS
1 LJ
1.2 LW
N
308 381 M
313 386 L
S
GR
GS
1 LJ
1.2 LW
N
312 386 M
317 381 L
S
GR
GS
1 LJ
1.2 LW
N
312 381 M
317 386 L
S
GR
GS
1 LJ
1.2 LW
N
316 386 M
321 381 L
S
GR
GS
1 LJ
1.2 LW
N
316 381 M
321 386 L
S
GR
GS
1 LJ
1.2 LW
N
320 386 M
325 381 L
S
GR
GS
1 LJ
1.2 LW
N
320 381 M
325 386 L
S
GR
GS
1 LJ
1.2 LW
N
324 386 M
329 381 L
S
GR
GS
1 LJ
1.2 LW
N
324 381 M
329 386 L
S
GR
GS
1 LJ
1.2 LW
N
329 353 M
334 348 L
S
GR
GS
1 LJ
1.2 LW
N
329 348 M
334 353 L
S
GR
GS
1 LJ
1.2 LW
N
333 386 M
338 381 L
S
GR
GS
1 LJ
1.2 LW
N
333 381 M
338 386 L
S
GR
GS
1 LJ
1.2 LW
N
337 386 M
342 381 L
S
GR
GS
1 LJ
1.2 LW
N
337 381 M
342 386 L
S
GR
GS
1 LJ
1.2 LW
N
341 353 M
346 348 L
S
GR
GS
1 LJ
1.2 LW
N
341 348 M
346 353 L
S
GR
GS
1 LJ
1.2 LW
N
345 386 M
350 381 L
S
GR
GS
1 LJ
1.2 LW
N
345 381 M
350 386 L
S
GR
GS
1 LJ
1.2 LW
N
349 353 M
354 348 L
S
GR
GS
1 LJ
1.2 LW
N
349 348 M
354 353 L
S
GR
GS
1 LJ
1.2 LW
N
353 353 M
358 348 L
S
GR
GS
1 LJ
1.2 LW
N
353 348 M
358 353 L
S
GR
GS
1 LJ
1.2 LW
N
358 386 M
363 381 L
S
GR
GS
1 LJ
1.2 LW
N
358 381 M
363 386 L
S
GR
GS
1 LJ
1.2 LW
N
362 386 M
367 381 L
S
GR
GS
1 LJ
1.2 LW
N
362 381 M
367 386 L
S
GR
GS
1 LJ
1.2 LW
N
366 386 M
371 381 L
S
GR
GS
1 LJ
1.2 LW
N
366 381 M
371 386 L
S
GR
GS
1 LJ
1.2 LW
N
370 386 M
375 381 L
S
GR
GS
1 LJ
1.2 LW
N
370 381 M
375 386 L
S
GR
GS
1 LJ
1.2 LW
N
374 386 M
379 381 L
S
GR
GS
1 LJ
1.2 LW
N
374 381 M
379 386 L
S
GR
GS
1 LJ
1.2 LW
N
378 386 M
383 381 L
S
GR
GS
1 LJ
1.2 LW
N
378 381 M
383 386 L
S
GR
GS
1 LJ
1.2 LW
N
382 386 M
387 381 L
S
GR
GS
1 LJ
1.2 LW
N
382 381 M
387 386 L
S
GR
GS
1 LJ
1.2 LW
N
387 386 M
392 381 L
S
GR
GS
1 LJ
1.2 LW
N
387 381 M
392 386 L
S
GR
GS
1 LJ
1.2 LW
N
391 386 M
396 381 L
S
GR
GS
1 LJ
1.2 LW
N
391 381 M
396 386 L
S
GR
GS
1 LJ
1.2 LW
N
395 386 M
400 381 L
S
GR
GS
1 LJ
1.2 LW
N
395 381 M
400 386 L
S
GR
GS
1 LJ
1.2 LW
N
399 386 M
404 381 L
S
GR
GS
1 LJ
1.2 LW
N
399 381 M
404 386 L
S
GR
GS
1 LJ
1.2 LW
N
403 386 M
408 381 L
S
GR
GS
1 LJ
1.2 LW
N
403 381 M
408 386 L
S
GR
GS
1 LJ
1.2 LW
N
407 386 M
412 381 L
S
GR
GS
1 LJ
1.2 LW
N
407 381 M
412 386 L
S
GR
GS
1 LJ
1.2 LW
N
411 386 M
416 381 L
S
GR
GS
1 LJ
1.2 LW
N
411 381 M
416 386 L
S
GR
GS
1 LJ
1.2 LW
N
416 353 M
421 348 L
S
GR
GS
1 LJ
1.2 LW
N
416 348 M
421 353 L
S
GR
GS
1 LJ
1.2 LW
N
420 386 M
425 381 L
S
GR
GS
1 LJ
1.2 LW
N
420 381 M
425 386 L
S
GR
GS
1 LJ
1.2 LW
N
424 386 M
429 381 L
S
GR
GS
1 LJ
1.2 LW
N
424 381 M
429 386 L
S
GR
GS
1 LJ
1.2 LW
N
428 386 M
433 381 L
S
GR
GS
1 LJ
1.2 LW
N
428 381 M
433 386 L
S
GR
GS
1 LJ
1.2 LW
N
432 386 M
437 381 L
S
GR
GS
1 LJ
1.2 LW
N
432 381 M
437 386 L
S
GR
GS
1 LJ
1.2 LW
N
436 386 M
441 381 L
S
GR
GS
1 LJ
1.2 LW
N
436 381 M
441 386 L
S
GR
GS
1 LJ
1.2 LW
N
440 386 M
445 381 L
S
GR
GS
1 LJ
1.2 LW
N
440 381 M
445 386 L
S
GR
GS
1 LJ
1.2 LW
N
445 386 M
450 381 L
S
GR
GS
1 LJ
1.2 LW
N
445 381 M
450 386 L
S
GR
GS
1 LJ
1.2 LW
N
449 386 M
454 381 L
S
GR
GS
1 LJ
1.2 LW
N
449 381 M
454 386 L
S
GR
GS
1 LJ
1.2 LW
N
453 386 M
458 381 L
S
GR
GS
1 LJ
1.2 LW
N
453 381 M
458 386 L
S
GR
GS
1 LJ
1.2 LW
N
457 386 M
462 381 L
S
GR
GS
1 LJ
1.2 LW
N
457 381 M
462 386 L
S
GR
GS
1 LJ
1.2 LW
N
461 386 M
466 381 L
S
GR
GS
1 LJ
1.2 LW
N
461 381 M
466 386 L
S
GR
GS
1 LJ
1.2 LW
N
465 386 M
470 381 L
S
GR
GS
1 LJ
1.2 LW
N
465 381 M
470 386 L
S
GR
GS
1 LJ
1.2 LW
N
469 386 M
474 381 L
S
GR
GS
1 LJ
1.2 LW
N
469 381 M
474 386 L
S
GR
GS
1 LJ
1.2 LW
N
474 386 M
479 381 L
S
GR
GS
1 LJ
1.2 LW
N
474 381 M
479 386 L
S
GR
GS
1 LJ
1.2 LW
N
478 386 M
483 381 L
S
GR
GS
1 LJ
1.2 LW
N
478 381 M
483 386 L
S
GR
GS
1 LJ
1.2 LW
N
482 386 M
487 381 L
S
GR
GS
1 LJ
1.2 LW
N
482 381 M
487 386 L
S
GR
GS
1 LJ
1.2 LW
N
486 320 M
491 315 L
S
GR
GS
1 LJ
1.2 LW
N
486 315 M
491 320 L
S
GR
%%Trailer
%%Pages: 1
%%EOF
